%YAML 1.1
%TAG !u! tag:unity3d.com,2011:
--- !u!114 &-7393476161868202481
MonoBehaviour:
  m_ObjectHideFlags: 11
  m_CorrespondingSourceObject: {fileID: 0}
  m_PrefabInstance: {fileID: 0}
  m_PrefabAsset: {fileID: 0}
  m_GameObject: {fileID: 0}
  m_Enabled: 1
  m_EditorHideFlags: 0
  m_Script: {fileID: 11500000, guid: d0353a89b1f911e48b9e16bdc9f2e058, type: 3}
  m_Name: 
  m_EditorClassIdentifier: 
  version: 1
--- !u!21 &2100000
Material:
  serializedVersion: 6
  m_ObjectHideFlags: 0
  m_CorrespondingSourceObject: {fileID: 0}
  m_PrefabInstance: {fileID: 0}
  m_PrefabAsset: {fileID: 0}
  m_Name: Skybox
  m_Shader: {fileID: 4800000, guid: 73351d50f05ccc948a1ccd1a8200a0e3, type: 3}
  m_ShaderKeywords: 
  m_LightmapFlags: 4
  m_EnableInstancingVariants: 0
  m_DoubleSidedGI: 0
  m_CustomRenderQueue: -1
  stringTagMap: {}
  disabledShaderPasses: []
  m_SavedProperties:
    serializedVersion: 3
    m_TexEnvs:
    - _BaseMap:
        m_Texture: {fileID: 0}
        m_Scale: {x: 1, y: 1}
        m_Offset: {x: 0, y: 0}
    - _BaseNoise:
        m_Texture: {fileID: 2800000, guid: 1bd6fc8458d6ee54c8f55690256cb859, type: 3}
        m_Scale: {x: 1, y: 1}
        m_Offset: {x: 0, y: 0}
    - _BumpMap:
        m_Texture: {fileID: 0}
        m_Scale: {x: 1, y: 1}
        m_Offset: {x: 0, y: 0}
    - _Distort:
        m_Texture: {fileID: 2800000, guid: eabfc74a2b49fa549bd244628226b39f, type: 3}
        m_Scale: {x: 1, y: 1}
        m_Offset: {x: 0, y: 0}
    - _EmissionMap:
        m_Texture: {fileID: 0}
        m_Scale: {x: 1, y: 1}
        m_Offset: {x: 0, y: 0}
    - _MainTex:
        m_Texture: {fileID: 0}
        m_Scale: {x: 1, y: 1}
        m_Offset: {x: 0, y: 0}
    - _MetallicGlossMap:
        m_Texture: {fileID: 0}
        m_Scale: {x: 1, y: 1}
        m_Offset: {x: 0, y: 0}
    - _OcclusionMap:
        m_Texture: {fileID: 0}
        m_Scale: {x: 1, y: 1}
        m_Offset: {x: 0, y: 0}
    - _SecNoise:
        m_Texture: {fileID: 2800000, guid: fd1a523570269da47ab3c38d4069d0ca, type: 3}
        m_Scale: {x: 1, y: 1}
        m_Offset: {x: 0, y: 0}
    - _SpecGlossMap:
        m_Texture: {fileID: 0}
        m_Scale: {x: 1, y: 1}
        m_Offset: {x: 0, y: 0}
    - _Stars:
        m_Texture: {fileID: 0}
        m_Scale: {x: 1, y: 1}
        m_Offset: {x: 0, y: 0}
    m_Floats:
    - _AlphaClip: 0
    - _BaseNoiseScale: 0
    - _Blend: 0
    - _Brightness: 2.3
    - _BumpScale: 1
    - _CloudCutoff: 0.409
    - _Cull: 2
    - _Cutoff: 0.5
    - _DistortScale: 0.2
    - _Distortion: 0.75
    - _DstBlend: 0
    - _EnvironmentReflections: 1
    - _FUZZY: 0
    - _Fuzziness: 0.5
    - _FuzzinessUnder: 0.508
    - _GlossMapScale: 0
    - _Glossiness: 0
    - _GlossyReflections: 0
    - _HorizonIntensity: 0.96
    - _Metallic: 0
    - _MoonOffset: -0.64
    - _MoonRadius: 0.22
    - _OcclusionStrength: 1
    - _OffsetHorizon: -0.92
    - _Outline: 0.005
    - _QueueOffset: 0
    - _ReceiveShadows: 1
    - _SecNoiseScale: 0.154
    - _Smoothness: 0.5
    - _SmoothnessTextureChannel: 0
    - _SpecularHighlights: 1
    - _Speed: 0.55
    - _SrcBlend: 1
    - _StarsCutoff: 0.08
    - _StarsSpeed: 0.131
    - _SunRadius: 0.22
    - _Surface: 0
    - _WorkflowMode: 1
    - _ZWrite: 1
    m_Colors:
    - _BaseColor: {r: 0.5, g: 0.5, b: 0.5, a: 1}
    - _CloudColorDayEdge: {r: 1, g: 1, b: 1, a: 1}
    - _CloudColorDayMain: {r: 0.56545925, g: 0.9115225, b: 0.9150943, a: 1}
    - _CloudColorDayUnder: {r: 0.7417675, g: 0.745283, b: 0.7417675, a: 1}
    - _CloudColorNightEdge: {r: 0, g: 0.07450981, b: 0.5176471, a: 1}
    - _CloudColorNightMain: {r: 0.17484283, g: 0, b: 0.8, a: 1}
    - _CloudColorNightUnder: {r: 0, g: 0.19999996, b: 0.6, a: 1}
    - _Color: {r: 0.5, g: 0.5, b: 0.5, a: 1}
    - _DayBottomColor: {r: 0.15686275, g: 0, b: 0.7058824, a: 1}
    - _DayTopColor: {r: 0, g: 0.54509807, b: 0.8980392, a: 1}
    - _EmissionColor: {r: 0, g: 0, b: 0, a: 1}
    - _HorizonColorDay: {r: 1, g: 0.18431373, b: 0, a: 1}
    - _HorizonColorNight: {r: 1, g: 0.15151516, b: 0, a: 1}
    - _MoonColor: {r: 0.8509804, g: 0.8509804, b: 0.8509804, a: 1}
    - _NightBottomColor: {r: 0, g: 0, b: 0, a: 0}
    - _NightTopColor: {r: 0.011764706, g: 0.59607846, b: 0.7372549, a: 1}
    - _OutlineColor: {r: 0, g: 0, b: 0, a: 1}
    - _SpecColor: {r: 0.19999996, g: 0.19999996, b: 0.19999996, a: 1}
    - _StarsSkyColor: {r: 0.023529412, g: 0.2784314, b: 0.65882355, a: 1}
    - _SunColor: {r: 1, g: 0.93979645, b: 0, a: 1}
    - _SunSet: {r: 1, g: 1, b: 1, a: 1}
