%YAML 1.1
%TAG !u! tag:unity3d.com,2011:
--- !u!74 &7400000
AnimationClip:
  m_ObjectHideFlags: 0
  m_CorrespondingSourceObject: {fileID: 0}
  m_PrefabInstance: {fileID: 0}
  m_PrefabAsset: {fileID: 0}
  m_Name: DeathNew
  serializedVersion: 6
  m_Legacy: 0
  m_Compressed: 0
  m_UseHighQualityCurve: 1
  m_RotationCurves:
  - curve:
      serializedVersion: 2
      m_Curve:
      - serializedVersion: 3
        time: 0
        value: {x: -0.7071068, y: 0, z: -0, w: 0.7071067}
        inSlope: {x: 0, y: 0, z: 0, w: 0}
        outSlope: {x: 0, y: 0, z: 0, w: 0}
        tangentMode: 0
        weightedMode: 0
        inWeight: {x: 0.33333334, y: 0.33333334, z: 0.33333334, w: 0.33333334}
        outWeight: {x: 0.33333334, y: 0.33333334, z: 0.33333334, w: 0.33333334}
      - serializedVersion: 3
        time: 1.5
        value: {x: -0.7071068, y: 0, z: -0, w: 0.7071067}
        inSlope: {x: 0, y: 0, z: 0, w: 0}
        outSlope: {x: 0, y: 0, z: 0, w: 0}
        tangentMode: 0
        weightedMode: 0
        inWeight: {x: 0.33333334, y: 0.33333334, z: 0.33333334, w: 0.33333334}
        outWeight: {x: 0.33333334, y: 0.33333334, z: 0.33333334, w: 0.33333334}
      m_PreInfinity: 2
      m_PostInfinity: 2
      m_RotationOrder: 4
    path: Armature
  - curve:
      serializedVersion: 2
      m_Curve:
      - serializedVersion: 3
        time: 0
        value: {x: 0.70710635, y: -0.0007933594, z: 0.0007933595, w: 0.70710635}
        inSlope: {x: 0, y: 0, z: 0, w: 0}
        outSlope: {x: 0, y: 0, z: 0, w: 0}
        tangentMode: 0
        weightedMode: 0
        inWeight: {x: 0.33333334, y: 0.33333334, z: 0.33333334, w: 0.33333334}
        outWeight: {x: 0.33333334, y: 0.33333334, z: 0.33333334, w: 0.33333334}
      - serializedVersion: 3
        time: 1.5
        value: {x: 0.70710635, y: -0.0007933594, z: 0.0007933595, w: 0.70710635}
        inSlope: {x: 0, y: 0, z: 0, w: 0}
        outSlope: {x: 0, y: 0, z: 0, w: 0}
        tangentMode: 0
        weightedMode: 0
        inWeight: {x: 0.33333334, y: 0.33333334, z: 0.33333334, w: 0.33333334}
        outWeight: {x: 0.33333334, y: 0.33333334, z: 0.33333334, w: 0.33333334}
      m_PreInfinity: 2
      m_PostInfinity: 2
      m_RotationOrder: 4
    path: Armature/Torso
  - curve:
      serializedVersion: 2
      m_Curve:
      - serializedVersion: 3
        time: 0
        value: {x: 0.0000000958773, y: -4.1406154e-10, z: 0.0027964346, w: 0.9999961}
        inSlope: {x: 0, y: 0, z: 0, w: 0}
        outSlope: {x: 0, y: 0, z: 0, w: 0}
        tangentMode: 0
        weightedMode: 0
        inWeight: {x: 0.33333334, y: 0.33333334, z: 0.33333334, w: 0.33333334}
        outWeight: {x: 0.33333334, y: 0.33333334, z: 0.33333334, w: 0.33333334}
      - serializedVersion: 3
        time: 1.5
        value: {x: 0.0000000958773, y: -4.1406154e-10, z: 0.0027964346, w: 0.9999961}
        inSlope: {x: 0, y: 0, z: 0, w: 0}
        outSlope: {x: 0, y: 0, z: 0, w: 0}
        tangentMode: 0
        weightedMode: 0
        inWeight: {x: 0.33333334, y: 0.33333334, z: 0.33333334, w: 0.33333334}
        outWeight: {x: 0.33333334, y: 0.33333334, z: 0.33333334, w: 0.33333334}
      m_PreInfinity: 2
      m_PostInfinity: 2
      m_RotationOrder: 4
    path: Armature/Torso/Chest
  - curve:
      serializedVersion: 2
      m_Curve:
      - serializedVersion: 3
        time: 0
        value: {x: -0.00000009424029, y: 3.0008718e-10, z: -0.0039184075, w: 0.9999923}
        inSlope: {x: 0.079707585, y: 0.011518639, z: -0.119993515, w: -0.00090408325}
        outSlope: {x: 0.079707585, y: 0.011518639, z: -0.119993515, w: -0.00090408325}
        tangentMode: 0
        weightedMode: 0
        inWeight: {x: 0.33333334, y: 0.33333334, z: 0.33333334, w: 0.33333334}
        outWeight: {x: 0.33333334, y: 0.33333334, z: 0.33333334, w: 0.33333334}
      - serializedVersion: 3
        time: 0.16666667
        value: {x: 0.042611085, y: 0.0061577936, z: -0.06489509, w: 0.9969629}
        inSlope: {x: 0.42068326, y: 0.060793437, z: -0.56828994, w: -0.05608534}
        outSlope: {x: 0.42068326, y: 0.060793437, z: -0.56828994, w: -0.05608534}
        tangentMode: 0
        weightedMode: 0
        inWeight: {x: 0.33333334, y: 0.33333334, z: 0.33333334, w: 0.33333334}
        outWeight: {x: 0.33333334, y: 0.33333334, z: 0.33333334, w: 0.33333334}
      - serializedVersion: 3
        time: 0.375
        value: {x: 0.12504315, y: 0.01807015, z: -0.14956902, w: 0.98064613}
        inSlope: {x: 0.23765479, y: 0.034343787, z: -0.059272364, w: -0.039287567}
        outSlope: {x: 0.23765479, y: 0.034343787, z: -0.059272364, w: -0.039287567}
        tangentMode: 0
        weightedMode: 0
        inWeight: {x: 0.33333334, y: 0.33333334, z: 0.33333334, w: 0.33333334}
        outWeight: {x: 0.33333334, y: 0.33333334, z: 0.33333334, w: 0.33333334}
      - serializedVersion: 3
        time: 0.625
        value: {x: 0.19096875, y: 0.027597135, z: -0.14802422, w: 0.96997845}
        inSlope: {x: 0.6805947, y: 0.098353595, z: 0.0225243, w: -0.13743639}
        outSlope: {x: 0.6805947, y: 0.098353595, z: 0.0225243, w: -0.13743639}
        tangentMode: 0
        weightedMode: 0
        inWeight: {x: 0.33333334, y: 0.33333334, z: 0.33333334, w: 0.33333334}
        outWeight: {x: 0.33333334, y: 0.33333334, z: 0.33333334, w: 0.33333334}
      - serializedVersion: 3
        time: 0.75
        value: {x: 0.33584204, y: 0.04853294, z: -0.14183117, w: 0.9299132}
        inSlope: {x: 1.7054131, y: 0.24645111, z: 0.09614201, w: -0.6303485}
        outSlope: {x: 1.7054131, y: 0.24645111, z: 0.09614201, w: -0.6303485}
        tangentMode: 0
        weightedMode: 0
        inWeight: {x: 0.33333334, y: 0.33333334, z: 0.33333334, w: 0.33333334}
        outWeight: {x: 0.33333334, y: 0.33333334, z: 0.33333334, w: 0.33333334}
      - serializedVersion: 3
        time: 0.8333334
        value: {x: 0.4923984, y: 0.07115708, z: -0.13079263, w: 0.85753936}
        inSlope: {x: 1.7910258, y: 0.25882322, z: 0.15547973, w: -1.0194035}
        outSlope: {x: 1.7910258, y: 0.25882322, z: 0.15547973, w: -1.0194035}
        tangentMode: 0
        weightedMode: 0
        inWeight: {x: 0.33333334, y: 0.33333334, z: 0.33333334, w: 0.33333334}
        outWeight: {x: 0.33333334, y: 0.33333334, z: 0.33333334, w: 0.33333334}
      - serializedVersion: 3
        time: 1
        value: {x: 0.6924241, y: 0.100063026, z: -0.10773305, w: 0.7063497}
        inSlope: {x: 0.45000398, y: 0.06479369, z: 0.065724954, w: -0.42935878}
        outSlope: {x: 0.45000398, y: 0.06479369, z: 0.065724954, w: -0.42935878}
        tangentMode: 0
        weightedMode: 0
        inWeight: {x: 0.33333334, y: 0.33333334, z: 0.33333334, w: 0.33333334}
        outWeight: {x: 0.33333334, y: 0.33333334, z: 0.33333334, w: 0.33333334}
      - serializedVersion: 3
        time: 1.125
        value: {x: 0.7022068, y: 0.101460576, z: -0.10623781, w: 0.6966527}
        inSlope: {x: -0.0000064372975, y: 0.000042200067, z: -0.000042468288, w: -0.0000064372975}
        outSlope: {x: -0.0000064372975, y: 0.000042200067, z: -0.000042468288, w: -0.0000064372975}
        tangentMode: 0
        weightedMode: 0
        inWeight: {x: 0.33333334, y: 0.33333334, z: 0.33333334, w: 0.33333334}
        outWeight: {x: 0.33333334, y: 0.33333334, z: 0.33333334, w: 0.33333334}
      - serializedVersion: 3
        time: 1.5
        value: {x: 0.70220447, y: 0.10147639, z: -0.10625371, w: 0.69665027}
        inSlope: {x: -0.0000057220514, y: 0.00004220013, z: -0.000042378942, w: -0.000007152564}
        outSlope: {x: -0.0000057220514, y: 0.00004220013, z: -0.000042378942, w: -0.000007152564}
        tangentMode: 0
        weightedMode: 0
        inWeight: {x: 0.33333334, y: 0.33333334, z: 0.33333334, w: 0.33333334}
        outWeight: {x: 0.33333334, y: 0.33333334, z: 0.33333334, w: 0.33333334}
      m_PreInfinity: 2
      m_PostInfinity: 2
      m_RotationOrder: 4
    path: Armature/Torso/Chest/Head
  - curve:
      serializedVersion: 2
      m_Curve:
      - serializedVersion: 3
        time: 0
        value: {x: -0.0000000018757642, y: 0.0000000026373563, z: -0.66744983, w: 0.7446548}
        inSlope: {x: 0.00000000421441, y: 0.000000006460059, z: -0.009763241, w: -0.008756161}
        outSlope: {x: 0.00000000421441, y: 0.000000006460059, z: -0.009763241, w: -0.008756161}
        tangentMode: 0
        weightedMode: 0
        inWeight: {x: 0.33333334, y: 0.33333334, z: 0.33333334, w: 0.33333334}
        outWeight: {x: 0.33333334, y: 0.33333334, z: 0.33333334, w: 0.33333334}
      - serializedVersion: 3
        time: 0.45833334
        value: {x: 4.921043e-10, y: 0.000000005566414, z: -0.7257259, w: 0.687984}
        inSlope: {x: 0.000000007678075, y: 0.0000000057965273, z: -0.36777744, w: -0.38953838}
        outSlope: {x: 0.000000007678075, y: 0.0000000057965273, z: -0.36777744, w: -0.38953838}
        tangentMode: 0
        weightedMode: 0
        inWeight: {x: 0.33333334, y: 0.33333334, z: 0.33333334, w: 0.33333334}
        outWeight: {x: 0.33333334, y: 0.33333334, z: 0.33333334, w: 0.33333334}
      - serializedVersion: 3
        time: 0.5833334
        value: {x: 0.0000000016209654, y: 0.0000000062091297, z: -0.7825187, w: 0.6226271}
        inSlope: {x: 0.000000010558841, y: 0.0000000042205714, z: -0.53562224, w: -0.6766064}
        outSlope: {x: 0.000000010558841, y: 0.0000000042205714, z: -0.53562224, w: -0.6766064}
        tangentMode: 0
        weightedMode: 0
        inWeight: {x: 0.33333334, y: 0.33333334, z: 0.33333334, w: 0.33333334}
        outWeight: {x: 0.33333334, y: 0.33333334, z: 0.33333334, w: 0.33333334}
      - serializedVersion: 3
        time: 0.625
        value: {x: 0.0000000020836892, y: 0.000000006369135, z: -0.8058703, w: 0.59209216}
        inSlope: {x: 0.000000013977108, y: 0.0000000024016165, z: -0.77448606, w: -1.0935423}
        outSlope: {x: 0.000000013977108, y: 0.0000000024016165, z: -0.77448606, w: -1.0935423}
        tangentMode: 0
        weightedMode: 0
        inWeight: {x: 0.33333334, y: 0.33333334, z: 0.33333334, w: 0.33333334}
        outWeight: {x: 0.33333334, y: 0.33333334, z: 0.33333334, w: 0.33333334}
      - serializedVersion: 3
        time: 0.6666667
        value: {x: 0.0000000027857243, y: 0.0000000064092642, z: -0.8470592, w: 0.53149855}
        inSlope: {x: 0.000000015473805, y: 9.646892e-10, z: -0.81765425, w: -1.2741703}
        outSlope: {x: 0.000000015473805, y: 9.646892e-10, z: -0.81765425, w: -1.2741703}
        tangentMode: 0
        weightedMode: 0
        inWeight: {x: 0.33333334, y: 0.33333334, z: 0.33333334, w: 0.33333334}
        outWeight: {x: 0.33333334, y: 0.33333334, z: 0.33333334, w: 0.33333334}
      - serializedVersion: 3
        time: 0.7083334
        value: {x: 0.0000000033731737, y: 0.000000006449526, z: -0.8740082, w: 0.48591125}
        inSlope: {x: 0.000000008809996, y: 0.000000003520424, z: -0.2300582, w: -0.38225085}
        outSlope: {x: 0.000000008809996, y: 0.000000003520424, z: -0.2300582, w: -0.38225085}
        tangentMode: 0
        weightedMode: 0
        inWeight: {x: 0.33333334, y: 0.33333334, z: 0.33333334, w: 0.33333334}
        outWeight: {x: 0.33333334, y: 0.33333334, z: 0.33333334, w: 0.33333334}
      - serializedVersion: 3
        time: 0.7916667
        value: {x: 0.000000003475598, y: 0.000000007055481, z: -0.844485, w: 0.5355792}
        inSlope: {x: -0.0000000029702627, y: 0.000000009288251, z: 0.6655981, w: 1.0287433}
        outSlope: {x: -0.0000000029702627, y: 0.000000009288251, z: 0.6655981, w: 1.0287433}
        tangentMode: 0
        weightedMode: 0
        inWeight: {x: 0.33333334, y: 0.33333334, z: 0.33333334, w: 0.33333334}
        outWeight: {x: 0.33333334, y: 0.33333334, z: 0.33333334, w: 0.33333334}
      - serializedVersion: 3
        time: 0.9166667
        value: {x: 0.0000000025917113, y: 0.000000008366809, z: -0.72177535, w: 0.6921274}
        inSlope: {x: -0.000000008323839, y: 0.000000010161093, z: 1.0711236, w: 1.1275673}
        outSlope: {x: -0.000000008323839, y: 0.000000010161093, z: 1.0711236, w: 1.1275673}
        tangentMode: 0
        weightedMode: 0
        inWeight: {x: 0.33333334, y: 0.33333334, z: 0.33333334, w: 0.33333334}
        outWeight: {x: 0.33333334, y: 0.33333334, z: 0.33333334, w: 0.33333334}
      - serializedVersion: 3
        time: 1.0416667
        value: {x: 0.0000000020767592, y: 0.000000009439734, z: -0.63532513, w: 0.77224475}
        inSlope: {x: 0.0000000021672837, y: 0.000000006985022, z: 0.14530106, w: 0.1214738}
        outSlope: {x: 0.0000000021672837, y: 0.000000006985022, z: 0.14530106, w: 0.1214738}
        tangentMode: 0
        weightedMode: 0
        inWeight: {x: 0.33333334, y: 0.33333334, z: 0.33333334, w: 0.33333334}
        outWeight: {x: 0.33333334, y: 0.33333334, z: 0.33333334, w: 0.33333334}
      - serializedVersion: 3
        time: 1.1666667
        value: {x: 0.000000002564259, y: 0.0000000102658335, z: -0.63532513, w: 0.77224475}
        inSlope: {x: 0.000000003899993, y: 0.0000000066087904, z: 0, w: 0}
        outSlope: {x: 0.000000003899993, y: 0.0000000066087904, z: 0, w: 0}
        tangentMode: 0
        weightedMode: 0
        inWeight: {x: 0.33333334, y: 0.33333334, z: 0.33333334, w: 0.33333334}
        outWeight: {x: 0.33333334, y: 0.33333334, z: 0.33333334, w: 0.33333334}
      - serializedVersion: 3
        time: 1.5
        value: {x: 0.000000003864258, y: 0.000000012468762, z: -0.63532513, w: 0.77224475}
        inSlope: {x: 0.0000000038999985, y: 0.0000000066087784, z: 0, w: 0}
        outSlope: {x: 0.0000000038999985, y: 0.0000000066087784, z: 0, w: 0}
        tangentMode: 0
        weightedMode: 0
        inWeight: {x: 0.33333334, y: 0.33333334, z: 0.33333334, w: 0.33333334}
        outWeight: {x: 0.33333334, y: 0.33333334, z: 0.33333334, w: 0.33333334}
      m_PreInfinity: 2
      m_PostInfinity: 2
      m_RotationOrder: 4
    path: Armature/Torso/Chest/UpperArm.L
  - curve:
      serializedVersion: 2
      m_Curve:
      - serializedVersion: 3
        time: 0
        value: {x: 3.3207662e-10, y: 0.0000000087154, z: -0.016940255, w: 0.99985653}
        inSlope: {x: 0.0000000016469413, y: 0.0000000063216206, z: -0.19757402, w: -0.004161358}
        outSlope: {x: 0.0000000016469413, y: 0.0000000063216206, z: -0.19757402, w: -0.004161358}
        tangentMode: 0
        weightedMode: 0
        inWeight: {x: 0.33333334, y: 0.33333334, z: 0.33333334, w: 0.33333334}
        outWeight: {x: 0.33333334, y: 0.33333334, z: 0.33333334, w: 0.33333334}
      - serializedVersion: 3
        time: 0.125
        value: {x: 9.105378e-10, y: 0.000000009476191, z: -0.07943869, w: 0.99683976}
        inSlope: {x: 0.000000008309461, y: 0.000000005588916, z: -0.8434577, w: -0.06981754}
        outSlope: {x: 0.000000008309461, y: 0.000000005588916, z: -0.8434577, w: -0.06981754}
        tangentMode: 0
        weightedMode: 0
        inWeight: {x: 0.33333334, y: 0.33333334, z: 0.33333334, w: 0.33333334}
        outWeight: {x: 0.33333334, y: 0.33333334, z: 0.33333334, w: 0.33333334}
      - serializedVersion: 3
        time: 0.2916667
        value: {x: 0.0000000025130016, y: 0.000000010281621, z: -0.2268091, w: 0.97393924}
        inSlope: {x: 0.000000007900146, y: 0.0000000046762163, z: -0.63582915, w: -0.1447005}
        outSlope: {x: 0.000000007900146, y: 0.0000000046762163, z: -0.63582915, w: -0.1447005}
        tangentMode: 0
        weightedMode: 0
        inWeight: {x: 0.33333334, y: 0.33333334, z: 0.33333334, w: 0.33333334}
        outWeight: {x: 0.33333334, y: 0.33333334, z: 0.33333334, w: 0.33333334}
      - serializedVersion: 3
        time: 0.45833334
        value: {x: 0.0000000025338789, y: 0.000000011370039, z: -0.2111297, w: 0.97745806}
        inSlope: {x: -0.000000010360381, y: 0.000000008751369, z: 0.9823947, w: 0.20407182}
        outSlope: {x: -0.000000010360381, y: 0.000000008751369, z: 0.9823947, w: 0.20407182}
        tangentMode: 0
        weightedMode: 0
        inWeight: {x: 0.33333334, y: 0.33333334, z: 0.33333334, w: 0.33333334}
        outWeight: {x: 0.33333334, y: 0.33333334, z: 0.33333334, w: 0.33333334}
      - serializedVersion: 3
        time: 0.5833334
        value: {x: 5.477034e-10, y: 0.000000012435547, z: -0.040252022, w: 0.99918956}
        inSlope: {x: -0.000000018293289, y: 0.0000000072199966, z: 1.4724257, w: 0.061747294}
        outSlope: {x: -0.000000018293289, y: 0.0000000072199966, z: 1.4724257, w: 0.061747294}
        tangentMode: 0
        weightedMode: 0
        inWeight: {x: 0.33333334, y: 0.33333334, z: 0.33333334, w: 0.33333334}
        outWeight: {x: 0.33333334, y: 0.33333334, z: 0.33333334, w: 0.33333334}
      - serializedVersion: 3
        time: 0.75
        value: {x: -0.0000000015542287, y: 0.000000013422903, z: 0.11556227, w: 0.99330026}
        inSlope: {x: -0.0000000010877528, y: 0.000000006311678, z: 0.014013663, w: -0.0014634356}
        outSlope: {x: -0.0000000010877528, y: 0.000000006311678, z: 0.014013663, w: -0.0014634356}
        tangentMode: 0
        weightedMode: 0
        inWeight: {x: 0.33333334, y: 0.33333334, z: 0.33333334, w: 0.33333334}
        outWeight: {x: 0.33333334, y: 0.33333334, z: 0.33333334, w: 0.33333334}
      - serializedVersion: 3
        time: 0.9166667
        value: {x: 4.5529348e-11, y: 0.000000014577616, z: -0.005316494, w: 0.9999859}
        inSlope: {x: 0.000000014044167, y: 0.0000000063663923, z: -0.9780141, w: -0.0034832936}
        outSlope: {x: 0.000000014044167, y: 0.0000000063663923, z: -0.9780141, w: -0.0034832936}
        tangentMode: 0
        weightedMode: 0
        inWeight: {x: 0.33333334, y: 0.33333334, z: 0.33333334, w: 0.33333334}
        outWeight: {x: 0.33333334, y: 0.33333334, z: 0.33333334, w: 0.33333334}
      - serializedVersion: 3
        time: 1.0416667
        value: {x: 0.000000001225712, y: 0.000000015327647, z: -0.08369766, w: 0.9964912}
        inSlope: {x: 0.0000000022906799, y: 0.000000006238399, z: -0.13173144, w: -0.010334711}
        outSlope: {x: 0.0000000022906799, y: 0.000000006238399, z: -0.13173144, w: -0.010334711}
        tangentMode: 0
        weightedMode: 0
        inWeight: {x: 0.33333334, y: 0.33333334, z: 0.33333334, w: 0.33333334}
        outWeight: {x: 0.33333334, y: 0.33333334, z: 0.33333334, w: 0.33333334}
      - serializedVersion: 3
        time: 1.25
        value: {x: 0.0000000012881413, y: 0.000000016658426, z: -0.08369766, w: 0.9964912}
        inSlope: {x: 2.9966013e-10, y: 0.000000006387741, z: 0, w: 0}
        outSlope: {x: 2.9966013e-10, y: 0.000000006387741, z: 0, w: 0}
        tangentMode: 0
        weightedMode: 0
        inWeight: {x: 0.33333334, y: 0.33333334, z: 0.33333334, w: 0.33333334}
        outWeight: {x: 0.33333334, y: 0.33333334, z: 0.33333334, w: 0.33333334}
      - serializedVersion: 3
        time: 1.5
        value: {x: 0.0000000013630563, y: 0.000000018255362, z: -0.08369766, w: 0.9964912}
        inSlope: {x: 2.9965924e-10, y: 0.000000006387771, z: 0, w: 0}
        outSlope: {x: 2.9965924e-10, y: 0.000000006387771, z: 0, w: 0}
        tangentMode: 0
        weightedMode: 0
        inWeight: {x: 0.33333334, y: 0.33333334, z: 0.33333334, w: 0.33333334}
        outWeight: {x: 0.33333334, y: 0.33333334, z: 0.33333334, w: 0.33333334}
      m_PreInfinity: 2
      m_PostInfinity: 2
      m_RotationOrder: 4
    path: Armature/Torso/Chest/UpperArm.L/LowerArm.L
  - curve:
      serializedVersion: 2
      m_Curve:
      - serializedVersion: 3
        time: 0
        value: {x: 0.000000008956514, y: -0.000000008442582, z: 0.7087577, w: 0.705452}
        inSlope: {x: 0.0000000047365205, y: -0.000000007913243, z: 0.075249195, w: -0.07594013}
        outSlope: {x: 0.0000000047365205, y: -0.000000007913243, z: 0.075249195, w: -0.07594013}
        tangentMode: 0
        weightedMode: 0
        inWeight: {x: 0.33333334, y: 0.33333334, z: 0.33333334, w: 0.33333334}
        outWeight: {x: 0.33333334, y: 0.33333334, z: 0.33333334, w: 0.33333334}
      - serializedVersion: 3
        time: 0.25
        value: {x: 0.000000011055739, y: -0.000000009467576, z: 0.7844844, w: 0.62014854}
        inSlope: {x: 0.00000001123078, y: -8.659313e-10, z: 0.42239422, w: -0.53432673}
        outSlope: {x: 0.00000001123078, y: -8.659313e-10, z: 0.42239422, w: -0.53432673}
        tangentMode: 0
        weightedMode: 0
        inWeight: {x: 0.33333334, y: 0.33333334, z: 0.33333334, w: 0.33333334}
        outWeight: {x: 0.33333334, y: 0.33333334, z: 0.33333334, w: 0.33333334}
      - serializedVersion: 3
        time: 0.5
        value: {x: 0.000000013489392, y: -0.000000010096975, z: 0.85000396, w: 0.5267763}
        inSlope: {x: 0.0000000062334986, y: -0.0000000070929493, z: 0.028259046, w: -0.04537226}
        outSlope: {x: 0.0000000062334986, y: -0.0000000070929493, z: 0.028259046,
          w: -0.04537226}
        tangentMode: 0
        weightedMode: 0
        inWeight: {x: 0.33333334, y: 0.33333334, z: 0.33333334, w: 0.33333334}
        outWeight: {x: 0.33333334, y: 0.33333334, z: 0.33333334, w: 0.33333334}
      - serializedVersion: 3
        time: 0.5833334
        value: {x: 0.000000013965193, y: -0.000000010746985, z: 0.85000396, w: 0.5267763}
        inSlope: {x: 0.0000000057096208, y: -0.00000000780012, z: 0, w: 0}
        outSlope: {x: 0.0000000057096208, y: -0.00000000780012, z: 0, w: 0}
        tangentMode: 0
        weightedMode: 0
        inWeight: {x: 0.33333334, y: 0.33333334, z: 0.33333334, w: 0.33333334}
        outWeight: {x: 0.33333334, y: 0.33333334, z: 0.33333334, w: 0.33333334}
      - serializedVersion: 3
        time: 0.625
        value: {x: 0.000000014203093, y: -0.0000000110719895, z: 0.85000396, w: 0.5267763}
        inSlope: {x: 0.000000016066622, y: 0.0000000064586008, z: 0.4717281, w: -0.83376604}
        outSlope: {x: 0.000000016066622, y: 0.0000000064586008, z: 0.4717281, w: -0.83376604}
        tangentMode: 0
        weightedMode: 0
        inWeight: {x: 0.33333334, y: 0.33333334, z: 0.33333334, w: 0.33333334}
        outWeight: {x: 0.33333334, y: 0.33333334, z: 0.33333334, w: 0.33333334}
      - serializedVersion: 3
        time: 0.6666667
        value: {x: 0.000000015304078, y: -0.000000010208767, z: 0.88931465, w: 0.45729578}
        inSlope: {x: 0.000000025837123, y: 0.00000002200158, z: 0.87544614, w: -1.7025006}
        outSlope: {x: 0.000000025837123, y: 0.00000002200158, z: 0.87544614, w: -1.7025006}
        tangentMode: 0
        weightedMode: 0
        inWeight: {x: 0.33333334, y: 0.33333334, z: 0.33333334, w: 0.33333334}
        outWeight: {x: 0.33333334, y: 0.33333334, z: 0.33333334, w: 0.33333334}
      - serializedVersion: 3
        time: 0.7083334
        value: {x: 0.000000016356188, y: -0.000000009238524, z: 0.92295784, w: 0.3849012}
        inSlope: {x: 0.000000013725655, y: 0.0000000042530335, z: 0.3085861, w: -0.64692247}
        outSlope: {x: 0.000000013725655, y: 0.0000000042530335, z: 0.3085861, w: -0.64692247}
        tangentMode: 0
        weightedMode: 0
        inWeight: {x: 0.33333334, y: 0.33333334, z: 0.33333334, w: 0.33333334}
        outWeight: {x: 0.33333334, y: 0.33333334, z: 0.33333334, w: 0.33333334}
      - serializedVersion: 3
        time: 0.75
        value: {x: 0.000000016447883, y: -0.000000009854347, z: 0.9150302, w: 0.40338552}
        inSlope: {x: -0.0000000023750575, y: -0.000000021487313, z: -0.3717055, w: 0.806028}
        outSlope: {x: -0.0000000023750575, y: -0.000000021487313, z: -0.3717055, w: 0.806028}
        tangentMode: 0
        weightedMode: 0
        inWeight: {x: 0.33333334, y: 0.33333334, z: 0.33333334, w: 0.33333334}
        outWeight: {x: 0.33333334, y: 0.33333334, z: 0.33333334, w: 0.33333334}
      - serializedVersion: 3
        time: 0.875
        value: {x: 0.000000014503038, y: -0.000000014266994, z: 0.80365336, w: 0.5950977}
        inSlope: {x: -0.00000002591942, y: -0.000000039668205, z: -1.2907822, w: 1.7431431}
        outSlope: {x: -0.00000002591942, y: -0.000000039668205, z: -1.2907822, w: 1.7431431}
        tangentMode: 0
        weightedMode: 0
        inWeight: {x: 0.33333334, y: 0.33333334, z: 0.33333334, w: 0.33333334}
        outWeight: {x: 0.33333334, y: 0.33333334, z: 0.33333334, w: 0.33333334}
      - serializedVersion: 3
        time: 1
        value: {x: 0.000000011391073, y: -0.000000018256314, z: 0.65277004, w: 0.75755614}
        inSlope: {x: -0.000000012773604, y: -0.000000019476813, z: -0.6625351, w: 0.59066904}
        outSlope: {x: -0.000000012773604, y: -0.000000019476813, z: -0.6625351, w: 0.59066904}
        tangentMode: 0
        weightedMode: 0
        inWeight: {x: 0.33333334, y: 0.33333334, z: 0.33333334, w: 0.33333334}
        outWeight: {x: 0.33333334, y: 0.33333334, z: 0.33333334, w: 0.33333334}
      - serializedVersion: 3
        time: 1.125
        value: {x: 0.000000011386766, y: -0.000000019633532, z: 0.6374025, w: 0.7705311}
        inSlope: {x: 0.000000002921246, y: -0.000000009214513, z: 0, w: 0}
        outSlope: {x: 0.000000002921246, y: -0.000000009214513, z: 0, w: 0}
        tangentMode: 0
        weightedMode: 0
        inWeight: {x: 0.33333334, y: 0.33333334, z: 0.33333334, w: 0.33333334}
        outWeight: {x: 0.33333334, y: 0.33333334, z: 0.33333334, w: 0.33333334}
      - serializedVersion: 3
        time: 1.5
        value: {x: 0.0000000124822375, y: -0.00000002308898, z: 0.6374025, w: 0.7705311}
        inSlope: {x: 0.0000000029212714, y: -0.000000009214526, z: 0, w: 0}
        outSlope: {x: 0.0000000029212714, y: -0.000000009214526, z: 0, w: 0}
        tangentMode: 0
        weightedMode: 0
        inWeight: {x: 0.33333334, y: 0.33333334, z: 0.33333334, w: 0.33333334}
        outWeight: {x: 0.33333334, y: 0.33333334, z: 0.33333334, w: 0.33333334}
      m_PreInfinity: 2
      m_PostInfinity: 2
      m_RotationOrder: 4
    path: Armature/Torso/Chest/UpperArm.R
  - curve:
      serializedVersion: 2
      m_Curve:
      - serializedVersion: 3
        time: 0
        value: {x: -0.000000001763137, y: -0.000000019127901, z: -0.018017467, w: 0.9998377}
        inSlope: {x: 0.0000000059765792, y: -0.000000003569241, z: 0.100147, w: 0.0015950203}
        outSlope: {x: 0.0000000059765792, y: -0.000000003569241, z: 0.100147, w: 0.0015950203}
        tangentMode: 0
        weightedMode: 0
        inWeight: {x: 0.33333334, y: 0.33333334, z: 0.33333334, w: 0.33333334}
        outWeight: {x: 0.33333334, y: 0.33333334, z: 0.33333334, w: 0.33333334}
      - serializedVersion: 3
        time: 0.25
        value: {x: 0.0000000010547855, y: -0.000000019967574, z: 0.07229162, w: 0.99738353}
        inSlope: {x: 0.000000012834429, y: -0.0000000026043165, z: 0.4246886, w: -0.030135151}
        outSlope: {x: 0.000000012834429, y: -0.0000000026043165, z: 0.4246886, w: -0.030135151}
        tangentMode: 0
        weightedMode: 0
        inWeight: {x: 0.33333334, y: 0.33333334, z: 0.33333334, w: 0.33333334}
        outWeight: {x: 0.33333334, y: 0.33333334, z: 0.33333334, w: 0.33333334}
      - serializedVersion: 3
        time: 0.45833334
        value: {x: 0.0000000020819098, y: -0.00000002058764, z: 0.07826829, w: 0.9969323}
        inSlope: {x: -0.0000000069652035, y: -0.000000004121163, z: -0.54748356, w: 0.040657293}
        outSlope: {x: -0.0000000069652035, y: -0.000000004121163, z: -0.54748356,
          w: 0.040657293}
        tangentMode: 0
        weightedMode: 0
        inWeight: {x: 0.33333334, y: 0.33333334, z: 0.33333334, w: 0.33333334}
        outWeight: {x: 0.33333334, y: 0.33333334, z: 0.33333334, w: 0.33333334}
      - serializedVersion: 3
        time: 0.6666667
        value: {x: -2.694616e-10, y: -0.000000021422276, z: -0.07415227, w: 0.9972469}
        inSlope: {x: -0.0000000078988505, y: -0.0000000035199132, z: -0.5476478, w: -0.038397055}
        outSlope: {x: -0.0000000078988505, y: -0.0000000035199132, z: -0.5476478,
          w: -0.038397055}
        tangentMode: 0
        weightedMode: 0
        inWeight: {x: 0.33333334, y: 0.33333334, z: 0.33333334, w: 0.33333334}
        outWeight: {x: 0.33333334, y: 0.33333334, z: 0.33333334, w: 0.33333334}
      - serializedVersion: 3
        time: 0.8333334
        value: {x: 6.155896e-10, y: -0.000000022022714, z: -0.06311345, w: 0.99800634}
        inSlope: {x: 0.000000020472125, y: -0.0000000030270617, z: 0.7511697, w: 0.043797262}
        outSlope: {x: 0.000000020472125, y: -0.0000000030270617, z: 0.7511697, w: 0.043797262}
        tangentMode: 0
        weightedMode: 0
        inWeight: {x: 0.33333334, y: 0.33333334, z: 0.33333334, w: 0.33333334}
        outWeight: {x: 0.33333334, y: 0.33333334, z: 0.33333334, w: 0.33333334}
      - serializedVersion: 3
        time: 1
        value: {x: 0.0000000043760155, y: -0.000000022230132, z: 0.07533854, w: 0.997158}
        inSlope: {x: 0.0000000141169, y: -0.0000000012099746, z: 0.43894777, w: -0.029585838}
        outSlope: {x: 0.0000000141169, y: -0.0000000012099746, z: 0.43894777, w: -0.029585838}
        tangentMode: 0
        weightedMode: 0
        inWeight: {x: 0.33333334, y: 0.33333334, z: 0.33333334, w: 0.33333334}
        outWeight: {x: 0.33333334, y: 0.33333334, z: 0.33333334, w: 0.33333334}
      - serializedVersion: 3
        time: 1.1666667
        value: {x: 0.0000000053326574, y: -0.000000022680329, z: 0.08552885, w: 0.99633574}
        inSlope: {x: 0.000000004377632, y: -0.000000002976583, z: 0, w: 0}
        outSlope: {x: 0.000000004377632, y: -0.000000002976583, z: 0, w: 0}
        tangentMode: 0
        weightedMode: 0
        inWeight: {x: 0.33333334, y: 0.33333334, z: 0.33333334, w: 0.33333334}
        outWeight: {x: 0.33333334, y: 0.33333334, z: 0.33333334, w: 0.33333334}
      - serializedVersion: 3
        time: 1.5
        value: {x: 0.0000000067918675, y: -0.000000023672518, z: 0.08552885, w: 0.99633574}
        inSlope: {x: 0.000000004377633, y: -0.0000000029766085, z: 0, w: 0}
        outSlope: {x: 0.000000004377633, y: -0.0000000029766085, z: 0, w: 0}
        tangentMode: 0
        weightedMode: 0
        inWeight: {x: 0.33333334, y: 0.33333334, z: 0.33333334, w: 0.33333334}
        outWeight: {x: 0.33333334, y: 0.33333334, z: 0.33333334, w: 0.33333334}
      m_PreInfinity: 2
      m_PostInfinity: 2
      m_RotationOrder: 4
    path: Armature/Torso/Chest/UpperArm.R/LowerArm.R
  m_CompressedRotationCurves: []
  m_EulerCurves: []
  m_PositionCurves:
  - curve:
      serializedVersion: 2
      m_Curve:
      - serializedVersion: 3
        time: 0
        value: {x: -0.045363683, y: 0.20413654, z: 0.000000027427546}
        inSlope: {x: 0, y: 0, z: 0}
        outSlope: {x: 0, y: 0, z: 0}
        tangentMode: 0
        weightedMode: 0
        inWeight: {x: 0.33333334, y: 0.33333334, z: 0.33333334}
        outWeight: {x: 0.33333334, y: 0.33333334, z: 0.33333334}
      - serializedVersion: 3
        time: 1.5
        value: {x: -0.045363683, y: 0.20413654, z: 0.000000027427546}
        inSlope: {x: 0, y: 0, z: 0}
        outSlope: {x: 0, y: 0, z: 0}
        tangentMode: 0
        weightedMode: 0
        inWeight: {x: 0.33333334, y: 0.33333334, z: 0.33333334}
        outWeight: {x: 0.33333334, y: 0.33333334, z: 0.33333334}
      m_PreInfinity: 2
      m_PostInfinity: 2
      m_RotationOrder: 4
    path: Armature
  - curve:
      serializedVersion: 2
      m_Curve:
      - serializedVersion: 3
        time: 0
        value: {x: 0.00004924038, y: -0.000008611498, z: 0.00049378333}
        inSlope: {x: 0, y: 0, z: 0}
        outSlope: {x: 0, y: 0, z: 0}
        tangentMode: 0
        weightedMode: 0
        inWeight: {x: 0.33333334, y: 0.33333334, z: 0.33333334}
        outWeight: {x: 0.33333334, y: 0.33333334, z: 0.33333334}
      - serializedVersion: 3
        time: 1.5
        value: {x: 0.00004924038, y: -0.000008611498, z: 0.00049378333}
        inSlope: {x: 0, y: 0, z: 0}
        outSlope: {x: 0, y: 0, z: 0}
        tangentMode: 0
        weightedMode: 0
        inWeight: {x: 0.33333334, y: 0.33333334, z: 0.33333334}
        outWeight: {x: 0.33333334, y: 0.33333334, z: 0.33333334}
      m_PreInfinity: 2
      m_PostInfinity: 2
      m_RotationOrder: 4
    path: Armature/Torso
  - curve:
      serializedVersion: 2
      m_Curve:
      - serializedVersion: 3
        time: 0
        value: {x: 2.326555e-12, y: 0.011768385, z: 5.719368e-13}
        inSlope: {x: 0, y: 0, z: 0}
        outSlope: {x: 0, y: 0, z: 0}
        tangentMode: 0
        weightedMode: 0
        inWeight: {x: 0.33333334, y: 0.33333334, z: 0.33333334}
        outWeight: {x: 0.33333334, y: 0.33333334, z: 0.33333334}
      - serializedVersion: 3
        time: 1.5
        value: {x: 2.326555e-12, y: 0.011768385, z: 5.719368e-13}
        inSlope: {x: 0, y: 0, z: 0}
        outSlope: {x: 0, y: 0, z: 0}
        tangentMode: 0
        weightedMode: 0
        inWeight: {x: 0.33333334, y: 0.33333334, z: 0.33333334}
        outWeight: {x: 0.33333334, y: 0.33333334, z: 0.33333334}
      m_PreInfinity: 2
      m_PostInfinity: 2
      m_RotationOrder: 4
    path: Armature/Torso/Chest
  - curve:
      serializedVersion: 2
      m_Curve:
      - serializedVersion: 3
        time: 0
        value: {x: 0.0000104087685, y: 0.0071048406, z: -2.6085945e-10}
        inSlope: {x: 0.0000016469322, y: 0.000015091896, z: 8.968446e-10}
        outSlope: {x: 0.0000016469322, y: 0.000015091896, z: 8.968446e-10}
        tangentMode: 0
        weightedMode: 0
        inWeight: {x: 0.33333334, y: 0.33333334, z: 0.33333334}
        outWeight: {x: 0.33333334, y: 0.33333334, z: 0.33333334}
      - serializedVersion: 3
        time: 0.375
        value: {x: 0.0000110263645, y: 0.007110498, z: 7.545724e-11}
        inSlope: {x: 0.0000016469326, y: 0.000015077594, z: 8.9684415e-10}
        outSlope: {x: 0.0000016469047, y: 0.0000150918995, z: 0.0011389744}
        tangentMode: 0
        weightedMode: 0
        inWeight: {x: 0.33333334, y: 0.33333334, z: 0.33333334}
        outWeight: {x: 0.33333334, y: 0.33333334, z: 0.33333334}
      - serializedVersion: 3
        time: 0.41666666
        value: {x: 0.000011094985, y: 0.0071111266, z: 0.000047457328}
        inSlope: {x: 0.0000016469047, y: 0.0000150918995, z: 0.0011389744}
        outSlope: {x: 0.0000016469314, y: 0.00039785367, z: 0.003518689}
        tangentMode: 0
        weightedMode: 0
        inWeight: {x: 0.33333334, y: 0.33333334, z: 0.33333334}
        outWeight: {x: 0.33333334, y: 0.33333334, z: 0.33333334}
      - serializedVersion: 3
        time: 0.45833334
        value: {x: 0.000011163607, y: 0.0071277036, z: 0.00019406943}
        inSlope: {x: 0.0000016469314, y: 0.00039785367, z: 0.003518689}
        outSlope: {x: 0.0000016469326, y: 0.0005624773, z: 0.00605107}
        tangentMode: 0
        weightedMode: 0
        inWeight: {x: 0.33333334, y: 0.33333334, z: 0.33333334}
        outWeight: {x: 0.33333334, y: 0.33333334, z: 0.33333334}
      - serializedVersion: 3
        time: 0.5
        value: {x: 0.00001123223, y: 0.0071511404, z: 0.00044619731}
        inSlope: {x: 0.0000016469326, y: 0.0005624773, z: 0.00605107}
        outSlope: {x: 0.0000016469035, y: 0.000644817, z: 0.008736099}
        tangentMode: 0
        weightedMode: 0
        inWeight: {x: 0.33333334, y: 0.33333334, z: 0.33333334}
        outWeight: {x: 0.33333334, y: 0.33333334, z: 0.33333334}
      - serializedVersion: 3
        time: 0.5416667
        value: {x: 0.000011300851, y: 0.0071780076, z: 0.00081020157}
        inSlope: {x: 0.0000016469035, y: 0.000644817, z: 0.008736099}
        outSlope: {x: 0.0000016469338, y: 0.0006447893, z: 0.011573818}
        tangentMode: 0
        weightedMode: 0
        inWeight: {x: 0.33333334, y: 0.33333334, z: 0.33333334}
        outWeight: {x: 0.33333334, y: 0.33333334, z: 0.33333334}
      - serializedVersion: 3
        time: 0.5833333
        value: {x: 0.000011369473, y: 0.007204874, z: 0.0012924436}
        inSlope: {x: 0.0000016469338, y: 0.0006447893, z: 0.011573818}
        outSlope: {x: 0.0000016469035, y: 0.00056247687, z: 0.014564155}
        tangentMode: 0
        weightedMode: 0
        inWeight: {x: 0.33333334, y: 0.33333334, z: 0.33333334}
        outWeight: {x: 0.33333334, y: 0.33333334, z: 0.33333334}
      - serializedVersion: 3
        time: 0.625
        value: {x: 0.000011438094, y: 0.0072283107, z: 0.0018992836}
        inSlope: {x: 0.0000016469035, y: 0.00056247687, z: 0.014564155}
        outSlope: {x: 0.0000016469314, y: 0.00039786796, z: 0.017707173}
        tangentMode: 0
        weightedMode: 0
        inWeight: {x: 0.33333334, y: 0.33333334, z: 0.33333334}
        outWeight: {x: 0.33333334, y: 0.33333334, z: 0.33333334}
      - serializedVersion: 3
        time: 0.6666667
        value: {x: 0.000011506716, y: 0.007244888, z: 0.002637083}
        inSlope: {x: 0.0000016469314, y: 0.00039786796, z: 0.017707173}
        outSlope: {x: -0.000003812512, y: 0.00015091909, z: 0.021002896}
        tangentMode: 0
        weightedMode: 0
        inWeight: {x: 0.33333334, y: 0.33333334, z: 0.33333334}
        outWeight: {x: 0.33333334, y: 0.33333334, z: 0.33333334}
      - serializedVersion: 3
        time: 0.7083333
        value: {x: 0.000011347862, y: 0.0072511765, z: 0.0035122028}
        inSlope: {x: -0.000003812512, y: 0.00015091909, z: 0.021002896}
        outSlope: {x: -0.0000038125067, y: -0.0011238665, z: 0.023201797}
        tangentMode: 0
        weightedMode: 0
        inWeight: {x: 0.33333334, y: 0.33333334, z: 0.33333334}
        outWeight: {x: 0.33333334, y: 0.33333334, z: 0.33333334}
      - serializedVersion: 3
        time: 0.75
        value: {x: 0.000011189007, y: 0.0072043487, z: 0.004478945}
        inSlope: {x: -0.0000038125067, y: -0.0011238665, z: 0.023201797}
        outSlope: {x: -0.00006165454, y: -0.007867094, z: 0.019306438}
        tangentMode: 0
        weightedMode: 0
        inWeight: {x: 0.33333334, y: 0.33333334, z: 0.33333334}
        outWeight: {x: 0.33333334, y: 0.33333334, z: 0.33333334}
      - serializedVersion: 3
        time: 0.7916667
        value: {x: 0.000008620066, y: 0.006876553, z: 0.00528338}
        inSlope: {x: -0.00006165454, y: -0.007867094, z: 0.019306438}
        outSlope: {x: -0.00016734768, y: -0.021353552, z: 0.008067435}
        tangentMode: 0
        weightedMode: 0
        inWeight: {x: 0.33333334, y: 0.33333334, z: 0.33333334}
        outWeight: {x: 0.33333334, y: 0.33333334, z: 0.33333334}
      - serializedVersion: 3
        time: 0.8333333
        value: {x: 0.0000016472536, y: 0.005986823, z: 0.0056195226}
        inSlope: {x: -0.00016734768, y: -0.021353552, z: 0.008067435}
        outSlope: {x: -0.00045722845, y: -0.058342323, z: -0.0036818914}
        tangentMode: 0
        weightedMode: 0
        inWeight: {x: 0.33333334, y: 0.33333334, z: 0.33333334}
        outWeight: {x: 0.33333334, y: 0.33333334, z: 0.33333334}
      - serializedVersion: 3
        time: 0.875
        value: {x: -0.000017403941, y: 0.0035558913, z: 0.0054661105}
        inSlope: {x: -0.00045722845, y: -0.058342323, z: -0.0036818914}
        outSlope: {x: -0.00074640464, y: -0.095241144, z: -0.008779932}
        tangentMode: 0
        weightedMode: 0
        inWeight: {x: 0.33333334, y: 0.33333334, z: 0.33333334}
        outWeight: {x: 0.33333334, y: 0.33333334, z: 0.33333334}
      - serializedVersion: 3
        time: 0.9166667
        value: {x: -0.00004850415, y: -0.0004124915, z: 0.00510028}
        inSlope: {x: -0.00074640464, y: -0.095241144, z: -0.008779932}
        outSlope: {x: -0.0008110897, y: -0.10349499, z: -0.010479264}
        tangentMode: 0
        weightedMode: 0
        inWeight: {x: 0.33333334, y: 0.33333334, z: 0.33333334}
        outWeight: {x: 0.33333334, y: 0.33333334, z: 0.33333334}
      - serializedVersion: 3
        time: 0.9583333
        value: {x: -0.00008229952, y: -0.0047247782, z: 0.0046636444}
        inSlope: {x: -0.0008110897, y: -0.10349499, z: -0.010479264}
        outSlope: {x: -0.0006512805, y: -0.08310333, z: -0.008779924}
        tangentMode: 0
        weightedMode: 0
        inWeight: {x: 0.33333334, y: 0.33333334, z: 0.33333334}
        outWeight: {x: 0.33333334, y: 0.33333334, z: 0.33333334}
      - serializedVersion: 3
        time: 1
        value: {x: -0.00010943622, y: -0.008187419, z: 0.004297814}
        inSlope: {x: -0.0006512805, y: -0.08310333, z: -0.008779924}
        outSlope: {x: -0.00026698242, y: -0.03406688, z: -0.0036819112}
        tangentMode: 0
        weightedMode: 0
        inWeight: {x: 0.33333334, y: 0.33333334, z: 0.33333334}
        outWeight: {x: 0.33333334, y: 0.33333334, z: 0.33333334}
      - serializedVersion: 3
        time: 1.0416666
        value: {x: -0.00012056048, y: -0.009606871, z: 0.0041444013}
        inSlope: {x: -0.00026698242, y: -0.03406688, z: -0.0036819112}
        outSlope: {x: -0, y: -0, z: -0}
        tangentMode: 0
        weightedMode: 0
        inWeight: {x: 0.33333334, y: 0.33333334, z: 0.33333334}
        outWeight: {x: 0.33333334, y: 0.33333334, z: 0.33333334}
      - serializedVersion: 3
        time: 1.5
        value: {x: -0.00012056048, y: -0.009606871, z: 0.0041444013}
        inSlope: {x: -0, y: -0, z: -0}
        outSlope: {x: -0, y: -0, z: -0}
        tangentMode: 0
        weightedMode: 0
        inWeight: {x: 0.33333334, y: 0.33333334, z: 0.33333334}
        outWeight: {x: 0.33333334, y: 0.33333334, z: 0.33333334}
      m_PreInfinity: 2
      m_PostInfinity: 2
      m_RotationOrder: 4
    path: Armature/Torso/Chest/Head
  - curve:
      serializedVersion: 2
      m_Curve:
      - serializedVersion: 3
        time: 0
        value: {x: 0.0048361807, y: 0.0038740095, z: 1.1746613e-10}
        inSlope: {x: -0, y: -0, z: 5.6698835e-10}
        outSlope: {x: -0, y: -0, z: 5.6698835e-10}
        tangentMode: 0
        weightedMode: 0
        inWeight: {x: 0.33333334, y: 0.33333334, z: 0.33333334}
        outWeight: {x: 0.33333334, y: 0.33333334, z: 0.33333334}
      - serializedVersion: 3
        time: 0.625
        value: {x: 0.0048361807, y: 0.0038740083, z: 4.7183385e-10}
        inSlope: {x: -0, y: -0, z: 5.669889e-10}
        outSlope: {x: 0.0053112865, y: -0.05890106, z: 5.6698807e-10}
        tangentMode: 0
        weightedMode: 0
        inWeight: {x: 0.33333334, y: 0.33333334, z: 0.33333334}
        outWeight: {x: 0.33333334, y: 0.33333334, z: 0.33333334}
      - serializedVersion: 3
        time: 0.6666667
        value: {x: 0.0050574844, y: 0.0014197963, z: 4.954584e-10}
        inSlope: {x: 0.0053112865, y: -0.05890106, z: 5.6698807e-10}
        outSlope: {x: 0.007498505, y: -0.09925325, z: 5.6698807e-10}
        tangentMode: 0
        weightedMode: 0
        inWeight: {x: 0.33333334, y: 0.33333334, z: 0.33333334}
        outWeight: {x: 0.33333334, y: 0.33333334, z: 0.33333334}
      - serializedVersion: 3
        time: 0.7083333
        value: {x: 0.0053699217, y: -0.002715752, z: 5.190829e-10}
        inSlope: {x: 0.007498505, y: -0.09925325, z: 5.6698807e-10}
        outSlope: {x: 0.0023698986, y: -0.071198635, z: 5.6698896e-10}
        tangentMode: 0
        weightedMode: 0
        inWeight: {x: 0.33333334, y: 0.33333334, z: 0.33333334}
        outWeight: {x: 0.33333334, y: 0.33333334, z: 0.33333334}
      - serializedVersion: 3
        time: 0.75
        value: {x: 0.0054686675, y: -0.005682363, z: 5.4270743e-10}
        inSlope: {x: 0.0023698986, y: -0.071198635, z: 5.6698896e-10}
        outSlope: {x: -0.0010095973, y: -0.05381035, z: 5.6698807e-10}
        tangentMode: 0
        weightedMode: 0
        inWeight: {x: 0.33333334, y: 0.33333334, z: 0.33333334}
        outWeight: {x: 0.33333334, y: 0.33333334, z: 0.33333334}
      - serializedVersion: 3
        time: 0.7916667
        value: {x: 0.005426601, y: -0.007924463, z: 5.663319e-10}
        inSlope: {x: -0.0010095973, y: -0.05381035, z: 5.6698807e-10}
        outSlope: {x: -0.003444918, y: -0.038855545, z: 5.6698807e-10}
        tangentMode: 0
        weightedMode: 0
        inWeight: {x: 0.33333334, y: 0.33333334, z: 0.33333334}
        outWeight: {x: 0.33333334, y: 0.33333334, z: 0.33333334}
      - serializedVersion: 3
        time: 0.8333333
        value: {x: 0.005283063, y: -0.009543442, z: 5.899564e-10}
        inSlope: {x: -0.003444918, y: -0.038855545, z: 5.6698807e-10}
        outSlope: {x: -0.0049359775, y: -0.026334086, z: 5.6698807e-10}
        tangentMode: 0
        weightedMode: 0
        inWeight: {x: 0.33333334, y: 0.33333334, z: 0.33333334}
        outWeight: {x: 0.33333334, y: 0.33333334, z: 0.33333334}
      - serializedVersion: 3
        time: 0.875
        value: {x: 0.005077397, y: -0.010640696, z: 6.135809e-10}
        inSlope: {x: -0.0049359775, y: -0.026334086, z: 5.6698807e-10}
        outSlope: {x: -0.005482783, y: -0.01624611, z: 5.6698896e-10}
        tangentMode: 0
        weightedMode: 0
        inWeight: {x: 0.33333334, y: 0.33333334, z: 0.33333334}
        outWeight: {x: 0.33333334, y: 0.33333334, z: 0.33333334}
      - serializedVersion: 3
        time: 0.9166667
        value: {x: 0.0048489477, y: -0.011317617, z: 6.3720546e-10}
        inSlope: {x: -0.005482783, y: -0.01624611, z: 5.6698896e-10}
        outSlope: {x: -0.0050853156, y: -0.008591517, z: 5.6698807e-10}
        tangentMode: 0
        weightedMode: 0
        inWeight: {x: 0.33333334, y: 0.33333334, z: 0.33333334}
        outWeight: {x: 0.33333334, y: 0.33333334, z: 0.33333334}
      - serializedVersion: 3
        time: 1
        value: {x: 0.004481074, y: -0.01181603, z: 6.844545e-10}
        inSlope: {x: -0.003743654, y: -0.003370398, z: 5.6698896e-10}
        outSlope: {x: -0.001457714, y: -0.0005827337, z: 5.6698807e-10}
        tangentMode: 0
        weightedMode: 0
        inWeight: {x: 0.33333334, y: 0.33333334, z: 0.33333334}
        outWeight: {x: 0.33333334, y: 0.33333334, z: 0.33333334}
      - serializedVersion: 3
        time: 1.25
        value: {x: 0.004420336, y: -0.011840311, z: 8.262016e-10}
        inSlope: {x: -0, y: -0, z: 5.6698807e-10}
        outSlope: {x: -0, y: -0, z: 5.669881e-10}
        tangentMode: 0
        weightedMode: 0
        inWeight: {x: 0.33333334, y: 0.33333334, z: 0.33333334}
        outWeight: {x: 0.33333334, y: 0.33333334, z: 0.33333334}
      - serializedVersion: 3
        time: 1.5
        value: {x: 0.004420336, y: -0.011840311, z: 9.679487e-10}
        inSlope: {x: -0, y: -0, z: 5.6698807e-10}
        outSlope: {x: -0, y: -0, z: 5.6698807e-10}
        tangentMode: 0
        weightedMode: 0
        inWeight: {x: 0.33333334, y: 0.33333334, z: 0.33333334}
        outWeight: {x: 0.33333334, y: 0.33333334, z: 0.33333334}
      m_PreInfinity: 2
      m_PostInfinity: 2
      m_RotationOrder: 4
    path: Armature/Torso/Chest/UpperArm.L
  - curve:
      serializedVersion: 2
      m_Curve:
      - serializedVersion: 3
        time: 0
        value: {x: 1.4813441e-10, y: 0.0035789115, z: -5.327738e-14}
        inSlope: {x: 0, y: 0, z: 0}
        outSlope: {x: 0, y: 0, z: 0}
        tangentMode: 0
        weightedMode: 0
        inWeight: {x: 0.33333334, y: 0.33333334, z: 0.33333334}
        outWeight: {x: 0.33333334, y: 0.33333334, z: 0.33333334}
      - serializedVersion: 3
        time: 1.5
        value: {x: 1.4813441e-10, y: 0.0035789115, z: -5.327738e-14}
        inSlope: {x: 0, y: 0, z: 0}
        outSlope: {x: 0, y: 0, z: 0}
        tangentMode: 0
        weightedMode: 0
        inWeight: {x: 0.33333334, y: 0.33333334, z: 0.33333334}
        outWeight: {x: 0.33333334, y: 0.33333334, z: 0.33333334}
      m_PreInfinity: 2
      m_PostInfinity: 2
      m_RotationOrder: 4
    path: Armature/Torso/Chest/UpperArm.L/LowerArm.L
  - curve:
      serializedVersion: 2
      m_Curve:
      - serializedVersion: 3
        time: 0
        value: {x: -0.004681388, y: 0.003767158, z: 1.10261356e-10}
        inSlope: {x: -0, y: -0, z: 5.6671234e-10}
        outSlope: {x: -0, y: -0, z: 5.6671234e-10}
        tangentMode: 0
        weightedMode: 0
        inWeight: {x: 0.33333334, y: 0.33333334, z: 0.33333334}
        outWeight: {x: 0.33333334, y: 0.33333334, z: 0.33333334}
      - serializedVersion: 3
        time: 0.5
        value: {x: -0.004681387, y: 0.003767158, z: 3.9361747e-10}
        inSlope: {x: -0, y: -0, z: 5.6671223e-10}
        outSlope: {x: -0.0012885755, y: -0.010882475, z: 5.667127e-10}
        tangentMode: 0
        weightedMode: 0
        inWeight: {x: 0.33333334, y: 0.33333334, z: 0.33333334}
        outWeight: {x: 0.33333334, y: 0.33333334, z: 0.33333334}
      - serializedVersion: 3
        time: 0.5416667
        value: {x: -0.0047350777, y: 0.0033137214, z: 4.172305e-10}
        inSlope: {x: -0.0012885755, y: -0.010882475, z: 5.667127e-10}
        outSlope: {x: -0.0041486514, y: -0.027250877, z: 5.667118e-10}
        tangentMode: 0
        weightedMode: 0
        inWeight: {x: 0.33333334, y: 0.33333334, z: 0.33333334}
        outWeight: {x: 0.33333334, y: 0.33333334, z: 0.33333334}
      - serializedVersion: 3
        time: 0.5833333
        value: {x: -0.004907938, y: 0.0021782692, z: 4.4084347e-10}
        inSlope: {x: -0.0041486514, y: -0.027250877, z: 5.667118e-10}
        outSlope: {x: -0.0074331197, y: -0.035524283, z: 5.667127e-10}
        tangentMode: 0
        weightedMode: 0
        inWeight: {x: 0.33333334, y: 0.33333334, z: 0.33333334}
        outWeight: {x: 0.33333334, y: 0.33333334, z: 0.33333334}
      - serializedVersion: 3
        time: 0.625
        value: {x: -0.005217652, y: 0.0006980901, z: 4.6445653e-10}
        inSlope: {x: -0.0074331197, y: -0.035524283, z: 5.667127e-10}
        outSlope: {x: -0.009669824, y: -0.0371916, z: 5.6671184e-10}
        tangentMode: 0
        weightedMode: 0
        inWeight: {x: 0.33333334, y: 0.33333334, z: 0.33333334}
        outWeight: {x: 0.33333334, y: 0.33333334, z: 0.33333334}
      - serializedVersion: 3
        time: 0.6666667
        value: {x: -0.005620561, y: -0.0008515605, z: 4.8806953e-10}
        inSlope: {x: -0.009669824, y: -0.0371916, z: 5.6671184e-10}
        outSlope: {x: -0.0049703023, y: -0.038208313, z: 5.667126e-10}
        tangentMode: 0
        weightedMode: 0
        inWeight: {x: 0.33333334, y: 0.33333334, z: 0.33333334}
        outWeight: {x: 0.33333334, y: 0.33333334, z: 0.33333334}
      - serializedVersion: 3
        time: 0.7083333
        value: {x: -0.005827657, y: -0.002443572, z: 5.1168253e-10}
        inSlope: {x: -0.0049703023, y: -0.038208313, z: 5.667126e-10}
        outSlope: {x: 0.002960399, y: -0.039657883, z: 5.6671184e-10}
        tangentMode: 0
        weightedMode: 0
        inWeight: {x: 0.33333334, y: 0.33333334, z: 0.33333334}
        outWeight: {x: 0.33333334, y: 0.33333334, z: 0.33333334}
      - serializedVersion: 3
        time: 0.75
        value: {x: -0.005704307, y: -0.0040959846, z: 5.3529553e-10}
        inSlope: {x: 0.002960399, y: -0.039657883, z: 5.6671184e-10}
        outSlope: {x: 0.007502271, y: -0.03985496, z: 5.667127e-10}
        tangentMode: 0
        weightedMode: 0
        inWeight: {x: 0.33333334, y: 0.33333334, z: 0.33333334}
        outWeight: {x: 0.33333334, y: 0.33333334, z: 0.33333334}
      - serializedVersion: 3
        time: 0.7916667
        value: {x: -0.0053917123, y: -0.0057566087, z: 5.589086e-10}
        inSlope: {x: 0.007502271, y: -0.03985496, z: 5.667127e-10}
        outSlope: {x: 0.010522595, y: -0.03836153, z: 5.667118e-10}
        tangentMode: 0
        weightedMode: 0
        inWeight: {x: 0.33333334, y: 0.33333334, z: 0.33333334}
        outWeight: {x: 0.33333334, y: 0.33333334, z: 0.33333334}
      - serializedVersion: 3
        time: 0.875
        value: {x: -0.0044523817, y: -0.008820736, z: 6.061346e-10}
        inSlope: {x: 0.0120213395, y: -0.035177547, z: 5.667127e-10}
        outSlope: {x: 0.011998552, y: -0.030303024, z: 5.667127e-10}
        tangentMode: 0
        weightedMode: 0
        inWeight: {x: 0.33333334, y: 0.33333334, z: 0.33333334}
        outWeight: {x: 0.33333334, y: 0.33333334, z: 0.33333334}
      - serializedVersion: 3
        time: 0.9166667
        value: {x: -0.0039524417, y: -0.010083362, z: 6.2974764e-10}
        inSlope: {x: 0.011998552, y: -0.030303024, z: 5.667127e-10}
        outSlope: {x: 0.010454223, y: -0.023738071, z: 5.667118e-10}
        tangentMode: 0
        weightedMode: 0
        inWeight: {x: 0.33333334, y: 0.33333334, z: 0.33333334}
        outWeight: {x: 0.33333334, y: 0.33333334, z: 0.33333334}
      - serializedVersion: 3
        time: 0.9583333
        value: {x: -0.0035168496, y: -0.011072448, z: 6.533606e-10}
        inSlope: {x: 0.010454223, y: -0.023738071, z: 5.667118e-10}
        outSlope: {x: 0.0073883375, y: -0.015482562, z: 5.667127e-10}
        tangentMode: 0
        weightedMode: 0
        inWeight: {x: 0.33333334, y: 0.33333334, z: 0.33333334}
        outWeight: {x: 0.33333334, y: 0.33333334, z: 0.33333334}
      - serializedVersion: 3
        time: 1
        value: {x: -0.0032090019, y: -0.011717555, z: 6.7697364e-10}
        inSlope: {x: 0.0073883375, y: -0.015482562, z: 5.667127e-10}
        outSlope: {x: 0.0028009084, y: -0.005536485, z: 5.667118e-10}
        tangentMode: 0
        weightedMode: 0
        inWeight: {x: 0.33333334, y: 0.33333334, z: 0.33333334}
        outWeight: {x: 0.33333334, y: 0.33333334, z: 0.33333334}
      - serializedVersion: 3
        time: 1.0416666
        value: {x: -0.0030922976, y: -0.011948242, z: 7.005866e-10}
        inSlope: {x: 0.0028009084, y: -0.005536485, z: 5.667118e-10}
        outSlope: {x: -0, y: -0, z: 5.667119e-10}
        tangentMode: 0
        weightedMode: 0
        inWeight: {x: 0.33333334, y: 0.33333334, z: 0.33333334}
        outWeight: {x: 0.33333334, y: 0.33333334, z: 0.33333334}
      - serializedVersion: 3
        time: 1.5
        value: {x: -0.0030922976, y: -0.011948242, z: 9.603297e-10}
        inSlope: {x: -0, y: -0, z: 5.667135e-10}
        outSlope: {x: -0, y: -0, z: 5.667135e-10}
        tangentMode: 0
        weightedMode: 0
        inWeight: {x: 0.33333334, y: 0.33333334, z: 0.33333334}
        outWeight: {x: 0.33333334, y: 0.33333334, z: 0.33333334}
      m_PreInfinity: 2
      m_PostInfinity: 2
      m_RotationOrder: 4
    path: Armature/Torso/Chest/UpperArm.R
  - curve:
      serializedVersion: 2
      m_Curve:
      - serializedVersion: 3
        time: 0
        value: {x: 7.8339357e-10, y: 0.0045963186, z: 5.949463e-13}
        inSlope: {x: 0, y: 0, z: 0}
        outSlope: {x: 0, y: 0, z: 0}
        tangentMode: 0
        weightedMode: 0
        inWeight: {x: 0.33333334, y: 0.33333334, z: 0.33333334}
        outWeight: {x: 0.33333334, y: 0.33333334, z: 0.33333334}
      - serializedVersion: 3
        time: 1.5
        value: {x: 7.8339357e-10, y: 0.0045963186, z: 5.949463e-13}
        inSlope: {x: 0, y: 0, z: 0}
        outSlope: {x: 0, y: 0, z: 0}
        tangentMode: 0
        weightedMode: 0
        inWeight: {x: 0.33333334, y: 0.33333334, z: 0.33333334}
        outWeight: {x: 0.33333334, y: 0.33333334, z: 0.33333334}
      m_PreInfinity: 2
      m_PostInfinity: 2
      m_RotationOrder: 4
    path: Armature/Torso/Chest/UpperArm.R/LowerArm.R
  m_ScaleCurves:
  - curve:
      serializedVersion: 2
      m_Curve:
      - serializedVersion: 3
        time: 0
        value: {x: 250.51517, y: 250.51517, z: 250.51517}
        inSlope: {x: 0, y: 0, z: 0}
        outSlope: {x: 0, y: 0, z: 0}
        tangentMode: 0
        weightedMode: 0
        inWeight: {x: 0.33333334, y: 0.33333334, z: 0.33333334}
        outWeight: {x: 0.33333334, y: 0.33333334, z: 0.33333334}
      - serializedVersion: 3
        time: 1.5
        value: {x: 250.51517, y: 250.51517, z: 250.51517}
        inSlope: {x: 0, y: 0, z: 0}
        outSlope: {x: 0, y: 0, z: 0}
        tangentMode: 0
        weightedMode: 0
        inWeight: {x: 0.33333334, y: 0.33333334, z: 0.33333334}
        outWeight: {x: 0.33333334, y: 0.33333334, z: 0.33333334}
      m_PreInfinity: 2
      m_PostInfinity: 2
      m_RotationOrder: 4
    path: Armature
  - curve:
      serializedVersion: 2
      m_Curve:
      - serializedVersion: 3
        time: 0
        value: {x: 1, y: 0.99999994, z: 0.99999994}
        inSlope: {x: -0.5222683, y: -0.5222683, z: -0.5222697}
        outSlope: {x: -0.5222683, y: -0.5222683, z: -0.5222697}
        tangentMode: 0
        weightedMode: 0
        inWeight: {x: 0.33333334, y: 0.33333334, z: 0.33333334}
        outWeight: {x: 0.33333334, y: 0.33333334, z: 0.33333334}
      - serializedVersion: 3
        time: 0.041666668
        value: {x: 0.9782388, y: 0.97823876, z: 0.9782387}
        inSlope: {x: -0.7460983, y: -0.746099, z: -0.746099}
        outSlope: {x: -0.7460983, y: -0.746099, z: -0.746099}
        tangentMode: 0
        weightedMode: 0
        inWeight: {x: 0.33333334, y: 0.33333334, z: 0.33333334}
        outWeight: {x: 0.33333334, y: 0.33333334, z: 0.33333334}
      - serializedVersion: 3
        time: 0.125
        value: {x: 0.9160639, y: 0.9160639, z: 0.9160638}
        inSlope: {x: -0.14256196, y: -0.14255981, z: -0.14256124}
        outSlope: {x: -0.14256196, y: -0.14255981, z: -0.14256124}
        tangentMode: 0
        weightedMode: 0
        inWeight: {x: 0.33333334, y: 0.33333334, z: 0.33333334}
        outWeight: {x: 0.33333334, y: 0.33333334, z: 0.33333334}
      - serializedVersion: 3
        time: 0.20833334
        value: {x: 0.9358261, y: 0.9358262, z: 0.93582606}
        inSlope: {x: -0.1697224, y: -0.1697224, z: -0.1697224}
        outSlope: {x: -0.1697224, y: -0.1697224, z: -0.1697224}
        tangentMode: 0
        weightedMode: 0
        inWeight: {x: 0.33333334, y: 0.33333334, z: 0.33333334}
        outWeight: {x: 0.33333334, y: 0.33333334, z: 0.33333334}
      - serializedVersion: 3
        time: 0.2916667
        value: {x: 0.88777673, y: 0.88777685, z: 0.8877767}
        inSlope: {x: -0.28829655, y: -0.28829584, z: -0.28829655}
        outSlope: {x: -0.28829655, y: -0.28829584, z: -0.28829655}
        tangentMode: 0
        weightedMode: 0
        inWeight: {x: 0.33333334, y: 0.33333334, z: 0.33333334}
        outWeight: {x: 0.33333334, y: 0.33333334, z: 0.33333334}
      - serializedVersion: 3
        time: 0.375
        value: {x: 0.88777673, y: 0.88777685, z: 0.8877767}
        inSlope: {x: 0, y: 0, z: 0}
        outSlope: {x: 0, y: 0, z: 0}
        tangentMode: 0
        weightedMode: 0
        inWeight: {x: 0.33333334, y: 0.33333334, z: 0.33333334}
        outWeight: {x: 0.33333334, y: 0.33333334, z: 0.33333334}
      - serializedVersion: 3
        time: 1.5
        value: {x: 0.88777673, y: 0.88777685, z: 0.8877767}
        inSlope: {x: 0, y: 0, z: 0}
        outSlope: {x: 0, y: 0, z: 0}
        tangentMode: 0
        weightedMode: 0
        inWeight: {x: 0.33333334, y: 0.33333334, z: 0.33333334}
        outWeight: {x: 0.33333334, y: 0.33333334, z: 0.33333334}
      m_PreInfinity: 2
      m_PostInfinity: 2
      m_RotationOrder: 4
    path: Armature/Torso
  - curve:
      serializedVersion: 2
      m_Curve:
      - serializedVersion: 3
        time: 0
        value: {x: 1, y: 0.99999994, z: 1}
        inSlope: {x: 0, y: 0, z: 0}
        outSlope: {x: 0, y: 0, z: 0}
        tangentMode: 0
        weightedMode: 0
        inWeight: {x: 0.33333334, y: 0.33333334, z: 0.33333334}
        outWeight: {x: 0.33333334, y: 0.33333334, z: 0.33333334}
      - serializedVersion: 3
        time: 1.5
        value: {x: 1, y: 0.99999994, z: 1}
        inSlope: {x: 0, y: 0, z: 0}
        outSlope: {x: 0, y: 0, z: 0}
        tangentMode: 0
        weightedMode: 0
        inWeight: {x: 0.33333334, y: 0.33333334, z: 0.33333334}
        outWeight: {x: 0.33333334, y: 0.33333334, z: 0.33333334}
      m_PreInfinity: 2
      m_PostInfinity: 2
      m_RotationOrder: 4
    path: Armature/Torso/Chest
  - curve:
      serializedVersion: 2
      m_Curve:
      - serializedVersion: 3
        time: 0
        value: {x: 1, y: 0.99999994, z: 1}
        inSlope: {x: 0, y: 0, z: 0}
        outSlope: {x: 0, y: 0, z: 0}
        tangentMode: 0
        weightedMode: 0
        inWeight: {x: 0.33333334, y: 0.33333334, z: 0.33333334}
        outWeight: {x: 0.33333334, y: 0.33333334, z: 0.33333334}
      - serializedVersion: 3
        time: 1.5
        value: {x: 1, y: 0.99999994, z: 1}
        inSlope: {x: 0, y: 0, z: 0}
        outSlope: {x: 0, y: 0, z: 0}
        tangentMode: 0
        weightedMode: 0
        inWeight: {x: 0.33333334, y: 0.33333334, z: 0.33333334}
        outWeight: {x: 0.33333334, y: 0.33333334, z: 0.33333334}
      m_PreInfinity: 2
      m_PostInfinity: 2
      m_RotationOrder: 4
    path: Armature/Torso/Chest/Head
  - curve:
      serializedVersion: 2
      m_Curve:
      - serializedVersion: 3
        time: 0
        value: {x: 1.0000001, y: 1.0000001, z: 1}
        inSlope: {x: -0.06974745, y: -0.06974745, z: -0.06974316}
        outSlope: {x: -0.06974745, y: -0.06974745, z: -0.06974316}
        tangentMode: 0
        weightedMode: 0
        inWeight: {x: 0.33333334, y: 0.33333334, z: 0.33333334}
        outWeight: {x: 0.33333334, y: 0.33333334, z: 0.33333334}
      - serializedVersion: 3
        time: 0.4166667
        value: {x: 0.83104724, y: 0.83104724, z: 0.83104724}
        inSlope: {x: -0.48334116, y: -0.48333973, z: -0.48333973}
        outSlope: {x: -0.48334116, y: -0.48333973, z: -0.48333973}
        tangentMode: 0
        weightedMode: 0
        inWeight: {x: 0.33333334, y: 0.33333334, z: 0.33333334}
        outWeight: {x: 0.33333334, y: 0.33333334, z: 0.33333334}
      - serializedVersion: 3
        time: 0.6666667
        value: {x: 0.7719138, y: 0.77191365, z: 0.7719137}
        inSlope: {x: 0, y: 0, z: 0}
        outSlope: {x: 0, y: 0, z: 0}
        tangentMode: 0
        weightedMode: 0
        inWeight: {x: 0.33333334, y: 0.33333334, z: 0.33333334}
        outWeight: {x: 0.33333334, y: 0.33333334, z: 0.33333334}
      - serializedVersion: 3
        time: 1.5
        value: {x: 0.77191377, y: 0.77191365, z: 0.7719137}
        inSlope: {x: 0, y: 0, z: 0}
        outSlope: {x: 0, y: 0, z: 0}
        tangentMode: 0
        weightedMode: 0
        inWeight: {x: 0.33333334, y: 0.33333334, z: 0.33333334}
        outWeight: {x: 0.33333334, y: 0.33333334, z: 0.33333334}
      m_PreInfinity: 2
      m_PostInfinity: 2
      m_RotationOrder: 4
    path: Armature/Torso/Chest/UpperArm.L
  - curve:
      serializedVersion: 2
      m_Curve:
      - serializedVersion: 3
        time: 0
        value: {x: 1, y: 1, z: 1}
        inSlope: {x: 0, y: 0, z: 0}
        outSlope: {x: 0, y: 0, z: 0}
        tangentMode: 0
        weightedMode: 0
        inWeight: {x: 0.33333334, y: 0.33333334, z: 0.33333334}
        outWeight: {x: 0.33333334, y: 0.33333334, z: 0.33333334}
      - serializedVersion: 3
        time: 1.5
        value: {x: 1, y: 1, z: 1}
        inSlope: {x: 0, y: 0, z: 0}
        outSlope: {x: 0, y: 0, z: 0}
        tangentMode: 0
        weightedMode: 0
        inWeight: {x: 0.33333334, y: 0.33333334, z: 0.33333334}
        outWeight: {x: 0.33333334, y: 0.33333334, z: 0.33333334}
      m_PreInfinity: 2
      m_PostInfinity: 2
      m_RotationOrder: 4
    path: Armature/Torso/Chest/UpperArm.L/LowerArm.L
  - curve:
      serializedVersion: 2
      m_Curve:
      - serializedVersion: 3
        time: 0
        value: {x: 0.99999994, y: 0.99999994, z: 1}
        inSlope: {x: -0.07650232, y: -0.07650232, z: -0.07649803}
        outSlope: {x: -0.07650232, y: -0.07650232, z: -0.07649803}
        tangentMode: 0
        weightedMode: 0
        inWeight: {x: 0.33333334, y: 0.33333334, z: 0.33333334}
        outWeight: {x: 0.33333334, y: 0.33333334, z: 0.33333334}
      - serializedVersion: 3
        time: 0.375
        value: {x: 0.86331177, y: 0.86331195, z: 0.8633119}
        inSlope: {x: -0.36000106, y: -0.36000034, z: -0.36000177}
        outSlope: {x: -0.36000106, y: -0.36000034, z: -0.36000177}
        tangentMode: 0
        weightedMode: 0
        inWeight: {x: 0.33333334, y: 0.33333334, z: 0.33333334}
        outWeight: {x: 0.33333334, y: 0.33333334, z: 0.33333334}
      - serializedVersion: 3
        time: 0.7083334
        value: {x: 0.8379992, y: 0.8379994, z: 0.8379993}
        inSlope: {x: 0, y: 0, z: 0}
        outSlope: {x: 0, y: 0, z: 0}
        tangentMode: 0
        weightedMode: 0
        inWeight: {x: 0.33333334, y: 0.33333334, z: 0.33333334}
        outWeight: {x: 0.33333334, y: 0.33333334, z: 0.33333334}
      - serializedVersion: 3
        time: 1.5
        value: {x: 0.8379993, y: 0.83799934, z: 0.8379993}
        inSlope: {x: 0, y: 0, z: 0}
        outSlope: {x: 0, y: 0, z: 0}
        tangentMode: 0
        weightedMode: 0
        inWeight: {x: 0.33333334, y: 0.33333334, z: 0.33333334}
        outWeight: {x: 0.33333334, y: 0.33333334, z: 0.33333334}
      m_PreInfinity: 2
      m_PostInfinity: 2
      m_RotationOrder: 4
    path: Armature/Torso/Chest/UpperArm.R
  - curve:
      serializedVersion: 2
      m_Curve:
      - serializedVersion: 3
        time: 0
        value: {x: 0.99999994, y: 0.99999994, z: 1}
        inSlope: {x: 0, y: 0, z: 0}
        outSlope: {x: 0, y: 0, z: 0}
        tangentMode: 0
        weightedMode: 0
        inWeight: {x: 0.33333334, y: 0.33333334, z: 0.33333334}
        outWeight: {x: 0.33333334, y: 0.33333334, z: 0.33333334}
      - serializedVersion: 3
        time: 1.5
        value: {x: 0.99999994, y: 0.99999994, z: 1}
        inSlope: {x: 0, y: 0, z: 0}
        outSlope: {x: 0, y: 0, z: 0}
        tangentMode: 0
        weightedMode: 0
        inWeight: {x: 0.33333334, y: 0.33333334, z: 0.33333334}
        outWeight: {x: 0.33333334, y: 0.33333334, z: 0.33333334}
      m_PreInfinity: 2
      m_PostInfinity: 2
      m_RotationOrder: 4
    path: Armature/Torso/Chest/UpperArm.R/LowerArm.R
  m_FloatCurves: []
  m_PPtrCurves: []
  m_SampleRate: 24
  m_WrapMode: 0
  m_Bounds:
    m_Center: {x: 0, y: 0, z: 0}
    m_Extent: {x: 0, y: 0, z: 0}
  m_ClipBindingConstant:
    genericBindings:
    - serializedVersion: 2
      path: 305981203
      attribute: 1
      script: {fileID: 0}
      typeID: 4
      customType: 0
      isPPtrCurve: 0
    - serializedVersion: 2
      path: 4284949753
      attribute: 1
      script: {fileID: 0}
      typeID: 4
      customType: 0
      isPPtrCurve: 0
    - serializedVersion: 2
      path: 90708378
      attribute: 1
      script: {fileID: 0}
      typeID: 4
      customType: 0
      isPPtrCurve: 0
    - serializedVersion: 2
      path: 305981203
      attribute: 2
      script: {fileID: 0}
      typeID: 4
      customType: 0
      isPPtrCurve: 0
    - serializedVersion: 2
      path: 4284949753
      attribute: 2
      script: {fileID: 0}
      typeID: 4
      customType: 0
      isPPtrCurve: 0
    - serializedVersion: 2
      path: 2063098213
      attribute: 2
      script: {fileID: 0}
      typeID: 4
      customType: 0
      isPPtrCurve: 0
    - serializedVersion: 2
      path: 90708378
      attribute: 2
      script: {fileID: 0}
      typeID: 4
      customType: 0
      isPPtrCurve: 0
    - serializedVersion: 2
      path: 1709073124
      attribute: 2
      script: {fileID: 0}
      typeID: 4
      customType: 0
      isPPtrCurve: 0
    - serializedVersion: 2
      path: 1411974969
      attribute: 3
      script: {fileID: 0}
      typeID: 4
      customType: 0
      isPPtrCurve: 0
    - serializedVersion: 2
      path: 4284949753
      attribute: 3
      script: {fileID: 0}
      typeID: 4
      customType: 0
      isPPtrCurve: 0
    - serializedVersion: 2
      path: 90708378
      attribute: 3
      script: {fileID: 0}
      typeID: 4
      customType: 0
      isPPtrCurve: 0
    - serializedVersion: 2
      path: 2104266162
      attribute: 1
      script: {fileID: 0}
      typeID: 4
      customType: 0
      isPPtrCurve: 0
    - serializedVersion: 2
      path: 1411974969
      attribute: 1
      script: {fileID: 0}
      typeID: 4
      customType: 0
      isPPtrCurve: 0
    - serializedVersion: 2
      path: 2621804867
      attribute: 1
      script: {fileID: 0}
      typeID: 4
      customType: 0
      isPPtrCurve: 0
    - serializedVersion: 2
      path: 2063098213
      attribute: 1
      script: {fileID: 0}
      typeID: 4
      customType: 0
      isPPtrCurve: 0
    - serializedVersion: 2
      path: 1709073124
      attribute: 1
      script: {fileID: 0}
      typeID: 4
      customType: 0
      isPPtrCurve: 0
    - serializedVersion: 2
      path: 2104266162
      attribute: 2
      script: {fileID: 0}
      typeID: 4
      customType: 0
      isPPtrCurve: 0
    - serializedVersion: 2
      path: 1411974969
      attribute: 2
      script: {fileID: 0}
      typeID: 4
      customType: 0
      isPPtrCurve: 0
    - serializedVersion: 2
      path: 2621804867
      attribute: 2
      script: {fileID: 0}
      typeID: 4
      customType: 0
      isPPtrCurve: 0
    - serializedVersion: 2
      path: 2104266162
      attribute: 3
      script: {fileID: 0}
      typeID: 4
      customType: 0
      isPPtrCurve: 0
    - serializedVersion: 2
      path: 2621804867
      attribute: 3
      script: {fileID: 0}
      typeID: 4
      customType: 0
      isPPtrCurve: 0
    - serializedVersion: 2
      path: 305981203
      attribute: 3
      script: {fileID: 0}
      typeID: 4
      customType: 0
      isPPtrCurve: 0
    - serializedVersion: 2
      path: 2063098213
      attribute: 3
      script: {fileID: 0}
      typeID: 4
      customType: 0
      isPPtrCurve: 0
    - serializedVersion: 2
      path: 1709073124
      attribute: 3
      script: {fileID: 0}
      typeID: 4
      customType: 0
      isPPtrCurve: 0
    pptrCurveMapping: []
  m_AnimationClipSettings:
    serializedVersion: 2
    m_AdditiveReferencePoseClip: {fileID: 0}
    m_AdditiveReferencePoseTime: 0
    m_StartTime: 0
    m_StopTime: 1.5
    m_OrientationOffsetY: 0
    m_Level: 0
    m_CycleOffset: 0
    m_HasAdditiveReferencePose: 0
    m_LoopTime: 0
    m_LoopBlend: 0
    m_LoopBlendOrientation: 0
    m_LoopBlendPositionY: 0
    m_LoopBlendPositionXZ: 0
    m_KeepOriginalOrientation: 0
    m_KeepOriginalPositionY: 1
    m_KeepOriginalPositionXZ: 0
    m_HeightFromFeet: 0
    m_Mirror: 0
  m_EditorCurves: []
  m_EulerEditorCurves: []
  m_HasGenericRootTransform: 0
  m_HasMotionFloatCurves: 0
  m_Events: []
