%YAML 1.1
%TAG !u! tag:unity3d.com,2011:
--- !u!74 &7400000
AnimationClip:
  m_ObjectHideFlags: 0
  m_CorrespondingSourceObject: {fileID: 0}
  m_PrefabInstance: {fileID: 0}
  m_PrefabAsset: {fileID: 0}
  m_Name: EventPlayerFail
  serializedVersion: 6
  m_Legacy: 0
  m_Compressed: 0
  m_UseHighQualityCurve: 1
  m_RotationCurves:
  - curve:
      serializedVersion: 2
      m_Curve:
      - serializedVersion: 3
        time: 0
        value: {x: -0.7071068, y: 0, z: -0, w: 0.7071067}
        inSlope: {x: 0, y: 0, z: 0, w: 0}
        outSlope: {x: 0, y: 0, z: 0, w: 0}
        tangentMode: 0
        weightedMode: 0
        inWeight: {x: 0.33333334, y: 0.33333334, z: 0.33333334, w: 0.33333334}
        outWeight: {x: 0.33333334, y: 0.33333334, z: 0.33333334, w: 0.33333334}
      - serializedVersion: 3
        time: 0.4166667
        value: {x: -0.7071068, y: 0, z: -0, w: 0.7071067}
        inSlope: {x: 0, y: 0, z: 0, w: 0}
        outSlope: {x: 0, y: 0, z: 0, w: 0}
        tangentMode: 0
        weightedMode: 0
        inWeight: {x: 0.33333334, y: 0.33333334, z: 0.33333334, w: 0.33333334}
        outWeight: {x: 0.33333334, y: 0.33333334, z: 0.33333334, w: 0.33333334}
      m_PreInfinity: 2
      m_PostInfinity: 2
      m_RotationOrder: 4
    path: Armature
  - curve:
      serializedVersion: 2
      m_Curve:
      - serializedVersion: 3
        time: 0
        value: {x: 0.7071063, y: -0.0007933595, z: 0.00079335936, w: 0.7071064}
        inSlope: {x: 0, y: 0, z: 0, w: 0}
        outSlope: {x: 0, y: 0, z: 0, w: 0}
        tangentMode: 0
        weightedMode: 0
        inWeight: {x: 0.33333334, y: 0.33333334, z: 0.33333334, w: 0.33333334}
        outWeight: {x: 0.33333334, y: 0.33333334, z: 0.33333334, w: 0.33333334}
      - serializedVersion: 3
        time: 0.4166667
        value: {x: 0.7071063, y: -0.0007933595, z: 0.00079335936, w: 0.7071064}
        inSlope: {x: 0, y: 0, z: 0, w: 0}
        outSlope: {x: 0, y: 0, z: 0, w: 0}
        tangentMode: 0
        weightedMode: 0
        inWeight: {x: 0.33333334, y: 0.33333334, z: 0.33333334, w: 0.33333334}
        outWeight: {x: 0.33333334, y: 0.33333334, z: 0.33333334, w: 0.33333334}
      m_PreInfinity: 2
      m_PostInfinity: 2
      m_RotationOrder: 4
    path: Armature/Torso
  - curve:
      serializedVersion: 2
      m_Curve:
      - serializedVersion: 3
        time: 0
        value: {x: 0.0000000958773, y: -4.1406154e-10, z: 0.002796434, w: 0.9999961}
        inSlope: {x: 0, y: 0, z: 0, w: 0}
        outSlope: {x: 0, y: 0, z: 0, w: 0}
        tangentMode: 0
        weightedMode: 0
        inWeight: {x: 0.33333334, y: 0.33333334, z: 0.33333334, w: 0.33333334}
        outWeight: {x: 0.33333334, y: 0.33333334, z: 0.33333334, w: 0.33333334}
      - serializedVersion: 3
        time: 0.4166667
        value: {x: 0.0000000958773, y: -4.1406154e-10, z: 0.002796434, w: 0.9999961}
        inSlope: {x: 0, y: 0, z: 0, w: 0}
        outSlope: {x: 0, y: 0, z: 0, w: 0}
        tangentMode: 0
        weightedMode: 0
        inWeight: {x: 0.33333334, y: 0.33333334, z: 0.33333334, w: 0.33333334}
        outWeight: {x: 0.33333334, y: 0.33333334, z: 0.33333334, w: 0.33333334}
      m_PreInfinity: 2
      m_PostInfinity: 2
      m_RotationOrder: 4
    path: Armature/Torso/Chest
  - curve:
      serializedVersion: 2
      m_Curve:
      - serializedVersion: 3
        time: 0
        value: {x: 0.20883034, y: -0.000818289, z: -0.003832013, w: 0.977944}
        inSlope: {x: -0.13740742, y: 0.0005384227, z: -0.000113340095, w: 0.028923512}
        outSlope: {x: -0.13740742, y: 0.0005384227, z: -0.000113340095, w: 0.028923512}
        tangentMode: 0
        weightedMode: 0
        inWeight: {x: 0.33333334, y: 0.33333334, z: 0.33333334, w: 0.33333334}
        outWeight: {x: 0.33333334, y: 0.33333334, z: 0.33333334, w: 0.33333334}
      - serializedVersion: 3
        time: 0.16666667
        value: {x: 0.13600779, y: -0.0005329382, z: -0.0038819965, w: 0.9907}
        inSlope: {x: -0.7121071, y: 0.002790348, z: -0.0003793984, w: 0.09682344}
        outSlope: {x: -0.7121071, y: 0.002790348, z: -0.0003793984, w: 0.09682344}
        tangentMode: 0
        weightedMode: 0
        inWeight: {x: 0.33333334, y: 0.33333334, z: 0.33333334, w: 0.33333334}
        outWeight: {x: 0.33333334, y: 0.33333334, z: 0.33333334, w: 0.33333334}
      - serializedVersion: 3
        time: 0.375
        value: {x: 0.005850678, y: -0.000022925602, z: -0.0039183404, w: 0.9999752}
        inSlope: {x: -0.26115766, y: 0.0010233304, z: -0.000011136758, w: 0.0028417117}
        outSlope: {x: -0.26115766, y: 0.0010233304, z: -0.000011136758, w: 0.0028417117}
        tangentMode: 0
        weightedMode: 0
        inWeight: {x: 0.33333334, y: 0.33333334, z: 0.33333334, w: 0.33333334}
        outWeight: {x: 0.33333334, y: 0.33333334, z: 0.33333334, w: 0.33333334}
      - serializedVersion: 3
        time: 0.4166667
        value: {x: -0.00000009424029, y: 3.0008718e-10, z: -0.0039184075, w: 0.9999923}
        inSlope: {x: -0.14041846, y: 0.00055022136, z: -0.0000016093246, w: 0.0004105566}
        outSlope: {x: -0.14041846, y: 0.00055022136, z: -0.0000016093246, w: 0.0004105566}
        tangentMode: 0
        weightedMode: 0
        inWeight: {x: 0.33333334, y: 0.33333334, z: 0.33333334, w: 0.33333334}
        outWeight: {x: 0.33333334, y: 0.33333334, z: 0.33333334, w: 0.33333334}
      m_PreInfinity: 2
      m_PostInfinity: 2
      m_RotationOrder: 4
    path: Armature/Torso/Chest/Head
  - curve:
      serializedVersion: 2
      m_Curve:
      - serializedVersion: 3
        time: 0
        value: {x: 0.28286004, y: -0.6847705, z: -0.42495626, w: 0.5200882}
        inSlope: {x: 3.9950016, y: 1.0225081, z: -1.4026401, w: -3.12333}
        outSlope: {x: 3.9950016, y: 1.0225081, z: -1.4026401, w: -3.12333}
        tangentMode: 0
        weightedMode: 0
        inWeight: {x: 0.33333334, y: 0.33333334, z: 0.33333334, w: 0.33333334}
        outWeight: {x: 0.33333334, y: 0.33333334, z: 0.33333334, w: 0.33333334}
      - serializedVersion: 3
        time: 0.041666668
        value: {x: 0.44931844, y: -0.642166, z: -0.4833996, w: 0.38994944}
        inSlope: {x: 3.726084, y: 1.4068472, z: -1.1133227, w: -3.3567135}
        outSlope: {x: 3.726084, y: 1.4068472, z: -1.1133227, w: -3.3567135}
        tangentMode: 0
        weightedMode: 0
        inWeight: {x: 0.33333334, y: 0.33333334, z: 0.33333334, w: 0.33333334}
        outWeight: {x: 0.33333334, y: 0.33333334, z: 0.33333334, w: 0.33333334}
      - serializedVersion: 3
        time: 0.083333336
        value: {x: 0.59336704, y: -0.56753325, z: -0.51773316, w: 0.24036206}
        inSlope: {x: 1.3825032, y: 0.8027601, z: -0.44751942, w: -1.3011574}
        outSlope: {x: 1.3825032, y: 0.8027601, z: -0.44751942, w: -1.3011574}
        tangentMode: 0
        weightedMode: 0
        inWeight: {x: 0.33333334, y: 0.33333334, z: 0.33333334, w: 0.33333334}
        outWeight: {x: 0.33333334, y: 0.33333334, z: 0.33333334, w: 0.33333334}
      - serializedVersion: 3
        time: 0.125
        value: {x: 0.56452703, y: -0.57526934, z: -0.5206929, w: 0.28151965}
        inSlope: {x: -1.3441349, y: -0.15395951, z: -0.16112708, w: 1.7530583}
        outSlope: {x: -1.3441349, y: -0.15395951, z: -0.16112708, w: 1.7530583}
        tangentMode: 0
        weightedMode: 0
        inWeight: {x: 0.33333334, y: 0.33333334, z: 0.33333334, w: 0.33333334}
        outWeight: {x: 0.33333334, y: 0.33333334, z: 0.33333334, w: 0.33333334}
      - serializedVersion: 3
        time: 0.16666667
        value: {x: 0.4813558, y: -0.5803632, z: -0.5311604, w: 0.38645026}
        inSlope: {x: -2.5523071, y: 0.296972, z: -0.36400574, w: 2.8514605}
        outSlope: {x: -2.5523071, y: 0.296972, z: -0.36400574, w: 2.8514605}
        tangentMode: 0
        weightedMode: 0
        inWeight: {x: 0.33333334, y: 0.33333334, z: 0.33333334, w: 0.33333334}
        outWeight: {x: 0.33333334, y: 0.33333334, z: 0.33333334, w: 0.33333334}
      - serializedVersion: 3
        time: 0.20833334
        value: {x: 0.35183474, y: -0.5505217, z: -0.5510267, w: 0.5191414}
        inSlope: {x: -3.2710915, y: 1.4239074, z: -0.70112383, w: 2.910522}
        outSlope: {x: -3.2710915, y: 1.4239074, z: -0.70112383, w: 2.910522}
        tangentMode: 0
        weightedMode: 0
        inWeight: {x: 0.33333334, y: 0.33333334, z: 0.33333334, w: 0.33333334}
        outWeight: {x: 0.33333334, y: 0.33333334, z: 0.33333334, w: 0.33333334}
      - serializedVersion: 3
        time: 0.25
        value: {x: 0.20876484, y: -0.46170428, z: -0.5895874, w: 0.62899375}
        inSlope: {x: -3.020232, y: 2.8077962, z: -1.0134135, w: 2.135444}
        outSlope: {x: -3.020232, y: 2.8077962, z: -1.0134135, w: 2.135444}
        tangentMode: 0
        weightedMode: 0
        inWeight: {x: 0.33333334, y: 0.33333334, z: 0.33333334, w: 0.33333334}
        outWeight: {x: 0.33333334, y: 0.33333334, z: 0.33333334, w: 0.33333334}
      - serializedVersion: 3
        time: 0.2916667
        value: {x: 0.10014873, y: -0.3165386, z: -0.63547784, w: 0.69709504}
        inSlope: {x: -2.0702848, y: 3.6100574, z: -0.8447569, w: 1.2475916}
        outSlope: {x: -2.0702848, y: 3.6100574, z: -0.8447569, w: 1.2475916}
        tangentMode: 0
        weightedMode: 0
        inWeight: {x: 0.33333334, y: 0.33333334, z: 0.33333334, w: 0.33333334}
        outWeight: {x: 0.33333334, y: 0.33333334, z: 0.33333334, w: 0.33333334}
      - serializedVersion: 3
        time: 0.33333334
        value: {x: 0.036241062, y: -0.16086613, z: -0.6599838, w: 0.73295975}
        inSlope: {x: -1.11608, y: 3.2625666, z: -0.3778604, w: 0.5594295}
        outSlope: {x: -1.11608, y: 3.2625666, z: -0.3778604, w: 0.5594295}
        tangentMode: 0
        weightedMode: 0
        inWeight: {x: 0.33333334, y: 0.33333334, z: 0.33333334, w: 0.33333334}
        outWeight: {x: 0.33333334, y: 0.33333334, z: 0.33333334, w: 0.33333334}
      - serializedVersion: 3
        time: 0.375
        value: {x: 0.0071420847, y: -0.044658132, z: -0.6669662, w: 0.74371415}
        inSlope: {x: -0.43489277, y: 1.9303937, z: -0.08959224, w: 0.14034036}
        outSlope: {x: -0.43489277, y: 1.9303937, z: -0.08959224, w: 0.14034036}
        tangentMode: 0
        weightedMode: 0
        inWeight: {x: 0.33333334, y: 0.33333334, z: 0.33333334, w: 0.33333334}
        outWeight: {x: 0.33333334, y: 0.33333334, z: 0.33333334, w: 0.33333334}
      - serializedVersion: 3
        time: 0.4166667
        value: {x: -0.0000000018757642, y: 0.0000000026373563, z: -0.66744983, w: 0.7446548}
        inSlope: {x: -0.17141, y: 1.0717947, z: -0.0116071645, w: 0.02257489}
        outSlope: {x: -0.17141, y: 1.0717947, z: -0.0116071645, w: 0.02257489}
        tangentMode: 0
        weightedMode: 0
        inWeight: {x: 0.33333334, y: 0.33333334, z: 0.33333334, w: 0.33333334}
        outWeight: {x: 0.33333334, y: 0.33333334, z: 0.33333334, w: 0.33333334}
      m_PreInfinity: 2
      m_PostInfinity: 2
      m_RotationOrder: 4
    path: Armature/Torso/Chest/UpperArm.L
  - curve:
      serializedVersion: 2
      m_Curve:
      - serializedVersion: 3
        time: 0
        value: {x: -0.0000000057855214, y: 0.000000014463804, z: 0.2591083, w: 0.96584827}
        inSlope: {x: 0.10651263, y: -0.3473212, z: -1.572882, w: 0.3629079}
        outSlope: {x: 0.10651263, y: -0.3473212, z: -1.572882, w: 0.3629079}
        tangentMode: 0
        weightedMode: 0
        inWeight: {x: 0.33333334, y: 0.33333334, z: 0.33333334, w: 0.33333334}
        outWeight: {x: 0.33333334, y: 0.33333334, z: 0.33333334, w: 0.33333334}
      - serializedVersion: 3
        time: 0.041666668
        value: {x: 0.0044380208, y: -0.014471703, z: 0.19357155, w: 0.9809694}
        inSlope: {x: 0.15514912, y: -0.5223311, z: -1.5852633, w: 0.30017066}
        outSlope: {x: 0.15514912, y: -0.5223311, z: -1.5852633, w: 0.30017066}
        tangentMode: 0
        weightedMode: 0
        inWeight: {x: 0.33333334, y: 0.33333334, z: 0.33333334, w: 0.33333334}
        outWeight: {x: 0.33333334, y: 0.33333334, z: 0.33333334, w: 0.33333334}
      - serializedVersion: 3
        time: 0.083333336
        value: {x: 0.0129290875, y: -0.043527577, z: 0.12700303, w: 0.9908625}
        inSlope: {x: 0.18210104, y: -0.65941644, z: -0.7990975, w: 0.09970808}
        outSlope: {x: 0.18210104, y: -0.65941644, z: -0.7990975, w: 0.09970808}
        tangentMode: 0
        weightedMode: 0
        inWeight: {x: 0.33333334, y: 0.33333334, z: 0.33333334, w: 0.33333334}
        outWeight: {x: 0.33333334, y: 0.33333334, z: 0.33333334, w: 0.33333334}
      - serializedVersion: 3
        time: 0.125
        value: {x: 0.019613106, y: -0.06942307, z: 0.1269801, w: 0.98927844}
        inSlope: {x: 0.12998796, y: -0.53842694, z: 0.002943098, w: -0.03869033}
        outSlope: {x: 0.12998796, y: -0.53842694, z: 0.002943098, w: -0.03869033}
        tangentMode: 0
        weightedMode: 0
        inWeight: {x: 0.33333334, y: 0.33333334, z: 0.33333334, w: 0.33333334}
        outWeight: {x: 0.33333334, y: 0.33333334, z: 0.33333334, w: 0.33333334}
      - serializedVersion: 3
        time: 0.20833334
        value: {x: 0.025872074, y: -0.10010044, z: 0.12741931, w: 0.9864456}
        inSlope: {x: 0.032460093, y: -0.18847606, z: 0.0034343004, w: -0.019652367}
        outSlope: {x: 0.032460093, y: -0.18847606, z: 0.0034343004, w: -0.019652367}
        tangentMode: 0
        weightedMode: 0
        inWeight: {x: 0.33333334, y: 0.33333334, z: 0.33333334, w: 0.33333334}
        outWeight: {x: 0.33333334, y: 0.33333334, z: 0.33333334, w: 0.33333334}
      - serializedVersion: 3
        time: 0.2916667
        value: {x: 0.022375707, y: -0.08801235, z: 0.10516744, w: 0.99029946}
        inSlope: {x: -0.15822817, y: 0.6223726, z: -0.8645668, w: 0.13203478}
        outSlope: {x: -0.15822817, y: 0.6223726, z: -0.8645668, w: 0.13203478}
        tangentMode: 0
        weightedMode: 0
        inWeight: {x: 0.33333334, y: 0.33333334, z: 0.33333334, w: 0.33333334}
        outWeight: {x: 0.33333334, y: 0.33333334, z: 0.33333334, w: 0.33333334}
      - serializedVersion: 3
        time: 0.375
        value: {x: 0.004140752, y: -0.016287219, z: 0.0056268093, w: 0.999843}
        inSlope: {x: -0.15936893, y: 0.62686145, z: -0.86913, w: 0.03423644}
        outSlope: {x: -0.15936893, y: 0.62686145, z: -0.86913, w: 0.03423644}
        tangentMode: 0
        weightedMode: 0
        inWeight: {x: 0.33333334, y: 0.33333334, z: 0.33333334, w: 0.33333334}
        outWeight: {x: 0.33333334, y: 0.33333334, z: 0.33333334, w: 0.33333334}
      - serializedVersion: 3
        time: 0.4166667
        value: {x: 3.3207662e-10, y: 0.0000000087154, z: -0.016940255, w: 0.99985653}
        inSlope: {x: -0.09937799, y: 0.39089328, z: -0.5416093, w: 0.00032472596}
        outSlope: {x: -0.09937799, y: 0.39089328, z: -0.5416093, w: 0.00032472596}
        tangentMode: 0
        weightedMode: 0
        inWeight: {x: 0.33333334, y: 0.33333334, z: 0.33333334, w: 0.33333334}
        outWeight: {x: 0.33333334, y: 0.33333334, z: 0.33333334, w: 0.33333334}
      m_PreInfinity: 2
      m_PostInfinity: 2
      m_RotationOrder: 4
    path: Armature/Torso/Chest/UpperArm.L/LowerArm.L
  - curve:
      serializedVersion: 2
      m_Curve:
      - serializedVersion: 3
        time: 0
        value: {x: 0.000000007126149, y: -0.000000010780378, z: 0.6113455, w: 0.79136384}
        inSlope: {x: -0.36746952, y: -0.4682455, z: -0.001742363, w: -0.007982254}
        outSlope: {x: -0.36746952, y: -0.4682455, z: -0.001742363, w: -0.007982254}
        tangentMode: 0
        weightedMode: 0
        inWeight: {x: 0.33333334, y: 0.33333334, z: 0.33333334, w: 0.33333334}
        outWeight: {x: 0.33333334, y: 0.33333334, z: 0.33333334, w: 0.33333334}
      - serializedVersion: 3
        time: 0.083333336
        value: {x: -0.030621286, y: -0.03900248, z: 0.6105934, w: 0.7903903}
        inSlope: {x: -0.16807924, y: -0.21398428, z: 0.047111038, w: -0.049080852}
        outSlope: {x: -0.16807924, y: -0.21398428, z: 0.047111038, w: -0.049080852}
        tangentMode: 0
        weightedMode: 0
        inWeight: {x: 0.33333334, y: 0.33333334, z: 0.33333334, w: 0.33333334}
        outWeight: {x: 0.33333334, y: 0.33333334, z: 0.33333334, w: 0.33333334}
      - serializedVersion: 3
        time: 0.16666667
        value: {x: -0.025870416, y: -0.032951277, z: 0.6269383, w: 0.7779417}
        inSlope: {x: 0.10009138, y: 0.12748677, z: 0.33615154, w: -0.2640774}
        outSlope: {x: 0.10009138, y: 0.12748677, z: 0.33615154, w: -0.2640774}
        tangentMode: 0
        weightedMode: 0
        inWeight: {x: 0.33333334, y: 0.33333334, z: 0.33333334, w: 0.33333334}
        outWeight: {x: 0.33333334, y: 0.33333334, z: 0.33333334, w: 0.33333334}
      - serializedVersion: 3
        time: 0.375
        value: {x: -0.0013162717, y: -0.0016765614, z: 0.7048381, w: 0.709365}
        inSlope: {x: 0.057488233, y: 0.07322301, z: 0.17267132, w: -0.16950989}
        outSlope: {x: 0.057488233, y: 0.07322301, z: 0.17267132, w: -0.16950989}
        tangentMode: 0
        weightedMode: 0
        inWeight: {x: 0.33333334, y: 0.33333334, z: 0.33333334, w: 0.33333334}
        outWeight: {x: 0.33333334, y: 0.33333334, z: 0.33333334, w: 0.33333334}
      - serializedVersion: 3
        time: 0.4166667
        value: {x: 0.000000008956514, y: -0.000000008442582, z: 0.7087577, w: 0.705452}
        inSlope: {x: 0.031590723, y: 0.04023725, z: 0.09407039, w: -0.0939116}
        outSlope: {x: 0.031590723, y: 0.04023725, z: 0.09407039, w: -0.0939116}
        tangentMode: 0
        weightedMode: 0
        inWeight: {x: 0.33333334, y: 0.33333334, z: 0.33333334, w: 0.33333334}
        outWeight: {x: 0.33333334, y: 0.33333334, z: 0.33333334, w: 0.33333334}
      m_PreInfinity: 2
      m_PostInfinity: 2
      m_RotationOrder: 4
    path: Armature/Torso/Chest/UpperArm.R
  - curve:
      serializedVersion: 2
      m_Curve:
      - serializedVersion: 3
        time: 0
        value: {x: -0.000000012627188, y: -0.000000019594756, z: -0.21931107, w: 0.97565496}
        inSlope: {x: 1.386263, y: 0.7016446, z: -0.0035312176, w: -0.052398205}
        outSlope: {x: 1.386263, y: 0.7016446, z: -0.0035312176, w: -0.052398205}
        tangentMode: 0
        weightedMode: 0
        inWeight: {x: 0.33333334, y: 0.33333334, z: 0.33333334, w: 0.33333334}
        outWeight: {x: 0.33333334, y: 0.33333334, z: 0.33333334, w: 0.33333334}
      - serializedVersion: 3
        time: 0.041666668
        value: {x: 0.05776095, y: 0.029235171, z: -0.21945821, w: 0.9734717}
        inSlope: {x: 1.3835309, y: 0.70026183, z: 0.02206564, w: -0.09816027}
        outSlope: {x: 1.3835309, y: 0.70026183, z: 0.02206564, w: -0.09816027}
        tangentMode: 0
        weightedMode: 0
        inWeight: {x: 0.33333334, y: 0.33333334, z: 0.33333334, w: 0.33333334}
        outWeight: {x: 0.33333334, y: 0.33333334, z: 0.33333334, w: 0.33333334}
      - serializedVersion: 3
        time: 0.083333336
        value: {x: 0.11529423, y: 0.05835513, z: -0.21747227, w: 0.96747494}
        inSlope: {x: 0.6330116, y: 0.32039306, z: 0.14611012, w: -0.036759134}
        outSlope: {x: 0.6330116, y: 0.32039306, z: 0.14611012, w: -0.036759134}
        tangentMode: 0
        weightedMode: 0
        inWeight: {x: 0.33333334, y: 0.33333334, z: 0.33333334, w: 0.33333334}
        outWeight: {x: 0.33333334, y: 0.33333334, z: 0.33333334, w: 0.33333334}
      - serializedVersion: 3
        time: 0.125
        value: {x: 0.11051192, y: 0.055934593, z: -0.20728236, w: 0.97040844}
        inSlope: {x: -0.21116029, y: -0.10687699, z: 0.39875504, w: 0.111449}
        outSlope: {x: -0.21116029, y: -0.10687699, z: 0.39875504, w: 0.111449}
        tangentMode: 0
        weightedMode: 0
        inWeight: {x: 0.33333334, y: 0.33333334, z: 0.33333334, w: 0.33333334}
        outWeight: {x: 0.33333334, y: 0.33333334, z: 0.33333334, w: 0.33333334}
      - serializedVersion: 3
        time: 0.2916667
        value: {x: 0.03671304, y: 0.018581953, z: -0.07985025, w: 0.99595726}
        inSlope: {x: -0.47996366, y: -0.24292934, z: 0.8119098, w: 0.09020017}
        outSlope: {x: -0.47996366, y: -0.24292934, z: 0.8119098, w: 0.09020017}
        tangentMode: 0
        weightedMode: 0
        inWeight: {x: 0.33333334, y: 0.33333334, z: 0.33333334, w: 0.33333334}
        outWeight: {x: 0.33333334, y: 0.33333334, z: 0.33333334, w: 0.33333334}
      - serializedVersion: 3
        time: 0.375
        value: {x: 0.0049599316, y: 0.002510409, z: -0.026341636, w: 0.99963754}
        inSlope: {x: -0.21700764, y: -0.10983647, z: 0.3647896, w: 0.014593365}
        outSlope: {x: -0.21700764, y: -0.10983647, z: 0.3647896, w: 0.014593365}
        tangentMode: 0
        weightedMode: 0
        inWeight: {x: 0.33333334, y: 0.33333334, z: 0.33333334, w: 0.33333334}
        outWeight: {x: 0.33333334, y: 0.33333334, z: 0.33333334, w: 0.33333334}
      - serializedVersion: 3
        time: 0.4166667
        value: {x: -0.000000001763137, y: -0.000000019127901, z: -0.018017467, w: 0.9998377}
        inSlope: {x: -0.11903834, y: -0.06025025, z: 0.19977996, w: 0.004803655}
        outSlope: {x: -0.11903834, y: -0.06025025, z: 0.19977996, w: 0.004803655}
        tangentMode: 0
        weightedMode: 0
        inWeight: {x: 0.33333334, y: 0.33333334, z: 0.33333334, w: 0.33333334}
        outWeight: {x: 0.33333334, y: 0.33333334, z: 0.33333334, w: 0.33333334}
      m_PreInfinity: 2
      m_PostInfinity: 2
      m_RotationOrder: 4
    path: Armature/Torso/Chest/UpperArm.R/LowerArm.R
  m_CompressedRotationCurves: []
  m_EulerCurves: []
  m_PositionCurves:
  - curve:
      serializedVersion: 2
      m_Curve:
      - serializedVersion: 3
        time: 0
        value: {x: -0.045363683, y: 0.20413654, z: 0.000000027427546}
        inSlope: {x: 0, y: 0, z: 0}
        outSlope: {x: 0, y: 0, z: 0}
        tangentMode: 0
        weightedMode: 0
        inWeight: {x: 0.33333334, y: 0.33333334, z: 0.33333334}
        outWeight: {x: 0.33333334, y: 0.33333334, z: 0.33333334}
      - serializedVersion: 3
        time: 0.41666666
        value: {x: -0.045363683, y: 0.20413654, z: 0.000000027427546}
        inSlope: {x: 0, y: 0, z: 0}
        outSlope: {x: 0, y: 0, z: 0}
        tangentMode: 0
        weightedMode: 0
        inWeight: {x: 0.33333334, y: 0.33333334, z: 0.33333334}
        outWeight: {x: 0.33333334, y: 0.33333334, z: 0.33333334}
      m_PreInfinity: 2
      m_PostInfinity: 2
      m_RotationOrder: 4
    path: Armature
  - curve:
      serializedVersion: 2
      m_Curve:
      - serializedVersion: 3
        time: 0
        value: {x: 0.00004924038, y: -0.000008611498, z: 0.00049378333}
        inSlope: {x: -0.00010351025, y: 0.0000148809795, z: -0}
        outSlope: {x: -0.00010351025, y: 0.0000148809795, z: -0}
        tangentMode: 0
        weightedMode: 0
        inWeight: {x: 0.33333334, y: 0.33333334, z: 0.33333334}
        outWeight: {x: 0.33333334, y: 0.33333334, z: 0.33333334}
      - serializedVersion: 3
        time: 0.041666668
        value: {x: 0.000044927456, y: -0.000007991457, z: 0.00049378333}
        inSlope: {x: -0.00010351025, y: 0.0000148809795, z: -0}
        outSlope: {x: -0.00028095624, y: 0.000014880993, z: -0}
        tangentMode: 0
        weightedMode: 0
        inWeight: {x: 0.33333334, y: 0.33333334, z: 0.33333334}
        outWeight: {x: 0.33333334, y: 0.33333334, z: 0.33333334}
      - serializedVersion: 3
        time: 0.083333336
        value: {x: 0.000033220946, y: -0.000007371416, z: 0.00049378333}
        inSlope: {x: -0.00028095624, y: 0.000014880993, z: -0}
        outSlope: {x: -0.00041404078, y: 0.00001488098, z: -0}
        tangentMode: 0
        weightedMode: 0
        inWeight: {x: 0.33333334, y: 0.33333334, z: 0.33333334}
        outWeight: {x: 0.33333334, y: 0.33333334, z: 0.33333334}
      - serializedVersion: 3
        time: 0.125
        value: {x: 0.000015969248, y: -0.0000067513747, z: 0.00049378333}
        inSlope: {x: -0.00041404078, y: 0.00001488098, z: -0}
        outSlope: {x: -0.0005027639, y: 0.000028108529, z: -0}
        tangentMode: 0
        weightedMode: 0
        inWeight: {x: 0.33333334, y: 0.33333334, z: 0.33333334}
        outWeight: {x: 0.33333334, y: 0.33333334, z: 0.33333334}
      - serializedVersion: 3
        time: 0.16666667
        value: {x: -0.0000049792507, y: -0.000005580186, z: 0.00049378333}
        inSlope: {x: -0.0005027639, y: 0.000028108529, z: -0}
        outSlope: {x: -0.00054712564, y: 0.0000305887, z: -0}
        tangentMode: 0
        weightedMode: 0
        inWeight: {x: 0.33333334, y: 0.33333334, z: 0.33333334}
        outWeight: {x: 0.33333334, y: 0.33333334, z: 0.33333334}
      - serializedVersion: 3
        time: 0.25
        value: {x: -0.000050573028, y: -0.0000030311292, z: 0.00049378333}
        inSlope: {x: -0.00054712506, y: 0.000030588668, z: 8.940696e-10}
        outSlope: {x: -0.0005027644, y: 0.00002810854, z: -0}
        tangentMode: 0
        weightedMode: 0
        inWeight: {x: 0.33333334, y: 0.33333334, z: 0.33333334}
        outWeight: {x: 0.33333334, y: 0.33333334, z: 0.33333334}
      - serializedVersion: 3
        time: 0.29166666
        value: {x: -0.00007152154, y: -0.0000018599403, z: 0.00049378333}
        inSlope: {x: -0.0005027644, y: 0.00002810854, z: -0}
        outSlope: {x: -0.00041404055, y: 0.00001942796, z: -0}
        tangentMode: 0
        weightedMode: 0
        inWeight: {x: 0.33333334, y: 0.33333334, z: 0.33333334}
        outWeight: {x: 0.33333334, y: 0.33333334, z: 0.33333334}
      - serializedVersion: 3
        time: 0.33333334
        value: {x: -0.00008877324, y: -0.0000010504416, z: 0.00049378333}
        inSlope: {x: -0.00041404055, y: 0.00001942796, z: -0}
        outSlope: {x: -0.00028095633, y: 0.000019427964, z: -0}
        tangentMode: 0
        weightedMode: 0
        inWeight: {x: 0.33333334, y: 0.33333334, z: 0.33333334}
        outWeight: {x: 0.33333334, y: 0.33333334, z: 0.33333334}
      - serializedVersion: 3
        time: 0.375
        value: {x: -0.000100479745, y: -0.00000024094334, z: 0.00049378333}
        inSlope: {x: -0.00028095633, y: 0.000019427964, z: -0}
        outSlope: {x: -0.00010351027, y: 0.0000057870348, z: -0}
        tangentMode: 0
        weightedMode: 0
        inWeight: {x: 0.33333334, y: 0.33333334, z: 0.33333334}
        outWeight: {x: 0.33333334, y: 0.33333334, z: 0.33333334}
      - serializedVersion: 3
        time: 0.41666666
        value: {x: -0.00010479268, y: 1.8303765e-10, z: 0.00049378333}
        inSlope: {x: -0.00010351027, y: 0.0000057870348, z: -0}
        outSlope: {x: -0.00010351027, y: 0.0000057870348, z: -0}
        tangentMode: 0
        weightedMode: 0
        inWeight: {x: 0.33333334, y: 0.33333334, z: 0.33333334}
        outWeight: {x: 0.33333334, y: 0.33333334, z: 0.33333334}
      m_PreInfinity: 2
      m_PostInfinity: 2
      m_RotationOrder: 4
    path: Armature/Torso
  - curve:
      serializedVersion: 2
      m_Curve:
      - serializedVersion: 3
        time: 0
        value: {x: 1.1625376e-12, y: 0.011768384, z: 4.4696714e-13}
        inSlope: {x: 0, y: 0, z: 0}
        outSlope: {x: 0, y: 0, z: 0}
        tangentMode: 0
        weightedMode: 0
        inWeight: {x: 0.33333334, y: 0.33333334, z: 0.33333334}
        outWeight: {x: 0.33333334, y: 0.33333334, z: 0.33333334}
      - serializedVersion: 3
        time: 0.41666666
        value: {x: 1.1625376e-12, y: 0.011768384, z: 4.4696714e-13}
        inSlope: {x: 0, y: 0, z: 0}
        outSlope: {x: 0, y: 0, z: 0}
        tangentMode: 0
        weightedMode: 0
        inWeight: {x: 0.33333334, y: 0.33333334, z: 0.33333334}
        outWeight: {x: 0.33333334, y: 0.33333334, z: 0.33333334}
      m_PreInfinity: 2
      m_PostInfinity: 2
      m_RotationOrder: 4
    path: Armature/Torso/Chest
  - curve:
      serializedVersion: 2
      m_Curve:
      - serializedVersion: 3
        time: 0
        value: {x: 0.000023644603, y: 0.008793732, z: -5.8012223e-10}
        inSlope: {x: -0.00000889454, y: -0.0011348963, z: 7.9147355e-10}
        outSlope: {x: -0.00000889454, y: -0.0011348963, z: 7.9147355e-10}
        tangentMode: 0
        weightedMode: 0
        inWeight: {x: 0.33333334, y: 0.33333334, z: 0.33333334}
        outWeight: {x: 0.33333334, y: 0.33333334, z: 0.33333334}
      - serializedVersion: 3
        time: 0.041666668
        value: {x: 0.000023273997, y: 0.008746445, z: -5.4714416e-10}
        inSlope: {x: -0.00000889454, y: -0.0011348963, z: 7.9147355e-10}
        outSlope: {x: -0.000024142004, y: -0.0030806065, z: 7.9147267e-10}
        tangentMode: 0
        weightedMode: 0
        inWeight: {x: 0.33333334, y: 0.33333334, z: 0.33333334}
        outWeight: {x: 0.33333334, y: 0.33333334, z: 0.33333334}
      - serializedVersion: 3
        time: 0.083333336
        value: {x: 0.000022268081, y: 0.008618087, z: -5.1416615e-10}
        inSlope: {x: -0.000024142004, y: -0.0030806065, z: 7.9147267e-10}
        outSlope: {x: -0.00003557794, y: -0.004539714, z: 7.914728e-10}
        tangentMode: 0
        weightedMode: 0
        inWeight: {x: 0.33333334, y: 0.33333334, z: 0.33333334}
        outWeight: {x: 0.33333334, y: 0.33333334, z: 0.33333334}
      - serializedVersion: 3
        time: 0.20833333
        value: {x: 0.000017026685, y: 0.007949287, z: -4.1523204e-10}
        inSlope: {x: -0.000047013546, y: -0.005998937, z: 7.914729e-10}
        outSlope: {x: -0.00004701398, y: -0.0059990063, z: 7.9147344e-10}
        tangentMode: 0
        weightedMode: 0
        inWeight: {x: 0.33333334, y: 0.33333334, z: 0.33333334}
        outWeight: {x: 0.33333334, y: 0.33333334, z: 0.33333334}
      - serializedVersion: 3
        time: 0.29166666
        value: {x: 0.000013267713, y: 0.0074696406, z: -3.4927594e-10}
        inSlope: {x: -0.00004320137, y: -0.005512506, z: 7.914729e-10}
        outSlope: {x: -0.000035577643, y: -0.0045397687, z: 7.9147316e-10}
        tangentMode: 0
        weightedMode: 0
        inWeight: {x: 0.33333334, y: 0.33333334, z: 0.33333334}
        outWeight: {x: 0.33333334, y: 0.33333334, z: 0.33333334}
      - serializedVersion: 3
        time: 0.33333334
        value: {x: 0.000011785311, y: 0.007280484, z: -3.1629788e-10}
        inSlope: {x: -0.000035577643, y: -0.0045397687, z: 7.9147316e-10}
        outSlope: {x: -0.000024142708, y: -0.0030804495, z: 7.9147333e-10}
        tangentMode: 0
        weightedMode: 0
        inWeight: {x: 0.33333334, y: 0.33333334, z: 0.33333334}
        outWeight: {x: 0.33333334, y: 0.33333334, z: 0.33333334}
      - serializedVersion: 3
        time: 0.375
        value: {x: 0.000010779365, y: 0.0071521318, z: -2.8331984e-10}
        inSlope: {x: -0.000024142708, y: -0.0030804495, z: 7.9147333e-10}
        outSlope: {x: -0.000008893034, y: -0.0011349967, z: 7.9147333e-10}
        tangentMode: 0
        weightedMode: 0
        inWeight: {x: 0.33333334, y: 0.33333334, z: 0.33333334}
        outWeight: {x: 0.33333334, y: 0.33333334, z: 0.33333334}
      - serializedVersion: 3
        time: 0.41666666
        value: {x: 0.000010408822, y: 0.00710484, z: -2.5034178e-10}
        inSlope: {x: -0.000008893034, y: -0.0011349967, z: 7.9147333e-10}
        outSlope: {x: -0.000008893034, y: -0.0011349967, z: 7.9147333e-10}
        tangentMode: 0
        weightedMode: 0
        inWeight: {x: 0.33333334, y: 0.33333334, z: 0.33333334}
        outWeight: {x: 0.33333334, y: 0.33333334, z: 0.33333334}
      m_PreInfinity: 2
      m_PostInfinity: 2
      m_RotationOrder: 4
    path: Armature/Torso/Chest/Head
  - curve:
      serializedVersion: 2
      m_Curve:
      - serializedVersion: 3
        time: 0
        value: {x: 0.008343879, y: 0.0038465199, z: 0.0010133673}
        inSlope: {x: -0, y: 0.00004175663, z: -0.0000000035762786}
        outSlope: {x: -0, y: 0.00004175663, z: -0.0000000035762786}
        tangentMode: 0
        weightedMode: 0
        inWeight: {x: 0.33333334, y: 0.33333334, z: 0.33333334}
        outWeight: {x: 0.33333334, y: 0.33333334, z: 0.33333334}
      - serializedVersion: 3
        time: 0.083333336
        value: {x: 0.008343879, y: 0.0038499995, z: 0.0010133671}
        inSlope: {x: -0, y: 0.00004175663, z: -0.0000000017881393}
        outSlope: {x: -0.003617306, y: 0.00004174948, z: -0.0010450459}
        tangentMode: 0
        weightedMode: 0
        inWeight: {x: 0.33333334, y: 0.33333334, z: 0.33333334}
        outWeight: {x: 0.33333334, y: 0.33333334, z: 0.33333334}
      - serializedVersion: 3
        time: 0.125
        value: {x: 0.008193158, y: 0.003851739, z: 0.0009698235}
        inSlope: {x: -0.003617306, y: 0.00004174948, z: -0.0010450459}
        outSlope: {x: -0.009536561, y: 0.000041756626, z: -0.0027550915}
        tangentMode: 0
        weightedMode: 0
        inWeight: {x: 0.33333334, y: 0.33333334, z: 0.33333334}
        outWeight: {x: 0.33333334, y: 0.33333334, z: 0.33333334}
      - serializedVersion: 3
        time: 0.16666667
        value: {x: 0.007795801, y: 0.003853479, z: 0.000855028}
        inSlope: {x: -0.009536561, y: 0.000041756626, z: -0.0027550915}
        outSlope: {x: -0.013482703, y: 0.000041756637, z: -0.0038951351}
        tangentMode: 0
        weightedMode: 0
        inWeight: {x: 0.33333334, y: 0.33333334, z: 0.33333334}
        outWeight: {x: 0.33333334, y: 0.33333334, z: 0.33333334}
      - serializedVersion: 3
        time: 0.20833333
        value: {x: 0.007234022, y: 0.0038552189, z: 0.00069273077}
        inSlope: {x: -0.013482703, y: 0.000041756637, z: -0.0038951351}
        outSlope: {x: -0.015455815, y: 0.00012110708, z: -0.004465143}
        tangentMode: 0
        weightedMode: 0
        inWeight: {x: 0.33333334, y: 0.33333334, z: 0.33333334}
        outWeight: {x: 0.33333334, y: 0.33333334, z: 0.33333334}
      - serializedVersion: 3
        time: 0.29166666
        value: {x: 0.0059460383, y: 0.0038653107, z: 0.0003206355}
        inSlope: {x: -0.015455793, y: 0.000121099976, z: -0.004465143}
        outSlope: {x: -0.013482736, y: 0.00006959435, z: -0.0038951265}
        tangentMode: 0
        weightedMode: 0
        inWeight: {x: 0.33333334, y: 0.33333334, z: 0.33333334}
        outWeight: {x: 0.33333334, y: 0.33333334, z: 0.33333334}
      - serializedVersion: 3
        time: 0.33333334
        value: {x: 0.0053842575, y: 0.0038682106, z: 0.00015833849}
        inSlope: {x: -0.013482736, y: 0.00006959435, z: -0.0038951265}
        outSlope: {x: -0.009536549, y: 0.0000695944, z: -0.0027550885}
        tangentMode: 0
        weightedMode: 0
        inWeight: {x: 0.33333334, y: 0.33333334, z: 0.33333334}
        outWeight: {x: 0.33333334, y: 0.33333334, z: 0.33333334}
      - serializedVersion: 3
        time: 0.375
        value: {x: 0.0049869013, y: 0.0038711103, z: 0.00004354316}
        inSlope: {x: -0.009536549, y: 0.0000695944, z: -0.0027550885}
        outSlope: {x: -0.0036173065, y: 0.0000695944, z: -0.0010450339}
        tangentMode: 0
        weightedMode: 0
        inWeight: {x: 0.33333334, y: 0.33333334, z: 0.33333334}
        outWeight: {x: 0.33333334, y: 0.33333334, z: 0.33333334}
      - serializedVersion: 3
        time: 0.41666666
        value: {x: 0.0048361802, y: 0.0038740102, z: 9.1837496e-11}
        inSlope: {x: -0.0036173065, y: 0.0000695944, z: -0.0010450339}
        outSlope: {x: -0.0036173065, y: 0.0000695944, z: -0.0010450339}
        tangentMode: 0
        weightedMode: 0
        inWeight: {x: 0.33333334, y: 0.33333334, z: 0.33333334}
        outWeight: {x: 0.33333334, y: 0.33333334, z: 0.33333334}
      m_PreInfinity: 2
      m_PostInfinity: 2
      m_RotationOrder: 4
    path: Armature/Torso/Chest/UpperArm.L
  - curve:
      serializedVersion: 2
      m_Curve:
      - serializedVersion: 3
        time: 0
        value: {x: -0, y: 0.0035789108, z: -4.842877e-10}
        inSlope: {x: 0, y: 0, z: 0}
        outSlope: {x: 0, y: 0, z: 0}
        tangentMode: 0
        weightedMode: 0
        inWeight: {x: 0.33333334, y: 0.33333334, z: 0.33333334}
        outWeight: {x: 0.33333334, y: 0.33333334, z: 0.33333334}
      - serializedVersion: 3
        time: 0.41666666
        value: {x: -0, y: 0.0035789108, z: -4.842877e-10}
        inSlope: {x: 0, y: 0, z: 0}
        outSlope: {x: 0, y: 0, z: 0}
        tangentMode: 0
        weightedMode: 0
        inWeight: {x: 0.33333334, y: 0.33333334, z: 0.33333334}
        outWeight: {x: 0.33333334, y: 0.33333334, z: 0.33333334}
      m_PreInfinity: 2
      m_PostInfinity: 2
      m_RotationOrder: 4
    path: Armature/Torso/Chest/UpperArm.L/LowerArm.L
  - curve:
      serializedVersion: 2
      m_Curve:
      - serializedVersion: 3
        time: 0
        value: {x: -0.004681387, y: 0.0037671567, z: 1.0991514e-10}
        inSlope: {x: 0, y: 0, z: 0}
        outSlope: {x: 0, y: 0, z: 0}
        tangentMode: 0
        weightedMode: 0
        inWeight: {x: 0.33333334, y: 0.33333334, z: 0.33333334}
        outWeight: {x: 0.33333334, y: 0.33333334, z: 0.33333334}
      - serializedVersion: 3
        time: 0.41666666
        value: {x: -0.004681387, y: 0.0037671567, z: 1.0991514e-10}
        inSlope: {x: 0, y: 0, z: 0}
        outSlope: {x: 0, y: 0, z: 0}
        tangentMode: 0
        weightedMode: 0
        inWeight: {x: 0.33333334, y: 0.33333334, z: 0.33333334}
        outWeight: {x: 0.33333334, y: 0.33333334, z: 0.33333334}
      m_PreInfinity: 2
      m_PostInfinity: 2
      m_RotationOrder: 4
    path: Armature/Torso/Chest/UpperArm.R
  - curve:
      serializedVersion: 2
      m_Curve:
      - serializedVersion: 3
        time: 0
        value: {x: 0.0000000020872482, y: 0.0045963186, z: -2.810463e-13}
        inSlope: {x: 0, y: 0, z: 0}
        outSlope: {x: 0, y: 0, z: 0}
        tangentMode: 0
        weightedMode: 0
        inWeight: {x: 0.33333334, y: 0.33333334, z: 0.33333334}
        outWeight: {x: 0.33333334, y: 0.33333334, z: 0.33333334}
      - serializedVersion: 3
        time: 0.41666666
        value: {x: 0.0000000020872482, y: 0.0045963186, z: -2.810463e-13}
        inSlope: {x: 0, y: 0, z: 0}
        outSlope: {x: 0, y: 0, z: 0}
        tangentMode: 0
        weightedMode: 0
        inWeight: {x: 0.33333334, y: 0.33333334, z: 0.33333334}
        outWeight: {x: 0.33333334, y: 0.33333334, z: 0.33333334}
      m_PreInfinity: 2
      m_PostInfinity: 2
      m_RotationOrder: 4
    path: Armature/Torso/Chest/UpperArm.R/LowerArm.R
  m_ScaleCurves:
  - curve:
      serializedVersion: 2
      m_Curve:
      - serializedVersion: 3
        time: 0
        value: {x: 250.51517, y: 250.51517, z: 250.51517}
        inSlope: {x: 0, y: 0, z: 0}
        outSlope: {x: 0, y: 0, z: 0}
        tangentMode: 0
        weightedMode: 0
        inWeight: {x: 0.33333334, y: 0.33333334, z: 0.33333334}
        outWeight: {x: 0.33333334, y: 0.33333334, z: 0.33333334}
      - serializedVersion: 3
        time: 0.4166667
        value: {x: 250.51517, y: 250.51517, z: 250.51517}
        inSlope: {x: 0, y: 0, z: 0}
        outSlope: {x: 0, y: 0, z: 0}
        tangentMode: 0
        weightedMode: 0
        inWeight: {x: 0.33333334, y: 0.33333334, z: 0.33333334}
        outWeight: {x: 0.33333334, y: 0.33333334, z: 0.33333334}
      m_PreInfinity: 2
      m_PostInfinity: 2
      m_RotationOrder: 4
    path: Armature
  - curve:
      serializedVersion: 2
      m_Curve:
      - serializedVersion: 3
        time: 0
        value: {x: 1.0841154, y: 1.0841155, z: 1.0841153}
        inSlope: {x: -0.05652523, y: -0.05652523, z: -0.05652523}
        outSlope: {x: -0.05652523, y: -0.05652523, z: -0.05652523}
        tangentMode: 0
        weightedMode: 0
        inWeight: {x: 0.33333334, y: 0.33333334, z: 0.33333334}
        outWeight: {x: 0.33333334, y: 0.33333334, z: 0.33333334}
      - serializedVersion: 3
        time: 0.4166667
        value: {x: 1, y: 0.99999994, z: 0.99999994}
        inSlope: {x: -0.056525204, y: -0.056523774, z: -0.056523774}
        outSlope: {x: -0.056525204, y: -0.056523774, z: -0.056523774}
        tangentMode: 0
        weightedMode: 0
        inWeight: {x: 0.33333334, y: 0.33333334, z: 0.33333334}
        outWeight: {x: 0.33333334, y: 0.33333334, z: 0.33333334}
      m_PreInfinity: 2
      m_PostInfinity: 2
      m_RotationOrder: 4
    path: Armature/Torso
  - curve:
      serializedVersion: 2
      m_Curve:
      - serializedVersion: 3
        time: 0
        value: {x: 1, y: 0.9999999, z: 1}
        inSlope: {x: 0, y: 0, z: 0}
        outSlope: {x: 0, y: 0, z: 0}
        tangentMode: 0
        weightedMode: 0
        inWeight: {x: 0.33333334, y: 0.33333334, z: 0.33333334}
        outWeight: {x: 0.33333334, y: 0.33333334, z: 0.33333334}
      - serializedVersion: 3
        time: 0.4166667
        value: {x: 1, y: 0.9999999, z: 1}
        inSlope: {x: 0, y: 0, z: 0}
        outSlope: {x: 0, y: 0, z: 0}
        tangentMode: 0
        weightedMode: 0
        inWeight: {x: 0.33333334, y: 0.33333334, z: 0.33333334}
        outWeight: {x: 0.33333334, y: 0.33333334, z: 0.33333334}
      m_PreInfinity: 2
      m_PostInfinity: 2
      m_RotationOrder: 4
    path: Armature/Torso/Chest
  - curve:
      serializedVersion: 2
      m_Curve:
      - serializedVersion: 3
        time: 0
        value: {x: 1.1206797, y: 1.1206795, z: 1.1206796}
        inSlope: {x: -0.08109856, y: -0.081095695, z: -0.081095695}
        outSlope: {x: -0.08109856, y: -0.081095695, z: -0.081095695}
        tangentMode: 0
        weightedMode: 0
        inWeight: {x: 0.33333334, y: 0.33333334, z: 0.33333334}
        outWeight: {x: 0.33333334, y: 0.33333334, z: 0.33333334}
      - serializedVersion: 3
        time: 0.4166667
        value: {x: 1, y: 0.99999994, z: 1}
        inSlope: {x: -0.08109852, y: -0.08109423, z: -0.08109566}
        outSlope: {x: -0.08109852, y: -0.08109423, z: -0.08109566}
        tangentMode: 0
        weightedMode: 0
        inWeight: {x: 0.33333334, y: 0.33333334, z: 0.33333334}
        outWeight: {x: 0.33333334, y: 0.33333334, z: 0.33333334}
      m_PreInfinity: 2
      m_PostInfinity: 2
      m_RotationOrder: 4
    path: Armature/Torso/Chest/Head
  - curve:
      serializedVersion: 2
      m_Curve:
      - serializedVersion: 3
        time: 0
        value: {x: 1.5890634, y: 1.5890634, z: 1.5890634}
        inSlope: {x: -0.000002861023, y: 0, z: 0.000002861023}
        outSlope: {x: -0.000002861023, y: 0, z: 0.000002861023}
        tangentMode: 0
        weightedMode: 0
        inWeight: {x: 0.33333334, y: 0.33333334, z: 0.33333334}
        outWeight: {x: 0.33333334, y: 0.33333334, z: 0.33333334}
      - serializedVersion: 3
        time: 0.16666667
        value: {x: 1.4970223, y: 1.4970223, z: 1.4970224}
        inSlope: {x: -1.9328597, y: -1.9328611, z: -1.9328597}
        outSlope: {x: -1.9328597, y: -1.9328611, z: -1.9328597}
        tangentMode: 0
        weightedMode: 0
        inWeight: {x: 0.33333334, y: 0.33333334, z: 0.33333334}
        outWeight: {x: 0.33333334, y: 0.33333334, z: 0.33333334}
      - serializedVersion: 3
        time: 0.375
        value: {x: 1.0253114, y: 1.0253114, z: 1.0253114}
        inSlope: {x: -1.1044908, y: -1.1044908, z: -1.1044908}
        outSlope: {x: -1.1044908, y: -1.1044908, z: -1.1044908}
        tangentMode: 0
        weightedMode: 0
        inWeight: {x: 0.33333334, y: 0.33333334, z: 0.33333334}
        outWeight: {x: 0.33333334, y: 0.33333334, z: 0.33333334}
      - serializedVersion: 3
        time: 0.4166667
        value: {x: 1.0000001, y: 1.0000001, z: 1}
        inSlope: {x: -0.60746926, y: -0.60746926, z: -0.6074721}
        outSlope: {x: -0.60746926, y: -0.60746926, z: -0.6074721}
        tangentMode: 0
        weightedMode: 0
        inWeight: {x: 0.33333334, y: 0.33333334, z: 0.33333334}
        outWeight: {x: 0.33333334, y: 0.33333334, z: 0.33333334}
      m_PreInfinity: 2
      m_PostInfinity: 2
      m_RotationOrder: 4
    path: Armature/Torso/Chest/UpperArm.L
  - curve:
      serializedVersion: 2
      m_Curve:
      - serializedVersion: 3
        time: 0
        value: {x: 0.9999999, y: 0.99999994, z: 1}
        inSlope: {x: 0, y: 0, z: 0}
        outSlope: {x: 0, y: 0, z: 0}
        tangentMode: 0
        weightedMode: 0
        inWeight: {x: 0.33333334, y: 0.33333334, z: 0.33333334}
        outWeight: {x: 0.33333334, y: 0.33333334, z: 0.33333334}
      - serializedVersion: 3
        time: 0.4166667
        value: {x: 0.9999999, y: 0.99999994, z: 1}
        inSlope: {x: 0, y: 0, z: 0}
        outSlope: {x: 0, y: 0, z: 0}
        tangentMode: 0
        weightedMode: 0
        inWeight: {x: 0.33333334, y: 0.33333334, z: 0.33333334}
        outWeight: {x: 0.33333334, y: 0.33333334, z: 0.33333334}
      m_PreInfinity: 2
      m_PostInfinity: 2
      m_RotationOrder: 4
    path: Armature/Torso/Chest/UpperArm.L/LowerArm.L
  - curve:
      serializedVersion: 2
      m_Curve:
      - serializedVersion: 3
        time: 0
        value: {x: 0.905661, y: 0.9056609, z: 0.905661}
        inSlope: {x: -0.0000014305115, y: 0.0000014305115, z: 0}
        outSlope: {x: -0.0000014305115, y: 0.0000014305115, z: 0}
        tangentMode: 0
        weightedMode: 0
        inWeight: {x: 0.33333334, y: 0.33333334, z: 0.33333334}
        outWeight: {x: 0.33333334, y: 0.33333334, z: 0.33333334}
      - serializedVersion: 3
        time: 0.20833334
        value: {x: 0.9355104, y: 0.93551046, z: 0.9355104}
        inSlope: {x: 0.3891478, y: 0.38914707, z: 0.3891485}
        outSlope: {x: 0.3891478, y: 0.38914707, z: 0.3891485}
        tangentMode: 0
        weightedMode: 0
        inWeight: {x: 0.33333334, y: 0.33333334, z: 0.33333334}
        outWeight: {x: 0.33333334, y: 0.33333334, z: 0.33333334}
      - serializedVersion: 3
        time: 0.4166667
        value: {x: 0.99999994, y: 0.99999994, z: 1}
        inSlope: {x: 0.09728332, y: 0.09728475, z: 0.09728475}
        outSlope: {x: 0.09728332, y: 0.09728475, z: 0.09728475}
        tangentMode: 0
        weightedMode: 0
        inWeight: {x: 0.33333334, y: 0.33333334, z: 0.33333334}
        outWeight: {x: 0.33333334, y: 0.33333334, z: 0.33333334}
      m_PreInfinity: 2
      m_PostInfinity: 2
      m_RotationOrder: 4
    path: Armature/Torso/Chest/UpperArm.R
  - curve:
      serializedVersion: 2
      m_Curve:
      - serializedVersion: 3
        time: 0
        value: {x: 1, y: 1, z: 0.9999999}
        inSlope: {x: 0, y: 0, z: 0}
        outSlope: {x: 0, y: 0, z: 0}
        tangentMode: 0
        weightedMode: 0
        inWeight: {x: 0.33333334, y: 0.33333334, z: 0.33333334}
        outWeight: {x: 0.33333334, y: 0.33333334, z: 0.33333334}
      - serializedVersion: 3
        time: 0.4166667
        value: {x: 1, y: 1, z: 0.9999999}
        inSlope: {x: 0, y: 0, z: 0}
        outSlope: {x: 0, y: 0, z: 0}
        tangentMode: 0
        weightedMode: 0
        inWeight: {x: 0.33333334, y: 0.33333334, z: 0.33333334}
        outWeight: {x: 0.33333334, y: 0.33333334, z: 0.33333334}
      m_PreInfinity: 2
      m_PostInfinity: 2
      m_RotationOrder: 4
    path: Armature/Torso/Chest/UpperArm.R/LowerArm.R
  m_FloatCurves: []
  m_PPtrCurves: []
  m_SampleRate: 24
  m_WrapMode: 0
  m_Bounds:
    m_Center: {x: 0, y: 0, z: 0}
    m_Extent: {x: 0, y: 0, z: 0}
  m_ClipBindingConstant:
    genericBindings:
    - serializedVersion: 2
      path: 1411974969
      attribute: 1
      script: {fileID: 0}
      typeID: 4
      customType: 0
      isPPtrCurve: 0
    - serializedVersion: 2
      path: 305981203
      attribute: 1
      script: {fileID: 0}
      typeID: 4
      customType: 0
      isPPtrCurve: 0
    - serializedVersion: 2
      path: 4284949753
      attribute: 1
      script: {fileID: 0}
      typeID: 4
      customType: 0
      isPPtrCurve: 0
    - serializedVersion: 2
      path: 305981203
      attribute: 2
      script: {fileID: 0}
      typeID: 4
      customType: 0
      isPPtrCurve: 0
    - serializedVersion: 2
      path: 4284949753
      attribute: 2
      script: {fileID: 0}
      typeID: 4
      customType: 0
      isPPtrCurve: 0
    - serializedVersion: 2
      path: 2063098213
      attribute: 2
      script: {fileID: 0}
      typeID: 4
      customType: 0
      isPPtrCurve: 0
    - serializedVersion: 2
      path: 90708378
      attribute: 2
      script: {fileID: 0}
      typeID: 4
      customType: 0
      isPPtrCurve: 0
    - serializedVersion: 2
      path: 1709073124
      attribute: 2
      script: {fileID: 0}
      typeID: 4
      customType: 0
      isPPtrCurve: 0
    - serializedVersion: 2
      path: 1411974969
      attribute: 3
      script: {fileID: 0}
      typeID: 4
      customType: 0
      isPPtrCurve: 0
    - serializedVersion: 2
      path: 305981203
      attribute: 3
      script: {fileID: 0}
      typeID: 4
      customType: 0
      isPPtrCurve: 0
    - serializedVersion: 2
      path: 4284949753
      attribute: 3
      script: {fileID: 0}
      typeID: 4
      customType: 0
      isPPtrCurve: 0
    - serializedVersion: 2
      path: 90708378
      attribute: 3
      script: {fileID: 0}
      typeID: 4
      customType: 0
      isPPtrCurve: 0
    - serializedVersion: 2
      path: 2104266162
      attribute: 1
      script: {fileID: 0}
      typeID: 4
      customType: 0
      isPPtrCurve: 0
    - serializedVersion: 2
      path: 2621804867
      attribute: 1
      script: {fileID: 0}
      typeID: 4
      customType: 0
      isPPtrCurve: 0
    - serializedVersion: 2
      path: 2063098213
      attribute: 1
      script: {fileID: 0}
      typeID: 4
      customType: 0
      isPPtrCurve: 0
    - serializedVersion: 2
      path: 90708378
      attribute: 1
      script: {fileID: 0}
      typeID: 4
      customType: 0
      isPPtrCurve: 0
    - serializedVersion: 2
      path: 1709073124
      attribute: 1
      script: {fileID: 0}
      typeID: 4
      customType: 0
      isPPtrCurve: 0
    - serializedVersion: 2
      path: 2104266162
      attribute: 2
      script: {fileID: 0}
      typeID: 4
      customType: 0
      isPPtrCurve: 0
    - serializedVersion: 2
      path: 1411974969
      attribute: 2
      script: {fileID: 0}
      typeID: 4
      customType: 0
      isPPtrCurve: 0
    - serializedVersion: 2
      path: 2621804867
      attribute: 2
      script: {fileID: 0}
      typeID: 4
      customType: 0
      isPPtrCurve: 0
    - serializedVersion: 2
      path: 2104266162
      attribute: 3
      script: {fileID: 0}
      typeID: 4
      customType: 0
      isPPtrCurve: 0
    - serializedVersion: 2
      path: 2621804867
      attribute: 3
      script: {fileID: 0}
      typeID: 4
      customType: 0
      isPPtrCurve: 0
    - serializedVersion: 2
      path: 2063098213
      attribute: 3
      script: {fileID: 0}
      typeID: 4
      customType: 0
      isPPtrCurve: 0
    - serializedVersion: 2
      path: 1709073124
      attribute: 3
      script: {fileID: 0}
      typeID: 4
      customType: 0
      isPPtrCurve: 0
    pptrCurveMapping: []
  m_AnimationClipSettings:
    serializedVersion: 2
    m_AdditiveReferencePoseClip: {fileID: 0}
    m_AdditiveReferencePoseTime: 0
    m_StartTime: 0
    m_StopTime: 0.4166667
    m_OrientationOffsetY: 0
    m_Level: 0
    m_CycleOffset: 0
    m_HasAdditiveReferencePose: 0
    m_LoopTime: 0
    m_LoopBlend: 0
    m_LoopBlendOrientation: 0
    m_LoopBlendPositionY: 0
    m_LoopBlendPositionXZ: 0
    m_KeepOriginalOrientation: 0
    m_KeepOriginalPositionY: 1
    m_KeepOriginalPositionXZ: 0
    m_HeightFromFeet: 0
    m_Mirror: 0
  m_EditorCurves: []
  m_EulerEditorCurves: []
  m_HasGenericRootTransform: 0
  m_HasMotionFloatCurves: 0
  m_Events: []
