%YAML 1.1
%TAG !u! tag:unity3d.com,2011:
--- !u!74 &7400000
AnimationClip:
  m_ObjectHideFlags: 0
  m_CorrespondingSourceObject: {fileID: 0}
  m_PrefabInstance: {fileID: 0}
  m_PrefabAsset: {fileID: 0}
  m_Name: Fire_ExploChannel
  serializedVersion: 6
  m_Legacy: 0
  m_Compressed: 0
  m_UseHighQualityCurve: 1
  m_RotationCurves:
  - curve:
      serializedVersion: 2
      m_Curve:
      - serializedVersion: 3
        time: 0
        value: {x: -0.7071068, y: 0, z: -0, w: 0.7071067}
        inSlope: {x: 0, y: 0, z: 0, w: 0}
        outSlope: {x: 0, y: 0, z: 0, w: 0}
        tangentMode: 0
        weightedMode: 0
        inWeight: {x: 0.33333334, y: 0.33333334, z: 0.33333334, w: 0.33333334}
        outWeight: {x: 0.33333334, y: 0.33333334, z: 0.33333334, w: 0.33333334}
      - serializedVersion: 3
        time: 0.9583334
        value: {x: -0.7071068, y: 0, z: -0, w: 0.7071067}
        inSlope: {x: 0, y: 0, z: 0, w: 0}
        outSlope: {x: 0, y: 0, z: 0, w: 0}
        tangentMode: 0
        weightedMode: 0
        inWeight: {x: 0.33333334, y: 0.33333334, z: 0.33333334, w: 0.33333334}
        outWeight: {x: 0.33333334, y: 0.33333334, z: 0.33333334, w: 0.33333334}
      m_PreInfinity: 2
      m_PostInfinity: 2
      m_RotationOrder: 4
    path: Armature
  - curve:
      serializedVersion: 2
      m_Curve:
      - serializedVersion: 3
        time: 0
        value: {x: 0.62930083, y: 9.032159e-27, z: 1.0273605e-17, w: 0.7771618}
        inSlope: {x: -0.12826681, y: 6.9091253e-18, z: -6.727599e-18, w: 0.10313702}
        outSlope: {x: -0.12826681, y: 6.9091253e-18, z: -6.727599e-18, w: 0.10313702}
        tangentMode: 0
        weightedMode: 0
        inWeight: {x: 0.33333334, y: 0.33333334, z: 0.33333334, w: 0.33333334}
        outWeight: {x: 0.33333334, y: 0.33333334, z: 0.33333334, w: 0.33333334}
      - serializedVersion: 3
        time: 0.16666667
        value: {x: 0.5945893, y: 1.0229945e-18, z: 9.197255e-18, w: 0.80402964}
        inSlope: {x: -0.06599807, y: 8.0644485e-18, z: -6.342175e-18, w: 0.04915809}
        outSlope: {x: -0.06599807, y: 8.0644485e-18, z: -6.342175e-18, w: 0.04915809}
        tangentMode: 0
        weightedMode: 0
        inWeight: {x: 0.33333334, y: 0.33333334, z: 0.33333334, w: 0.33333334}
        outWeight: {x: 0.33333334, y: 0.33333334, z: 0.33333334, w: 0.33333334}
      - serializedVersion: 3
        time: 0.5
        value: {x: 0.5945893, y: 3.9706857e-18, z: 7.064348e-18, w: 0.80402964}
        inSlope: {x: 0, y: 8.843073e-18, z: -6.3987193e-18, w: 0}
        outSlope: {x: 0, y: 8.843073e-18, z: -6.3987193e-18, w: 0}
        tangentMode: 0
        weightedMode: 0
        inWeight: {x: 0.33333334, y: 0.33333334, z: 0.33333334, w: 0.33333334}
        outWeight: {x: 0.33333334, y: 0.33333334, z: 0.33333334, w: 0.33333334}
      - serializedVersion: 3
        time: 0.9583334
        value: {x: 0.5945893, y: 8.02376e-18, z: 4.131601e-18, w: 0.8040296}
        inSlope: {x: 0, y: 8.84304e-18, z: -6.3987222e-18, w: 0}
        outSlope: {x: 0, y: 8.84304e-18, z: -6.3987222e-18, w: 0}
        tangentMode: 0
        weightedMode: 0
        inWeight: {x: 0.33333334, y: 0.33333334, z: 0.33333334, w: 0.33333334}
        outWeight: {x: 0.33333334, y: 0.33333334, z: 0.33333334, w: 0.33333334}
      m_PreInfinity: 2
      m_PostInfinity: 2
      m_RotationOrder: 4
    path: Armature/Main
  - curve:
      serializedVersion: 2
      m_Curve:
      - serializedVersion: 3
        time: 0
        value: {x: 0.09724429, y: 0.017432831, z: -0.0011076991, w: 0.99510723}
        inSlope: {x: 0.25527656, y: 0.0002604425, z: 0.004475907, w: -0.026324272}
        outSlope: {x: 0.25527656, y: 0.0002604425, z: 0.004475907, w: -0.026324272}
        tangentMode: 0
        weightedMode: 0
        inWeight: {x: 0.33333334, y: 0.33333334, z: 0.33333334, w: 0.33333334}
        outWeight: {x: 0.33333334, y: 0.33333334, z: 0.33333334, w: 0.33333334}
      - serializedVersion: 3
        time: 0.083333336
        value: {x: 0.13426219, y: 0.017462002, z: -0.0004572467, w: 0.99079186}
        inSlope: {x: 0.7219919, y: 0.00028491765, z: 0.012732423, w: -0.10063362}
        outSlope: {x: 0.7219919, y: 0.00028491765, z: 0.012732423, w: -0.10063362}
        tangentMode: 0
        weightedMode: 0
        inWeight: {x: 0.33333334, y: 0.33333334, z: 0.33333334, w: 0.33333334}
        outWeight: {x: 0.33333334, y: 0.33333334, z: 0.33333334, w: 0.33333334}
      - serializedVersion: 3
        time: 0.25
        value: {x: 0.24358271, y: 0.01740459, z: 0.0014869539, w: 0.9697228}
        inSlope: {x: 0.32542402, y: -0.00047651675, z: 0.005837057, w: -0.0804348}
        outSlope: {x: 0.32542402, y: -0.00047651675, z: 0.005837057, w: -0.0804348}
        tangentMode: 0
        weightedMode: 0
        inWeight: {x: 0.33333334, y: 0.33333334, z: 0.33333334, w: 0.33333334}
        outWeight: {x: 0.33333334, y: 0.33333334, z: 0.33333334, w: 0.33333334}
      - serializedVersion: 3
        time: 0.5
        value: {x: 0.25659534, y: 0.017383028, z: 0.0017207644, w: 0.96636105}
        inSlope: {x: 0, y: 0, z: -0.000000006984921, w: 0}
        outSlope: {x: 0, y: 0, z: -0.000000006984921, w: 0}
        tangentMode: 0
        weightedMode: 0
        inWeight: {x: 0.33333334, y: 0.33333334, z: 0.33333334, w: 0.33333334}
        outWeight: {x: 0.33333334, y: 0.33333334, z: 0.33333334, w: 0.33333334}
      - serializedVersion: 3
        time: 0.9583334
        value: {x: 0.25659537, y: 0.01738303, z: 0.0017207655, w: 0.96636105}
        inSlope: {x: 0, y: 0, z: 0, w: 0}
        outSlope: {x: 0, y: 0, z: 0, w: 0}
        tangentMode: 0
        weightedMode: 0
        inWeight: {x: 0.33333334, y: 0.33333334, z: 0.33333334, w: 0.33333334}
        outWeight: {x: 0.33333334, y: 0.33333334, z: 0.33333334, w: 0.33333334}
      m_PreInfinity: 2
      m_PostInfinity: 2
      m_RotationOrder: 4
    path: Armature/Main/Chest
  - curve:
      serializedVersion: 2
      m_Curve:
      - serializedVersion: 3
        time: 0
        value: {x: 0.062589765, y: -0.000757001, z: 0.012409101, w: 0.99796194}
        inSlope: {x: 0.27248025, y: -0.0012727794, z: 0.009078473, w: -0.018762589}
        outSlope: {x: 0.27248025, y: -0.0012727794, z: 0.009078473, w: -0.018762589}
        tangentMode: 0
        weightedMode: 0
        inWeight: {x: 0.33333334, y: 0.33333334, z: 0.33333334, w: 0.33333334}
        outWeight: {x: 0.33333334, y: 0.33333334, z: 0.33333334, w: 0.33333334}
      - serializedVersion: 3
        time: 0.083333336
        value: {x: 0.1015066, y: -0.0009385175, z: 0.013700242, w: 0.9947401}
        inSlope: {x: 0.73834777, y: -0.0034352876, z: 0.024324328, w: -0.07812452}
        outSlope: {x: 0.73834777, y: -0.0034352876, z: 0.024324328, w: -0.07812452}
        tangentMode: 0
        weightedMode: 0
        inWeight: {x: 0.33333334, y: 0.33333334, z: 0.33333334, w: 0.33333334}
        outWeight: {x: 0.33333334, y: 0.33333334, z: 0.33333334, w: 0.33333334}
      - serializedVersion: 3
        time: 0.20833334
        value: {x: 0.18587846, y: -0.0013293052, z: 0.016446052, w: 0.9824342}
        inSlope: {x: 0.3606527, y: -0.0016637547, z: 0.011593737, w: -0.066619635}
        outSlope: {x: 0.3606527, y: -0.0016637547, z: 0.011593737, w: -0.066619635}
        tangentMode: 0
        weightedMode: 0
        inWeight: {x: 0.33333334, y: 0.33333334, z: 0.33333334, w: 0.33333334}
        outWeight: {x: 0.33333334, y: 0.33333334, z: 0.33333334, w: 0.33333334}
      - serializedVersion: 3
        time: 0.45833334
        value: {x: 0.20055929, y: -0.0013993024, z: 0.01690452, w: 0.97953475}
        inSlope: {x: 0.00000017881398, y: 0.000004512259, z: 0.000022038823, w: -0.0000007152559}
        outSlope: {x: 0.00000017881398, y: 0.000004512259, z: 0.000022038823, w: -0.0000007152559}
        tangentMode: 0
        weightedMode: 0
        inWeight: {x: 0.33333334, y: 0.33333334, z: 0.33333334, w: 0.33333334}
        outWeight: {x: 0.33333334, y: 0.33333334, z: 0.33333334, w: 0.33333334}
      - serializedVersion: 3
        time: 0.9583334
        value: {x: 0.20055932, y: -0.0013970471, z: 0.016915528, w: 0.9795345}
        inSlope: {x: -0.0000003576277, y: 0.0000045094616, z: 0.0000219494, w: -0.0000014305108}
        outSlope: {x: -0.0000003576277, y: 0.0000045094616, z: 0.0000219494, w: -0.0000014305108}
        tangentMode: 0
        weightedMode: 0
        inWeight: {x: 0.33333334, y: 0.33333334, z: 0.33333334, w: 0.33333334}
        outWeight: {x: 0.33333334, y: 0.33333334, z: 0.33333334, w: 0.33333334}
      m_PreInfinity: 2
      m_PostInfinity: 2
      m_RotationOrder: 4
    path: Armature/Main/Chest/Head
  - curve:
      serializedVersion: 2
      m_Curve:
      - serializedVersion: 3
        time: 0
        value: {x: 0.05239806, y: -0.0007808848, z: -0.023351256, w: 0.99835294}
        inSlope: {x: -0.84621054, y: -0.008566954, z: -0.028030425, w: 0.028773308}
        outSlope: {x: -0.84621054, y: -0.008566954, z: -0.028030425, w: 0.028773308}
        tangentMode: 0
        weightedMode: 0
        inWeight: {x: 0.33333334, y: 0.33333334, z: 0.33333334, w: 0.33333334}
        outWeight: {x: 0.33333334, y: 0.33333334, z: 0.33333334, w: 0.33333334}
      - serializedVersion: 3
        time: 0.041666668
        value: {x: 0.017139286, y: -0.0011378413, z: -0.02451919, w: 0.99955183}
        inSlope: {x: -1.3608816, y: -0.013707466, z: -0.04374209, w: -0.00699234}
        outSlope: {x: -1.3608816, y: -0.013707466, z: -0.04374209, w: -0.00699234}
        tangentMode: 0
        weightedMode: 0
        inWeight: {x: 0.33333334, y: 0.33333334, z: 0.33333334, w: 0.33333334}
        outWeight: {x: 0.33333334, y: 0.33333334, z: 0.33333334, w: 0.33333334}
      - serializedVersion: 3
        time: 0.083333336
        value: {x: -0.06100874, y: -0.0019231738, z: -0.02699643, w: 0.99777025}
        inSlope: {x: -1.8710742, y: -0.018706826, z: -0.057472497, w: -0.11599804}
        outSlope: {x: -1.8710742, y: -0.018706826, z: -0.057472497, w: -0.11599804}
        tangentMode: 0
        weightedMode: 0
        inWeight: {x: 0.33333334, y: 0.33333334, z: 0.33333334, w: 0.33333334}
        outWeight: {x: 0.33333334, y: 0.33333334, z: 0.33333334, w: 0.33333334}
      - serializedVersion: 3
        time: 0.125
        value: {x: -0.13878356, y: -0.0026967435, z: -0.029308565, w: 0.98988533}
        inSlope: {x: -1.3514559, y: -0.013410309, z: -0.03957112, w: -0.16115999}
        outSlope: {x: -1.3514559, y: -0.013410309, z: -0.03957112, w: -0.16115999}
        tangentMode: 0
        weightedMode: 0
        inWeight: {x: 0.33333334, y: 0.33333334, z: 0.33333334, w: 0.33333334}
        outWeight: {x: 0.33333334, y: 0.33333334, z: 0.33333334, w: 0.33333334}
      - serializedVersion: 3
        time: 0.25
        value: {x: -0.17363003, y: -0.0030406998, z: -0.03029402, w: 0.98434025}
        inSlope: {x: 0.00000035762795, y: -0.0000000027939722, z: 0.000000022351747,
          w: 0}
        outSlope: {x: 0.00000035762795, y: -0.0000000027939722, z: 0.000000022351747,
          w: 0}
        tangentMode: 0
        weightedMode: 0
        inWeight: {x: 0.33333334, y: 0.33333334, z: 0.33333334, w: 0.33333334}
        outWeight: {x: 0.33333334, y: 0.33333334, z: 0.33333334, w: 0.33333334}
      - serializedVersion: 3
        time: 0.9583334
        value: {x: -0.17362997, y: -0.003040699, z: -0.030294003, w: 0.98434025}
        inSlope: {x: 0, y: 0.000000011175866, z: 0, w: 0}
        outSlope: {x: 0, y: 0.000000011175866, z: 0, w: 0}
        tangentMode: 0
        weightedMode: 0
        inWeight: {x: 0.33333334, y: 0.33333334, z: 0.33333334, w: 0.33333334}
        outWeight: {x: 0.33333334, y: 0.33333334, z: 0.33333334, w: 0.33333334}
      m_PreInfinity: 2
      m_PostInfinity: 2
      m_RotationOrder: 4
    path: Armature/Main/Chest/Head/Headflame
  - curve:
      serializedVersion: 2
      m_Curve:
      - serializedVersion: 3
        time: 0
        value: {x: 0.12529212, y: 0.36978456, z: 0.91303885, w: 0.11798882}
        inSlope: {x: 0.41312063, y: 1.909441, z: -0.8795171, w: -0.4657926}
        outSlope: {x: 0.41312063, y: 1.909441, z: -0.8795171, w: -0.4657926}
        tangentMode: 0
        weightedMode: 0
        inWeight: {x: 0.33333334, y: 0.33333334, z: 0.33333334, w: 0.33333334}
        outWeight: {x: 0.33333334, y: 0.33333334, z: 0.33333334, w: 0.33333334}
      - serializedVersion: 3
        time: 0.041666668
        value: {x: 0.14250548, y: 0.4493446, z: 0.8763923, w: 0.09858079}
        inSlope: {x: 0.66384137, y: 2.9501033, z: -1.768203, w: -0.8654088}
        outSlope: {x: 0.66384137, y: 2.9501033, z: -1.768203, w: -0.8654088}
        tangentMode: 0
        weightedMode: 0
        inWeight: {x: 0.33333334, y: 0.33333334, z: 0.33333334, w: 0.33333334}
        outWeight: {x: 0.33333334, y: 0.33333334, z: 0.33333334, w: 0.33333334}
      - serializedVersion: 3
        time: 0.083333336
        value: {x: 0.18061224, y: 0.6156265, z: 0.7656886, w: 0.045871418}
        inSlope: {x: 0.920051, y: 3.6564522, z: -3.0917454, w: -1.4577247}
        outSlope: {x: 0.920051, y: 3.6564522, z: -3.0917454, w: -1.4577247}
        tangentMode: 0
        weightedMode: 0
        inWeight: {x: 0.33333334, y: 0.33333334, z: 0.33333334, w: 0.33333334}
        outWeight: {x: 0.33333334, y: 0.33333334, z: 0.33333334, w: 0.33333334}
      - serializedVersion: 3
        time: 0.125
        value: {x: 0.2191764, y: 0.75404894, z: 0.6187469, w: -0.022896264}
        inSlope: {x: 0.87132025, y: 2.272582, z: -2.8385274, w: -1.6134007}
        outSlope: {x: 0.87132025, y: 2.272582, z: -2.8385274, w: -1.6134007}
        tangentMode: 0
        weightedMode: 0
        inWeight: {x: 0.33333334, y: 0.33333334, z: 0.33333334, w: 0.33333334}
        outWeight: {x: 0.33333334, y: 0.33333334, z: 0.33333334, w: 0.33333334}
      - serializedVersion: 3
        time: 0.16666667
        value: {x: 0.25322226, y: 0.80500835, z: 0.52914464, w: -0.08857864}
        inSlope: {x: 0.9158904, y: 0.539046, z: -1.38949, w: -1.4791512}
        outSlope: {x: 0.9158904, y: 0.539046, z: -1.38949, w: -1.4791512}
        tangentMode: 0
        weightedMode: 0
        inWeight: {x: 0.33333334, y: 0.33333334, z: 0.33333334, w: 0.33333334}
        outWeight: {x: 0.33333334, y: 0.33333334, z: 0.33333334, w: 0.33333334}
      - serializedVersion: 3
        time: 0.20833334
        value: {x: 0.2955006, y: 0.79896945, z: 0.50295603, w: -0.14615887}
        inSlope: {x: 1.0652845, y: -0.27161267, z: -0.5365355, w: -1.2219156}
        outSlope: {x: 1.0652845, y: -0.27161267, z: -0.5365355, w: -1.2219156}
        tangentMode: 0
        weightedMode: 0
        inWeight: {x: 0.33333334, y: 0.33333334, z: 0.33333334, w: 0.33333334}
        outWeight: {x: 0.33333334, y: 0.33333334, z: 0.33333334, w: 0.33333334}
      - serializedVersion: 3
        time: 0.2916667
        value: {x: 0.37830603, y: 0.76501185, z: 0.47356704, w: -0.21765949}
        inSlope: {x: 0.60949105, y: -0.30277196, z: -0.17204328, w: -0.43737966}
        outSlope: {x: 0.60949105, y: -0.30277196, z: -0.17204328, w: -0.43737966}
        tangentMode: 0
        weightedMode: 0
        inWeight: {x: 0.33333334, y: 0.33333334, z: 0.33333334, w: 0.33333334}
        outWeight: {x: 0.33333334, y: 0.33333334, z: 0.33333334, w: 0.33333334}
      - serializedVersion: 3
        time: 0.4166667
        value: {x: 0.39278692, y: 0.7571429, z: 0.4700964, w: -0.22685328}
        inSlope: {x: 0.0000003576277, y: -0.0000007152554, z: 0, w: -0.0000003576277}
        outSlope: {x: 0.0000003576277, y: -0.0000007152554, z: 0, w: -0.0000003576277}
        tangentMode: 0
        weightedMode: 0
        inWeight: {x: 0.33333334, y: 0.33333334, z: 0.33333334, w: 0.33333334}
        outWeight: {x: 0.33333334, y: 0.33333334, z: 0.33333334, w: 0.33333334}
      - serializedVersion: 3
        time: 0.9583334
        value: {x: 0.39278707, y: 0.7571428, z: 0.47009656, w: -0.22685324}
        inSlope: {x: 0, y: 0, z: 0, w: 0}
        outSlope: {x: 0, y: 0, z: 0, w: 0}
        tangentMode: 0
        weightedMode: 0
        inWeight: {x: 0.33333334, y: 0.33333334, z: 0.33333334, w: 0.33333334}
        outWeight: {x: 0.33333334, y: 0.33333334, z: 0.33333334, w: 0.33333334}
      m_PreInfinity: 2
      m_PostInfinity: 2
      m_RotationOrder: 4
    path: Armature/Main/Chest/Arm.L
  - curve:
      serializedVersion: 2
      m_Curve:
      - serializedVersion: 3
        time: 0
        value: {x: -0.01932676, y: 0.28898868, z: 0.95514685, w: -0.061697043}
        inSlope: {x: -0.56784075, y: 2.4732556, z: -0.8689227, w: 1.4457997}
        outSlope: {x: -0.56784075, y: 2.4732556, z: -0.8689227, w: 1.4457997}
        tangentMode: 0
        weightedMode: 0
        inWeight: {x: 0.33333334, y: 0.33333334, z: 0.33333334, w: 0.33333334}
        outWeight: {x: 0.33333334, y: 0.33333334, z: 0.33333334, w: 0.33333334}
      - serializedVersion: 3
        time: 0.041666668
        value: {x: -0.04298679, y: 0.392041, z: 0.91894174, w: -0.001455387}
        inSlope: {x: -0.9643328, y: 3.9353223, z: -2.2676826, w: 2.5377793}
        outSlope: {x: -0.9643328, y: 3.9353223, z: -2.2676826, w: 2.5377793}
        tangentMode: 0
        weightedMode: 0
        inWeight: {x: 0.33333334, y: 0.33333334, z: 0.33333334, w: 0.33333334}
        outWeight: {x: 0.33333334, y: 0.33333334, z: 0.33333334, w: 0.33333334}
      - serializedVersion: 3
        time: 0.083333336
        value: {x: -0.09968783, y: 0.6169322, z: 0.7661733, w: 0.14978458}
        inSlope: {x: -1.2915721, y: 4.643063, z: -4.6390142, w: 3.5595355}
        outSlope: {x: -1.2915721, y: 4.643063, z: -4.6390142, w: 3.5595355}
        tangentMode: 0
        weightedMode: 0
        inWeight: {x: 0.33333334, y: 0.33333334, z: 0.33333334, w: 0.33333334}
        outWeight: {x: 0.33333334, y: 0.33333334, z: 0.33333334, w: 0.33333334}
      - serializedVersion: 3
        time: 0.125
        value: {x: -0.1506178, y: 0.7789629, z: 0.5323572, w: 0.29517257}
        inSlope: {x: -0.90901566, y: 2.3888476, z: -4.231965, w: 2.5685143}
        outSlope: {x: -0.90901566, y: 2.3888476, z: -4.231965, w: 2.5685143}
        tangentMode: 0
        weightedMode: 0
        inWeight: {x: 0.33333334, y: 0.33333334, z: 0.33333334, w: 0.33333334}
        outWeight: {x: 0.33333334, y: 0.33333334, z: 0.33333334, w: 0.33333334}
      - serializedVersion: 3
        time: 0.16666667
        value: {x: -0.17543913, y: 0.81600285, z: 0.41350958, w: 0.36382744}
        inSlope: {x: -0.4543572, y: 0.3283016, z: -1.5171521, w: 1.098431}
        outSlope: {x: -0.4543572, y: 0.3283016, z: -1.5171521, w: 1.098431}
        tangentMode: 0
        weightedMode: 0
        inWeight: {x: 0.33333334, y: 0.33333334, z: 0.33333334, w: 0.33333334}
        outWeight: {x: 0.33333334, y: 0.33333334, z: 0.33333334, w: 0.33333334}
      - serializedVersion: 3
        time: 0.20833334
        value: {x: -0.1884809, y: 0.8063214, z: 0.40592787, w: 0.3867085}
        inSlope: {x: -0.28148854, y: -0.20673323, z: -0.10717893, w: 0.41475928}
        outSlope: {x: -0.28148854, y: -0.20673323, z: -0.10717893, w: 0.41475928}
        tangentMode: 0
        weightedMode: 0
        inWeight: {x: 0.33333334, y: 0.33333334, z: 0.33333334, w: 0.33333334}
        outWeight: {x: 0.33333334, y: 0.33333334, z: 0.33333334, w: 0.33333334}
      - serializedVersion: 3
        time: 0.375
        value: {x: -0.20692897, y: 0.7930313, z: 0.4060283, w: 0.40425587}
        inSlope: {x: -0.0026459096, y: -0.0013225077, z: 0.0025835035, w: -0.0013546941}
        outSlope: {x: -0.0026459096, y: -0.0013225077, z: 0.0025835035, w: -0.0013546941}
        tangentMode: 0
        weightedMode: 0
        inWeight: {x: 0.33333334, y: 0.33333334, z: 0.33333334, w: 0.33333334}
        outWeight: {x: 0.33333334, y: 0.33333334, z: 0.33333334, w: 0.33333334}
      - serializedVersion: 3
        time: 0.9583334
        value: {x: -0.2084711, y: 0.7922579, z: 0.40753418, w: 0.40346384}
        inSlope: {x: -0.0026410806, y: -0.0013289446, z: 0.0025784958, w: -0.0013604157}
        outSlope: {x: -0.0026410806, y: -0.0013289446, z: 0.0025784958, w: -0.0013604157}
        tangentMode: 0
        weightedMode: 0
        inWeight: {x: 0.33333334, y: 0.33333334, z: 0.33333334, w: 0.33333334}
        outWeight: {x: 0.33333334, y: 0.33333334, z: 0.33333334, w: 0.33333334}
      m_PreInfinity: 2
      m_PostInfinity: 2
      m_RotationOrder: 4
    path: Armature/Main/Chest/Arm.R
  - curve:
      serializedVersion: 2
      m_Curve:
      - serializedVersion: 3
        time: 0
        value: {x: 0.07153597, y: 0.00016910551, z: 0.0030453335, w: 0.99743336}
        inSlope: {x: 0, y: 0, z: 0, w: 0}
        outSlope: {x: 0, y: 0, z: 0, w: 0}
        tangentMode: 0
        weightedMode: 0
        inWeight: {x: 0.33333334, y: 0.33333334, z: 0.33333334, w: 0.33333334}
        outWeight: {x: 0.33333334, y: 0.33333334, z: 0.33333334, w: 0.33333334}
      - serializedVersion: 3
        time: 0.9583334
        value: {x: 0.07153597, y: 0.00016910551, z: 0.0030453335, w: 0.99743336}
        inSlope: {x: 0, y: 0, z: 0, w: 0}
        outSlope: {x: 0, y: 0, z: 0, w: 0}
        tangentMode: 0
        weightedMode: 0
        inWeight: {x: 0.33333334, y: 0.33333334, z: 0.33333334, w: 0.33333334}
        outWeight: {x: 0.33333334, y: 0.33333334, z: 0.33333334, w: 0.33333334}
      m_PreInfinity: 2
      m_PostInfinity: 2
      m_RotationOrder: 4
    path: Armature/Main/Chest/Chestflame
  - curve:
      serializedVersion: 2
      m_Curve:
      - serializedVersion: 3
        time: 0
        value: {x: 0.0072793174, y: 0.00001027442, z: -0.002070074, w: 0.9999714}
        inSlope: {x: -0.09063247, y: -0.0007180086, z: -0.003092626, w: 0.00048208237}
        outSlope: {x: -0.09063247, y: -0.0007180086, z: -0.003092626, w: 0.00048208237}
        tangentMode: 0
        weightedMode: 0
        inWeight: {x: 0.33333334, y: 0.33333334, z: 0.33333334, w: 0.33333334}
        outWeight: {x: 0.33333334, y: 0.33333334, z: 0.33333334, w: 0.33333334}
      - serializedVersion: 3
        time: 0.25
        value: {x: -0.033204637, y: -0.00031028184, z: -0.0034671838, w: 0.9994425}
        inSlope: {x: -0.044826016, y: -0.00035522226, z: -0.0015094522, w: -0.0014555454}
        outSlope: {x: -0.044826016, y: -0.00035522226, z: -0.0015094522, w: -0.0014555454}
        tangentMode: 0
        weightedMode: 0
        inWeight: {x: 0.33333334, y: 0.33333334, z: 0.33333334, w: 0.33333334}
        outWeight: {x: 0.33333334, y: 0.33333334, z: 0.33333334, w: 0.33333334}
      - serializedVersion: 3
        time: 0.9583334
        value: {x: -0.03435549, y: -0.00031942167, z: -0.0035032348, w: 0.9994035}
        inSlope: {x: 0, y: 0.00000018440178, z: -0.000005314124, w: 0}
        outSlope: {x: 0, y: 0.00000018440178, z: -0.000005314124, w: 0}
        tangentMode: 0
        weightedMode: 0
        inWeight: {x: 0.33333334, y: 0.33333334, z: 0.33333334, w: 0.33333334}
        outWeight: {x: 0.33333334, y: 0.33333334, z: 0.33333334, w: 0.33333334}
      m_PreInfinity: 2
      m_PostInfinity: 2
      m_RotationOrder: 4
    path: Armature/Main/Chest/Shoulder.L
  - curve:
      serializedVersion: 2
      m_Curve:
      - serializedVersion: 3
        time: 0
        value: {x: 0.041631717, y: 0.0019107949, z: 0.020776263, w: 0.9989152}
        inSlope: {x: -0.2049847, y: -0.006298084, z: -0.05144562, w: 0.008690357}
        outSlope: {x: -0.2049847, y: -0.006298084, z: -0.05144562, w: 0.008690357}
        tangentMode: 0
        weightedMode: 0
        inWeight: {x: 0.33333334, y: 0.33333334, z: 0.33333334, w: 0.33333334}
        outWeight: {x: 0.33333334, y: 0.33333334, z: 0.33333334, w: 0.33333334}
      - serializedVersion: 3
        time: 0.16666667
        value: {x: -0.013075307, y: 0.00022910755, z: 0.007032146, w: 0.9998898}
        inSlope: {x: -0.10256441, y: -0.0031543975, z: -0.025793599, w: -0.0006923675}
        outSlope: {x: -0.10256441, y: -0.0031543975, z: -0.025793599, w: -0.0006923675}
        tangentMode: 0
        weightedMode: 0
        inWeight: {x: 0.33333334, y: 0.33333334, z: 0.33333334, w: 0.33333334}
        outWeight: {x: 0.33333334, y: 0.33333334, z: 0.33333334, w: 0.33333334}
      - serializedVersion: 3
        time: 0.4166667
        value: {x: -0.01307531, y: 0.00022910754, z: 0.007032149, w: 0.9998898}
        inSlope: {x: -0.000000011175866, y: -3.492459e-10, z: 0.000000011175869, w: 0}
        outSlope: {x: -0.000000011175866, y: -3.492459e-10, z: 0.000000011175869,
          w: 0}
        tangentMode: 0
        weightedMode: 0
        inWeight: {x: 0.33333334, y: 0.33333334, z: 0.33333334, w: 0.33333334}
        outWeight: {x: 0.33333334, y: 0.33333334, z: 0.33333334, w: 0.33333334}
      - serializedVersion: 3
        time: 0.9583334
        value: {x: -0.013075316, y: 0.00022910745, z: 0.007032154, w: 0.9998898}
        inSlope: {x: 0, y: -3.492458e-10, z: 0.000000011175866, w: 0}
        outSlope: {x: 0, y: -3.492458e-10, z: 0.000000011175866, w: 0}
        tangentMode: 0
        weightedMode: 0
        inWeight: {x: 0.33333334, y: 0.33333334, z: 0.33333334, w: 0.33333334}
        outWeight: {x: 0.33333334, y: 0.33333334, z: 0.33333334, w: 0.33333334}
      m_PreInfinity: 2
      m_PostInfinity: 2
      m_RotationOrder: 4
    path: Armature/Main/Chest/Shoulder.R
  - curve:
      serializedVersion: 2
      m_Curve:
      - serializedVersion: 3
        time: 0
        value: {x: 0.7714163, y: 0.030229142, z: -0.6327819, w: -0.05991891}
        inSlope: {x: 0, y: 0, z: 0, w: 0}
        outSlope: {x: 0, y: 0, z: 0, w: 0}
        tangentMode: 0
        weightedMode: 0
        inWeight: {x: 0.33333334, y: 0.33333334, z: 0.33333334, w: 0.33333334}
        outWeight: {x: 0.33333334, y: 0.33333334, z: 0.33333334, w: 0.33333334}
      - serializedVersion: 3
        time: 0.9583334
        value: {x: 0.7714163, y: 0.030229142, z: -0.6327819, w: -0.05991891}
        inSlope: {x: 0, y: 0, z: 0, w: 0}
        outSlope: {x: 0, y: 0, z: 0, w: 0}
        tangentMode: 0
        weightedMode: 0
        inWeight: {x: 0.33333334, y: 0.33333334, z: 0.33333334, w: 0.33333334}
        outWeight: {x: 0.33333334, y: 0.33333334, z: 0.33333334, w: 0.33333334}
      m_PreInfinity: 2
      m_PostInfinity: 2
      m_RotationOrder: 4
    path: Armature/Main/LowerBody
  - curve:
      serializedVersion: 2
      m_Curve:
      - serializedVersion: 3
        time: 0
        value: {x: -0.022543728, y: -0.0031348958, z: -0.22568387, w: 0.9739347}
        inSlope: {x: 0, y: 0, z: 0, w: 0}
        outSlope: {x: 0, y: 0, z: 0, w: 0}
        tangentMode: 0
        weightedMode: 0
        inWeight: {x: 0.33333334, y: 0.33333334, z: 0.33333334, w: 0.33333334}
        outWeight: {x: 0.33333334, y: 0.33333334, z: 0.33333334, w: 0.33333334}
      - serializedVersion: 3
        time: 0.9583334
        value: {x: -0.022543728, y: -0.0031348958, z: -0.22568387, w: 0.9739347}
        inSlope: {x: 0, y: 0, z: 0, w: 0}
        outSlope: {x: 0, y: 0, z: 0, w: 0}
        tangentMode: 0
        weightedMode: 0
        inWeight: {x: 0.33333334, y: 0.33333334, z: 0.33333334, w: 0.33333334}
        outWeight: {x: 0.33333334, y: 0.33333334, z: 0.33333334, w: 0.33333334}
      m_PreInfinity: 2
      m_PostInfinity: 2
      m_RotationOrder: 4
    path: Armature/Main/LowerBody/Tail
  m_CompressedRotationCurves: []
  m_EulerCurves: []
  m_PositionCurves:
  - curve:
      serializedVersion: 2
      m_Curve:
      - serializedVersion: 3
        time: 0
        value: {x: -0.01637976, y: 4.7009907, z: 0.0000006316197}
        inSlope: {x: 0, y: 0, z: 0}
        outSlope: {x: 0, y: 0, z: 0}
        tangentMode: 0
        weightedMode: 0
        inWeight: {x: 0.33333334, y: 0.33333334, z: 0.33333334}
        outWeight: {x: 0.33333334, y: 0.33333334, z: 0.33333334}
      - serializedVersion: 3
        time: 0.9583333
        value: {x: -0.01637976, y: 4.7009907, z: 0.0000006316197}
        inSlope: {x: 0, y: 0, z: 0}
        outSlope: {x: 0, y: 0, z: 0}
        tangentMode: 0
        weightedMode: 0
        inWeight: {x: 0.33333334, y: 0.33333334, z: 0.33333334}
        outWeight: {x: 0.33333334, y: 0.33333334, z: 0.33333334}
      m_PreInfinity: 2
      m_PostInfinity: 2
      m_RotationOrder: 4
    path: Armature
  - curve:
      serializedVersion: 2
      m_Curve:
      - serializedVersion: 3
        time: 0
        value: {x: 3.7224087e-20, y: -0.0023469927, z: 0.003535267}
        inSlope: {x: -1.0025551e-12, y: 0.0017139172, z: 0.011426117}
        outSlope: {x: -1.0025551e-12, y: 0.0017139172, z: 0.011426117}
        tangentMode: 0
        weightedMode: 0
        inWeight: {x: 0.33333334, y: 0.33333334, z: 0.33333334}
        outWeight: {x: 0.33333334, y: 0.33333334, z: 0.33333334}
      - serializedVersion: 3
        time: 0.041666668
        value: {x: -4.1773093e-14, y: -0.0022755796, z: 0.0040113553}
        inSlope: {x: -1.0025551e-12, y: 0.0017139172, z: 0.011426117}
        outSlope: {x: -1.0025551e-12, y: 0.0037706208, z: 0.02513747}
        tangentMode: 0
        weightedMode: 0
        inWeight: {x: 0.33333334, y: 0.33333334, z: 0.33333334}
        outWeight: {x: 0.33333334, y: 0.33333334, z: 0.33333334}
      - serializedVersion: 3
        time: 0.125
        value: {x: -1.2531935e-13, y: -0.0019613614, z: 0.0061061443}
        inSlope: {x: -1.0025551e-12, y: 0.0037706175, z: 0.025137464}
        outSlope: {x: -1.0025549e-12, y: 0.0017139135, z: 0.011426123}
        tangentMode: 0
        weightedMode: 0
        inWeight: {x: 0.33333334, y: 0.33333334, z: 0.33333334}
        outWeight: {x: 0.33333334, y: 0.33333334, z: 0.33333334}
      - serializedVersion: 3
        time: 0.16666667
        value: {x: -1.6709248e-13, y: -0.0018899482, z: 0.0065822327}
        inSlope: {x: -1.0025549e-12, y: 0.0017139135, z: 0.011426123}
        outSlope: {x: -1.0025554e-12, y: 0.018853106, z: -0.021138329}
        tangentMode: 0
        weightedMode: 0
        inWeight: {x: 0.33333334, y: 0.33333334, z: 0.33333334}
        outWeight: {x: 0.33333334, y: 0.33333334, z: 0.33333334}
      - serializedVersion: 3
        time: 0.20833333
        value: {x: -2.0886561e-13, y: -0.0011044024, z: 0.0057014693}
        inSlope: {x: -1.0025554e-12, y: 0.018853106, z: -0.021138329}
        outSlope: {x: -1.0025549e-12, y: 0.04147682, z: -0.04650432}
        tangentMode: 0
        weightedMode: 0
        inWeight: {x: 0.33333334, y: 0.33333334, z: 0.33333334}
        outWeight: {x: 0.33333334, y: 0.33333334, z: 0.33333334}
      - serializedVersion: 3
        time: 0.29166666
        value: {x: -2.9241185e-13, y: 0.0023519997, z: 0.0018261088}
        inSlope: {x: -1.0025549e-12, y: 0.04147683, z: -0.046504334}
        outSlope: {x: -1.002555e-12, y: 0.018853076, z: -0.021138318}
        tangentMode: 0
        weightedMode: 0
        inWeight: {x: 0.33333334, y: 0.33333334, z: 0.33333334}
        outWeight: {x: 0.33333334, y: 0.33333334, z: 0.33333334}
      - serializedVersion: 3
        time: 0.33333334
        value: {x: -3.34185e-13, y: 0.003137545, z: 0.00094534515}
        inSlope: {x: -1.002555e-12, y: 0.018853076, z: -0.021138318}
        outSlope: {x: -0.00013975422, y: -0, z: 0.0012577882}
        tangentMode: 0
        weightedMode: 0
        inWeight: {x: 0.33333334, y: 0.33333334, z: 0.33333334}
        outWeight: {x: 0.33333334, y: 0.33333334, z: 0.33333334}
      - serializedVersion: 3
        time: 0.375
        value: {x: -0.000005823092, y: 0.003137545, z: 0.000997753}
        inSlope: {x: -0.00013975422, y: -0, z: 0.0012577882}
        outSlope: {x: -0.0003932619, y: -0, z: 0.0035393508}
        tangentMode: 0
        weightedMode: 0
        inWeight: {x: 0.33333334, y: 0.33333334, z: 0.33333334}
        outWeight: {x: 0.33333334, y: 0.33333334, z: 0.33333334}
      - serializedVersion: 3
        time: 0.41666666
        value: {x: -0.000022209, y: 0.003137545, z: 0.0011452258}
        inSlope: {x: -0.0003932619, y: -0, z: 0.0035393508}
        outSlope: {x: -0.0006077679, y: -0, z: 0.005469905}
        tangentMode: 0
        weightedMode: 0
        inWeight: {x: 0.33333334, y: 0.33333334, z: 0.33333334}
        outWeight: {x: 0.33333334, y: 0.33333334, z: 0.33333334}
      - serializedVersion: 3
        time: 0.45833334
        value: {x: -0.000047532674, y: 0.003137545, z: 0.0013731387}
        inSlope: {x: -0.0006077679, y: -0, z: 0.005469905}
        outSlope: {x: -0.00078327366, y: -0.000000007152559, z: 0.007049473}
        tangentMode: 0
        weightedMode: 0
        inWeight: {x: 0.33333334, y: 0.33333334, z: 0.33333334}
        outWeight: {x: 0.33333334, y: 0.33333334, z: 0.33333334}
      - serializedVersion: 3
        time: 0.5
        value: {x: -0.00008016906, y: 0.0031375447, z: 0.0016668667}
        inSlope: {x: -0.00078327366, y: -0.000000007152559, z: 0.007049473}
        outSlope: {x: -0.00091977685, y: -0, z: 0.008277986}
        tangentMode: 0
        weightedMode: 0
        inWeight: {x: 0.33333334, y: 0.33333334, z: 0.33333334}
        outWeight: {x: 0.33333334, y: 0.33333334, z: 0.33333334}
      - serializedVersion: 3
        time: 0.5416667
        value: {x: -0.00011849312, y: 0.0031375447, z: 0.002011783}
        inSlope: {x: -0.00091977685, y: -0, z: 0.008277986}
        outSlope: {x: -0.0010172814, y: -0, z: 0.00915554}
        tangentMode: 0
        weightedMode: 0
        inWeight: {x: 0.33333334, y: 0.33333334, z: 0.33333334}
        outWeight: {x: 0.33333334, y: 0.33333334, z: 0.33333334}
      - serializedVersion: 3
        time: 0.6666667
        value: {x: -0.00025134085, y: 0.0031375447, z: 0.003207412}
        inSlope: {x: -0.0010952831, y: -0, z: 0.009857535}
        outSlope: {x: -0.0010757819, y: -0, z: 0.00968204}
        tangentMode: 0
        weightedMode: 0
        inWeight: {x: 0.33333334, y: 0.33333334, z: 0.33333334}
        outWeight: {x: 0.33333334, y: 0.33333334, z: 0.33333334}
      - serializedVersion: 3
        time: 0.7916667
        value: {x: -0.00037687583, y: 0.0031375447, z: 0.0043372265}
        inSlope: {x: -0.00091977726, y: -0, z: 0.008277986}
        outSlope: {x: -0.0007832737, y: -0.000000007152564, z: 0.007049481}
        tangentMode: 0
        weightedMode: 0
        inWeight: {x: 0.33333334, y: 0.33333334, z: 0.33333334}
        outWeight: {x: 0.33333334, y: 0.33333334, z: 0.33333334}
      - serializedVersion: 3
        time: 0.875
        value: {x: -0.00043483585, y: 0.0031375443, z: 0.004858867}
        inSlope: {x: -0.0006077668, y: -0, z: 0.005469887}
        outSlope: {x: -0.00039326173, y: -0, z: 0.0035393552}
        tangentMode: 0
        weightedMode: 0
        inWeight: {x: 0.33333334, y: 0.33333334, z: 0.33333334}
        outWeight: {x: 0.33333334, y: 0.33333334, z: 0.33333334}
      - serializedVersion: 3
        time: 0.9166667
        value: {x: -0.00045122174, y: 0.0031375443, z: 0.00500634}
        inSlope: {x: -0.00039326173, y: -0, z: 0.0035393552}
        outSlope: {x: -0.00013975483, y: -0, z: 0.0012577927}
        tangentMode: 0
        weightedMode: 0
        inWeight: {x: 0.33333334, y: 0.33333334, z: 0.33333334}
        outWeight: {x: 0.33333334, y: 0.33333334, z: 0.33333334}
      - serializedVersion: 3
        time: 0.9583333
        value: {x: -0.00045704487, y: 0.0031375443, z: 0.005058748}
        inSlope: {x: -0.00013975483, y: -0, z: 0.0012577927}
        outSlope: {x: -0.00013975483, y: -0, z: 0.0012577927}
        tangentMode: 0
        weightedMode: 0
        inWeight: {x: 0.33333334, y: 0.33333334, z: 0.33333334}
        outWeight: {x: 0.33333334, y: 0.33333334, z: 0.33333334}
      m_PreInfinity: 2
      m_PostInfinity: 2
      m_RotationOrder: 4
    path: Armature/Main
  - curve:
      serializedVersion: 2
      m_Curve:
      - serializedVersion: 3
        time: 0
        value: {x: 7.754818e-27, y: 0.009842631, z: 0}
        inSlope: {x: 0, y: 0, z: 0}
        outSlope: {x: 0, y: 0, z: 0}
        tangentMode: 0
        weightedMode: 0
        inWeight: {x: 0.33333334, y: 0.33333334, z: 0.33333334}
        outWeight: {x: 0.33333334, y: 0.33333334, z: 0.33333334}
      - serializedVersion: 3
        time: 0.9583333
        value: {x: 7.754818e-27, y: 0.009842631, z: 0}
        inSlope: {x: 0, y: 0, z: 0}
        outSlope: {x: 0, y: 0, z: 0}
        tangentMode: 0
        weightedMode: 0
        inWeight: {x: 0.33333334, y: 0.33333334, z: 0.33333334}
        outWeight: {x: 0.33333334, y: 0.33333334, z: 0.33333334}
      m_PreInfinity: 2
      m_PostInfinity: 2
      m_RotationOrder: 4
    path: Armature/Main/Chest
  - curve:
      serializedVersion: 2
      m_Curve:
      - serializedVersion: 3
        time: 0
        value: {x: 1.3096723e-11, y: 0.016491476, z: -1.10594554e-11}
        inSlope: {x: 0, y: 0, z: 0}
        outSlope: {x: 0, y: 0, z: 0}
        tangentMode: 0
        weightedMode: 0
        inWeight: {x: 0.33333334, y: 0.33333334, z: 0.33333334}
        outWeight: {x: 0.33333334, y: 0.33333334, z: 0.33333334}
      - serializedVersion: 3
        time: 0.9583333
        value: {x: 1.3096723e-11, y: 0.016491476, z: -1.10594554e-11}
        inSlope: {x: 0, y: 0, z: 0}
        outSlope: {x: 0, y: 0, z: 0}
        tangentMode: 0
        weightedMode: 0
        inWeight: {x: 0.33333334, y: 0.33333334, z: 0.33333334}
        outWeight: {x: 0.33333334, y: 0.33333334, z: 0.33333334}
      m_PreInfinity: 2
      m_PostInfinity: 2
      m_RotationOrder: 4
    path: Armature/Main/Chest/Head
  - curve:
      serializedVersion: 2
      m_Curve:
      - serializedVersion: 3
        time: 0
        value: {x: 0.0006604897, y: 0.021556688, z: -0.002944935}
        inSlope: {x: 0.00012295246, y: 0.002609768, z: -0.0024960493}
        outSlope: {x: 0.00012295246, y: 0.002609768, z: -0.0024960493}
        tangentMode: 0
        weightedMode: 0
        inWeight: {x: 0.33333334, y: 0.33333334, z: 0.33333334}
        outWeight: {x: 0.33333334, y: 0.33333334, z: 0.33333334}
      - serializedVersion: 3
        time: 0.041666668
        value: {x: 0.00066561275, y: 0.02166543, z: -0.0030489373}
        inSlope: {x: 0.00012295246, y: 0.002609768, z: -0.0024960493}
        outSlope: {x: 0.00027049362, y: 0.0057412717, z: -0.0054911757}
        tangentMode: 0
        weightedMode: 0
        inWeight: {x: 0.33333334, y: 0.33333334, z: 0.33333334}
        outWeight: {x: 0.33333334, y: 0.33333334, z: 0.33333334}
      - serializedVersion: 3
        time: 0.125
        value: {x: 0.0006881541, y: 0.022143876, z: -0.003506538}
        inSlope: {x: 0.000270499, y: 0.005741444, z: -0.0054912404}
        outSlope: {x: 0.00012295422, y: 0.002609596, z: -0.0024959918}
        tangentMode: 0
        weightedMode: 0
        inWeight: {x: 0.33333334, y: 0.33333334, z: 0.33333334}
        outWeight: {x: 0.33333334, y: 0.33333334, z: 0.33333334}
      - serializedVersion: 3
        time: 0.16666667
        value: {x: 0.00069327716, y: 0.02225261, z: -0.0036105376}
        inSlope: {x: 0.00012295422, y: 0.002609596, z: -0.0024959918}
        outSlope: {x: -0.0000000017881392, y: 0.00013984679, z: -0.000025534628}
        tangentMode: 0
        weightedMode: 0
        inWeight: {x: 0.33333334, y: 0.33333334, z: 0.33333334}
        outWeight: {x: 0.33333334, y: 0.33333334, z: 0.33333334}
      - serializedVersion: 3
        time: 0.375
        value: {x: 0.00070171646, y: 0.022281742, z: -0.0036158576}
        inSlope: {x: 0.00020254617, y: 0.00013984683, z: -0.000025534637}
        outSlope: {x: 0.0005699338, y: 0.00013984683, z: -0.000025534637}
        tangentMode: 0
        weightedMode: 0
        inWeight: {x: 0.33333334, y: 0.33333334, z: 0.33333334}
        outWeight: {x: 0.33333334, y: 0.33333334, z: 0.33333334}
      - serializedVersion: 3
        time: 0.45833334
        value: {x: 0.0007621638, y: 0.022293393, z: -0.0036241957}
        inSlope: {x: 0.00088080124, y: 0.00013978951, z: -0.00017457955}
        outSlope: {x: 0.0011351523, y: 0.00013984683, z: -0.0002251411}
        tangentMode: 0
        weightedMode: 0
        inWeight: {x: 0.33333334, y: 0.33333334, z: 0.33333334}
        outWeight: {x: 0.33333334, y: 0.33333334, z: 0.33333334}
      - serializedVersion: 3
        time: 0.8333333
        value: {x: 0.0012867615, y: 0.022428242, z: -0.0037282177}
        inSlope: {x: 0.0011351692, y: 0.00021280309, z: -0.00022508405}
        outSlope: {x: 0.0008807941, y: 0.00021280278, z: -0.0001437878}
        tangentMode: 0
        weightedMode: 0
        inWeight: {x: 0.33333334, y: 0.33333334, z: 0.33333334}
        outWeight: {x: 0.33333334, y: 0.33333334, z: 0.33333334}
      - serializedVersion: 3
        time: 0.9583333
        value: {x: 0.0013556476, y: 0.022454845, z: -0.0037418746}
        inSlope: {x: 0.00020254988, y: 0.00021280309, z: -0.000040190258}
        outSlope: {x: 0.00020254988, y: 0.00021280309, z: -0.000040190258}
        tangentMode: 0
        weightedMode: 0
        inWeight: {x: 0.33333334, y: 0.33333334, z: 0.33333334}
        outWeight: {x: 0.33333334, y: 0.33333334, z: 0.33333334}
      m_PreInfinity: 2
      m_PostInfinity: 2
      m_RotationOrder: 4
    path: Armature/Main/Chest/Head/Headflame
  - curve:
      serializedVersion: 2
      m_Curve:
      - serializedVersion: 3
        time: 0
        value: {x: -0.016275886, y: 0.009504994, z: -0.007936761}
        inSlope: {x: -0.016885042, y: -0.00051173684, z: 0.020305008}
        outSlope: {x: -0.016885042, y: -0.00051173684, z: 0.020305008}
        tangentMode: 0
        weightedMode: 0
        inWeight: {x: 0.33333334, y: 0.33333334, z: 0.33333334}
        outWeight: {x: 0.33333334, y: 0.33333334, z: 0.33333334}
      - serializedVersion: 3
        time: 0.041666668
        value: {x: -0.01697943, y: 0.009483672, z: -0.007090719}
        inSlope: {x: -0.016885042, y: -0.00051173684, z: 0.020305008}
        outSlope: {x: -0.03747717, y: -0.000709691, z: 0.048133235}
        tangentMode: 0
        weightedMode: 0
        inWeight: {x: 0.33333334, y: 0.33333334, z: 0.33333334}
        outWeight: {x: 0.33333334, y: 0.33333334, z: 0.33333334}
      - serializedVersion: 3
        time: 0.083333336
        value: {x: -0.018540978, y: 0.009454101, z: -0.005085168}
        inSlope: {x: -0.03747717, y: -0.000709691, z: 0.048133235}
        outSlope: {x: -0.03830249, y: 0.0003304339, z: 0.05678869}
        tangentMode: 0
        weightedMode: 0
        inWeight: {x: 0.33333334, y: 0.33333334, z: 0.33333334}
        outWeight: {x: 0.33333334, y: 0.33333334, z: 0.33333334}
      - serializedVersion: 3
        time: 0.125
        value: {x: -0.020136917, y: 0.009467869, z: -0.0027189725}
        inSlope: {x: -0.03830249, y: 0.0003304339, z: 0.05678869}
        outSlope: {x: -0.01936094, y: 0.002608437, z: 0.046271447}
        tangentMode: 0
        weightedMode: 0
        inWeight: {x: 0.33333334, y: 0.33333334, z: 0.33333334}
        outWeight: {x: 0.33333334, y: 0.33333334, z: 0.33333334}
      - serializedVersion: 3
        time: 0.16666667
        value: {x: -0.020943623, y: 0.009576554, z: -0.00079099543}
        inSlope: {x: -0.01936094, y: 0.002608437, z: 0.046271447}
        outSlope: {x: -0.0021556667, y: 0.0042242724, z: 0.027829371}
        tangentMode: 0
        weightedMode: 0
        inWeight: {x: 0.33333334, y: 0.33333334, z: 0.33333334}
        outWeight: {x: 0.33333334, y: 0.33333334, z: 0.33333334}
      - serializedVersion: 3
        time: 0.20833333
        value: {x: -0.021033442, y: 0.009752565, z: 0.00036856145}
        inSlope: {x: -0.0021556667, y: 0.0042242724, z: 0.027829371}
        outSlope: {x: 0.000013504027, y: 0.0038854973, z: 0.01621606}
        tangentMode: 0
        weightedMode: 0
        inWeight: {x: 0.33333334, y: 0.33333334, z: 0.33333334}
        outWeight: {x: 0.33333334, y: 0.33333334, z: 0.33333334}
      - serializedVersion: 3
        time: 0.25
        value: {x: -0.02103288, y: 0.0099144615, z: 0.0010442308}
        inSlope: {x: 0.000013504027, y: 0.0038854973, z: 0.01621606}
        outSlope: {x: 0.000013561252, y: 0.0028452592, z: 0.0075606266}
        tangentMode: 0
        weightedMode: 0
        inWeight: {x: 0.33333334, y: 0.33333334, z: 0.33333334}
        outWeight: {x: 0.33333334, y: 0.33333334, z: 0.33333334}
      - serializedVersion: 3
        time: 0.29166666
        value: {x: -0.021032315, y: 0.010033013, z: 0.0013592568}
        inSlope: {x: 0.000013561252, y: 0.0028452592, z: 0.0075606266}
        outSlope: {x: 0.000013504021, y: 0.0011042685, z: 0.0018628897}
        tangentMode: 0
        weightedMode: 0
        inWeight: {x: 0.33333334, y: 0.33333334, z: 0.33333334}
        outWeight: {x: 0.33333334, y: 0.33333334, z: 0.33333334}
      - serializedVersion: 3
        time: 0.33333334
        value: {x: -0.02103175, y: 0.010079024, z: 0.0014368772}
        inSlope: {x: 0.000013504021, y: 0.0011042685, z: 0.0018628897}
        outSlope: {x: 0.000013561252, y: -0, z: 0.0000000035762795}
        tangentMode: 0
        weightedMode: 0
        inWeight: {x: 0.33333334, y: 0.33333334, z: 0.33333334}
        outWeight: {x: 0.33333334, y: 0.33333334, z: 0.33333334}
      - serializedVersion: 3
        time: 0.9583333
        value: {x: -0.021023298, y: 0.010079024, z: 0.0014368796}
        inSlope: {x: 0.000013504041, y: -0, z: 0.000000003576282}
        outSlope: {x: 0.000013504041, y: -0, z: 0.000000003576282}
        tangentMode: 0
        weightedMode: 0
        inWeight: {x: 0.33333334, y: 0.33333334, z: 0.33333334}
        outWeight: {x: 0.33333334, y: 0.33333334, z: 0.33333334}
      m_PreInfinity: 2
      m_PostInfinity: 2
      m_RotationOrder: 4
    path: Armature/Main/Chest/Arm.L
  - curve:
      serializedVersion: 2
      m_Curve:
      - serializedVersion: 3
        time: 0
        value: {x: 0.015076537, y: 0.00794319, z: 0.002997159}
        inSlope: {x: 0.00064930914, y: 0.00022988318, z: 0.014295866}
        outSlope: {x: 0.00064930914, y: 0.00022988318, z: 0.014295866}
        tangentMode: 0
        weightedMode: 0
        inWeight: {x: 0.33333334, y: 0.33333334, z: 0.33333334}
        outWeight: {x: 0.33333334, y: 0.33333334, z: 0.33333334}
      - serializedVersion: 3
        time: 0.041666668
        value: {x: 0.015103592, y: 0.007952768, z: 0.0035928201}
        inSlope: {x: 0.00064930914, y: 0.00022988318, z: 0.014295866}
        outSlope: {x: 0.0014283942, y: 0.00022988318, z: 0.031450894}
        tangentMode: 0
        weightedMode: 0
        inWeight: {x: 0.33333334, y: 0.33333334, z: 0.33333334}
        outWeight: {x: 0.33333334, y: 0.33333334, z: 0.33333334}
      - serializedVersion: 3
        time: 0.125
        value: {x: 0.015222626, y: 0.007971927, z: 0.0062137293}
        inSlope: {x: 0.0014284231, y: 0.00022992613, z: 0.031450927}
        outSlope: {x: 0.000032472606, y: 0.00022992608, z: 0.014295857}
        tangentMode: 0
        weightedMode: 0
        inWeight: {x: 0.33333334, y: 0.33333334, z: 0.33333334}
        outWeight: {x: 0.33333334, y: 0.33333334, z: 0.33333334}
      - serializedVersion: 3
        time: 0.16666667
        value: {x: 0.015223978, y: 0.007981507, z: 0.00680939}
        inSlope: {x: 0.000032472606, y: 0.00022992608, z: 0.014295857}
        outSlope: {x: 0.000032443993, y: -0, z: -0}
        tangentMode: 0
        weightedMode: 0
        inWeight: {x: 0.33333334, y: 0.33333334, z: 0.33333334}
        outWeight: {x: 0.33333334, y: 0.33333334, z: 0.33333334}
      - serializedVersion: 3
        time: 0.9583333
        value: {x: 0.015249679, y: 0.007981506, z: 0.006809389}
        inSlope: {x: 0.00003247264, y: -0, z: -0}
        outSlope: {x: 0.00003247264, y: -0, z: -0}
        tangentMode: 0
        weightedMode: 0
        inWeight: {x: 0.33333334, y: 0.33333334, z: 0.33333334}
        outWeight: {x: 0.33333334, y: 0.33333334, z: 0.33333334}
      m_PreInfinity: 2
      m_PostInfinity: 2
      m_RotationOrder: 4
    path: Armature/Main/Chest/Arm.R
  - curve:
      serializedVersion: 2
      m_Curve:
      - serializedVersion: 3
        time: 0
        value: {x: -0.0074150097, y: 0.0116952, z: 0.008178879}
        inSlope: {x: -0.000002374649, y: 0.0045440197, z: -0.0004900932}
        outSlope: {x: -0.000002374649, y: 0.0045440197, z: -0.0004900932}
        tangentMode: 0
        weightedMode: 0
        inWeight: {x: 0.33333334, y: 0.33333334, z: 0.33333334}
        outWeight: {x: 0.33333334, y: 0.33333334, z: 0.33333334}
      - serializedVersion: 3
        time: 0.083333336
        value: {x: -0.0074152076, y: 0.012301074, z: 0.008113532}
        inSlope: {x: -0.000002374649, y: 0.009996957, z: -0.0010782194}
        outSlope: {x: -0.000002374649, y: 0.009997044, z: -0.0010781622}
        tangentMode: 0
        weightedMode: 0
        inWeight: {x: 0.33333334, y: 0.33333334, z: 0.33333334}
        outWeight: {x: 0.33333334, y: 0.33333334, z: 0.33333334}
      - serializedVersion: 3
        time: 0.16666667
        value: {x: -0.0074154045, y: 0.012906953, z: 0.008048191}
        inSlope: {x: -0.0000023603436, y: 0.0045440476, z: -0.00049005024}
        outSlope: {x: -0.0000023746486, y: -0, z: -0}
        tangentMode: 0
        weightedMode: 0
        inWeight: {x: 0.33333334, y: 0.33333334, z: 0.33333334}
        outWeight: {x: 0.33333334, y: 0.33333334, z: 0.33333334}
      - serializedVersion: 3
        time: 0.9583333
        value: {x: -0.0074172835, y: 0.012906952, z: 0.008048188}
        inSlope: {x: -0.0000023746513, y: -0, z: -0}
        outSlope: {x: -0.0000023746513, y: -0, z: -0}
        tangentMode: 0
        weightedMode: 0
        inWeight: {x: 0.33333334, y: 0.33333334, z: 0.33333334}
        outWeight: {x: 0.33333334, y: 0.33333334, z: 0.33333334}
      m_PreInfinity: 2
      m_PostInfinity: 2
      m_RotationOrder: 4
    path: Armature/Main/Chest/Chestflame
  - curve:
      serializedVersion: 2
      m_Curve:
      - serializedVersion: 3
        time: 0
        value: {x: -0.012338184, y: 0.02455658, z: -0.006365752}
        inSlope: {x: 0.000015163421, y: 0.0026564025, z: -0.002009325}
        outSlope: {x: 0.000015163421, y: 0.0026564025, z: -0.002009325}
        tangentMode: 0
        weightedMode: 0
        inWeight: {x: 0.33333334, y: 0.33333334, z: 0.33333334}
        outWeight: {x: 0.33333334, y: 0.33333334, z: 0.33333334}
      - serializedVersion: 3
        time: 0.16666667
        value: {x: -0.012335659, y: 0.02526498, z: -0.006901569}
        inSlope: {x: 0.000015134809, y: 0.0026564593, z: -0.0020093247}
        outSlope: {x: 0.0000151634185, y: -0, z: -0}
        tangentMode: 0
        weightedMode: 0
        inWeight: {x: 0.33333334, y: 0.33333334, z: 0.33333334}
        outWeight: {x: 0.33333334, y: 0.33333334, z: 0.33333334}
      - serializedVersion: 3
        time: 0.9583333
        value: {x: -0.0123236645, y: 0.025264975, z: -0.0069015673}
        inSlope: {x: 0.000015163435, y: -0, z: -0}
        outSlope: {x: 0.000015163435, y: -0, z: -0}
        tangentMode: 0
        weightedMode: 0
        inWeight: {x: 0.33333334, y: 0.33333334, z: 0.33333334}
        outWeight: {x: 0.33333334, y: 0.33333334, z: 0.33333334}
      m_PreInfinity: 2
      m_PostInfinity: 2
      m_RotationOrder: 4
    path: Armature/Main/Chest/Shoulder.L
  - curve:
      serializedVersion: 2
      m_Curve:
      - serializedVersion: 3
        time: 0
        value: {x: 0.009566952, y: 0.020412259, z: 0.0054024095}
        inSlope: {x: 0.0011806869, y: 0.0004519844, z: -0.0011571979}
        outSlope: {x: 0.0011806869, y: 0.0004519844, z: -0.0011571979}
        tangentMode: 0
        weightedMode: 0
        inWeight: {x: 0.33333334, y: 0.33333334, z: 0.33333334}
        outWeight: {x: 0.33333334, y: 0.33333334, z: 0.33333334}
      - serializedVersion: 3
        time: 0.16666667
        value: {x: 0.009881806, y: 0.02051873, z: 0.005093822}
        inSlope: {x: 0.0011807154, y: 0.000114383685, z: -0.0011572121}
        outSlope: {x: -0.0000000143051135, y: 0.0001144409, z: 0.000025248524}
        tangentMode: 0
        weightedMode: 0
        inWeight: {x: 0.33333334, y: 0.33333334, z: 0.33333334}
        outWeight: {x: 0.33333334, y: 0.33333334, z: 0.33333334}
      - serializedVersion: 3
        time: 0.5
        value: {x: 0.010180155, y: 0.020556867, z: 0.0051022368}
        inSlope: {x: 0.0029149824, y: 0.00011438372, z: 0.000025248533}
        outSlope: {x: 0.0034229835, y: 0.0003083609, z: 0.00002523421}
        tangentMode: 0
        weightedMode: 0
        inWeight: {x: 0.33333334, y: 0.33333334, z: 0.33333334}
        outWeight: {x: 0.33333334, y: 0.33333334, z: 0.33333334}
      - serializedVersion: 3
        time: 0.9583333
        value: {x: 0.011582703, y: 0.020670008, z: 0.0051237037}
        inSlope: {x: 0.0005200486, y: 0.00011415492, z: 0.000037179027}
        outSlope: {x: 0.0005200486, y: 0.00011415492, z: 0.000037179027}
        tangentMode: 0
        weightedMode: 0
        inWeight: {x: 0.33333334, y: 0.33333334, z: 0.33333334}
        outWeight: {x: 0.33333334, y: 0.33333334, z: 0.33333334}
      m_PreInfinity: 2
      m_PostInfinity: 2
      m_RotationOrder: 4
    path: Armature/Main/Chest/Shoulder.R
  - curve:
      serializedVersion: 2
      m_Curve:
      - serializedVersion: 3
        time: 0
        value: {x: 1.8635977e-13, y: -0.0003279545, z: -0.00006972626}
        inSlope: {x: 0, y: 0, z: 0}
        outSlope: {x: 0, y: 0, z: 0}
        tangentMode: 0
        weightedMode: 0
        inWeight: {x: 0.33333334, y: 0.33333334, z: 0.33333334}
        outWeight: {x: 0.33333334, y: 0.33333334, z: 0.33333334}
      - serializedVersion: 3
        time: 0.9583333
        value: {x: 1.8635977e-13, y: -0.0003279545, z: -0.00006972626}
        inSlope: {x: 0, y: 0, z: 0}
        outSlope: {x: 0, y: 0, z: 0}
        tangentMode: 0
        weightedMode: 0
        inWeight: {x: 0.33333334, y: 0.33333334, z: 0.33333334}
        outWeight: {x: 0.33333334, y: 0.33333334, z: 0.33333334}
      m_PreInfinity: 2
      m_PostInfinity: 2
      m_RotationOrder: 4
    path: Armature/Main/LowerBody
  - curve:
      serializedVersion: 2
      m_Curve:
      - serializedVersion: 3
        time: 0
        value: {x: 1.3038516e-10, y: 0.015443525, z: -1.11758706e-10}
        inSlope: {x: 0, y: 0, z: 0}
        outSlope: {x: 0, y: 0, z: 0}
        tangentMode: 0
        weightedMode: 0
        inWeight: {x: 0.33333334, y: 0.33333334, z: 0.33333334}
        outWeight: {x: 0.33333334, y: 0.33333334, z: 0.33333334}
      - serializedVersion: 3
        time: 0.9583333
        value: {x: 1.3038516e-10, y: 0.015443525, z: -1.11758706e-10}
        inSlope: {x: 0, y: 0, z: 0}
        outSlope: {x: 0, y: 0, z: 0}
        tangentMode: 0
        weightedMode: 0
        inWeight: {x: 0.33333334, y: 0.33333334, z: 0.33333334}
        outWeight: {x: 0.33333334, y: 0.33333334, z: 0.33333334}
      m_PreInfinity: 2
      m_PostInfinity: 2
      m_RotationOrder: 4
    path: Armature/Main/LowerBody/Tail
  m_ScaleCurves:
  - curve:
      serializedVersion: 2
      m_Curve:
      - serializedVersion: 3
        time: 0
        value: {x: 162.84431, y: 162.84431, z: 162.84431}
        inSlope: {x: 0, y: 0, z: 0}
        outSlope: {x: 0, y: 0, z: 0}
        tangentMode: 0
        weightedMode: 0
        inWeight: {x: 0.33333334, y: 0.33333334, z: 0.33333334}
        outWeight: {x: 0.33333334, y: 0.33333334, z: 0.33333334}
      - serializedVersion: 3
        time: 0.9583334
        value: {x: 162.84431, y: 162.84431, z: 162.84431}
        inSlope: {x: 0, y: 0, z: 0}
        outSlope: {x: 0, y: 0, z: 0}
        tangentMode: 0
        weightedMode: 0
        inWeight: {x: 0.33333334, y: 0.33333334, z: 0.33333334}
        outWeight: {x: 0.33333334, y: 0.33333334, z: 0.33333334}
      m_PreInfinity: 2
      m_PostInfinity: 2
      m_RotationOrder: 4
    path: Armature
  - curve:
      serializedVersion: 2
      m_Curve:
      - serializedVersion: 3
        time: 0
        value: {x: 1, y: 1, z: 1}
        inSlope: {x: 0, y: 0, z: 0}
        outSlope: {x: 0, y: 0, z: 0}
        tangentMode: 0
        weightedMode: 0
        inWeight: {x: 0.33333334, y: 0.33333334, z: 0.33333334}
        outWeight: {x: 0.33333334, y: 0.33333334, z: 0.33333334}
      - serializedVersion: 3
        time: 0.2916667
        value: {x: 1.037553, y: 1.037553, z: 1.037553}
        inSlope: {x: 0.4759311, y: 0.47592968, z: 0.47592968}
        outSlope: {x: 0.4759311, y: 0.47592968, z: 0.47592968}
        tangentMode: 0
        weightedMode: 0
        inWeight: {x: 0.33333334, y: 0.33333334, z: 0.33333334}
        outWeight: {x: 0.33333334, y: 0.33333334, z: 0.33333334}
      - serializedVersion: 3
        time: 0.9583334
        value: {x: 1.2289321, y: 1.228932, z: 1.228932}
        inSlope: {x: 0.020939818, y: 0.020942679, z: 0.020942679}
        outSlope: {x: 0.020939818, y: 0.020942679, z: 0.020942679}
        tangentMode: 0
        weightedMode: 0
        inWeight: {x: 0.33333334, y: 0.33333334, z: 0.33333334}
        outWeight: {x: 0.33333334, y: 0.33333334, z: 0.33333334}
      m_PreInfinity: 2
      m_PostInfinity: 2
      m_RotationOrder: 4
    path: Armature/Main
  - curve:
      serializedVersion: 2
      m_Curve:
      - serializedVersion: 3
        time: 0
        value: {x: 0.99999994, y: 1, z: 0.99999994}
        inSlope: {x: 0, y: 0, z: 0}
        outSlope: {x: 0, y: 0, z: 0}
        tangentMode: 0
        weightedMode: 0
        inWeight: {x: 0.33333334, y: 0.33333334, z: 0.33333334}
        outWeight: {x: 0.33333334, y: 0.33333334, z: 0.33333334}
      - serializedVersion: 3
        time: 0.9583334
        value: {x: 0.99999994, y: 1, z: 0.99999994}
        inSlope: {x: 0, y: 0, z: 0}
        outSlope: {x: 0, y: 0, z: 0}
        tangentMode: 0
        weightedMode: 0
        inWeight: {x: 0.33333334, y: 0.33333334, z: 0.33333334}
        outWeight: {x: 0.33333334, y: 0.33333334, z: 0.33333334}
      m_PreInfinity: 2
      m_PostInfinity: 2
      m_RotationOrder: 4
    path: Armature/Main/Chest
  - curve:
      serializedVersion: 2
      m_Curve:
      - serializedVersion: 3
        time: 0
        value: {x: 1, y: 1.0000001, z: 1.0000001}
        inSlope: {x: 0, y: 0, z: 0}
        outSlope: {x: 0, y: 0, z: 0}
        tangentMode: 0
        weightedMode: 0
        inWeight: {x: 0.33333334, y: 0.33333334, z: 0.33333334}
        outWeight: {x: 0.33333334, y: 0.33333334, z: 0.33333334}
      - serializedVersion: 3
        time: 0.9583334
        value: {x: 1, y: 1.0000001, z: 1.0000001}
        inSlope: {x: 0, y: 0, z: 0}
        outSlope: {x: 0, y: 0, z: 0}
        tangentMode: 0
        weightedMode: 0
        inWeight: {x: 0.33333334, y: 0.33333334, z: 0.33333334}
        outWeight: {x: 0.33333334, y: 0.33333334, z: 0.33333334}
      m_PreInfinity: 2
      m_PostInfinity: 2
      m_RotationOrder: 4
    path: Armature/Main/Chest/Head
  - curve:
      serializedVersion: 2
      m_Curve:
      - serializedVersion: 3
        time: 0
        value: {x: 0.99999976, y: 0.9999998, z: 0.9999998}
        inSlope: {x: 0, y: 0.0000014305115, z: 0}
        outSlope: {x: 0, y: 0.0000014305115, z: 0}
        tangentMode: 0
        weightedMode: 0
        inWeight: {x: 0.33333334, y: 0.33333334, z: 0.33333334}
        outWeight: {x: 0.33333334, y: 0.33333334, z: 0.33333334}
      - serializedVersion: 3
        time: 0.125
        value: {x: 0.9999998, y: 0.9999999, z: 0.9999998}
        inSlope: {x: 0, y: 0.0000007152557, z: 0}
        outSlope: {x: 0, y: 0.0000007152557, z: 0}
        tangentMode: 0
        weightedMode: 0
        inWeight: {x: 0.33333334, y: 0.33333334, z: 0.33333334}
        outWeight: {x: 0.33333334, y: 0.33333334, z: 0.33333334}
      - serializedVersion: 3
        time: 0.20833334
        value: {x: 1.0609694, y: 1.0609692, z: 1.0609692}
        inSlope: {x: 2.619405, y: 2.6194036, z: 2.619405}
        outSlope: {x: 2.619405, y: 2.6194036, z: 2.619405}
        tangentMode: 0
        weightedMode: 0
        inWeight: {x: 0.33333334, y: 0.33333334, z: 0.33333334}
        outWeight: {x: 0.33333334, y: 0.33333334, z: 0.33333334}
      - serializedVersion: 3
        time: 0.33333334
        value: {x: 1.6683849, y: 1.6683849, z: 1.6683848}
        inSlope: {x: 5.487738, y: 5.487738, z: 5.4877353}
        outSlope: {x: 5.487738, y: 5.487738, z: 5.4877353}
        tangentMode: 0
        weightedMode: 0
        inWeight: {x: 0.33333334, y: 0.33333334, z: 0.33333334}
        outWeight: {x: 0.33333334, y: 0.33333334, z: 0.33333334}
      - serializedVersion: 3
        time: 0.9166667
        value: {x: 3.2744339, y: 3.274434, z: 3.2744334}
        inSlope: {x: 0.29716858, y: 0.29716572, z: 0.29716}
        outSlope: {x: 0.29716858, y: 0.29716572, z: 0.29716}
        tangentMode: 0
        weightedMode: 0
        inWeight: {x: 0.33333334, y: 0.33333334, z: 0.33333334}
        outWeight: {x: 0.33333334, y: 0.33333334, z: 0.33333334}
      - serializedVersion: 3
        time: 0.9583334
        value: {x: 3.28055, y: 3.2805498, z: 3.2805495}
        inSlope: {x: 0.14678757, y: 0.14677612, z: 0.14678757}
        outSlope: {x: 0.14678757, y: 0.14677612, z: 0.14678757}
        tangentMode: 0
        weightedMode: 0
        inWeight: {x: 0.33333334, y: 0.33333334, z: 0.33333334}
        outWeight: {x: 0.33333334, y: 0.33333334, z: 0.33333334}
      m_PreInfinity: 2
      m_PostInfinity: 2
      m_RotationOrder: 4
    path: Armature/Main/Chest/Head/Headflame
  - curve:
      serializedVersion: 2
      m_Curve:
      - serializedVersion: 3
        time: 0
        value: {x: 1.0000001, y: 1.0000001, z: 1.0000004}
        inSlope: {x: 0, y: 0, z: 0}
        outSlope: {x: 0, y: 0, z: 0}
        tangentMode: 0
        weightedMode: 0
        inWeight: {x: 0.33333334, y: 0.33333334, z: 0.33333334}
        outWeight: {x: 0.33333334, y: 0.33333334, z: 0.33333334}
      - serializedVersion: 3
        time: 0.9583334
        value: {x: 1.0000001, y: 1.0000001, z: 1.0000004}
        inSlope: {x: 0, y: 0, z: 0}
        outSlope: {x: 0, y: 0, z: 0}
        tangentMode: 0
        weightedMode: 0
        inWeight: {x: 0.33333334, y: 0.33333334, z: 0.33333334}
        outWeight: {x: 0.33333334, y: 0.33333334, z: 0.33333334}
      m_PreInfinity: 2
      m_PostInfinity: 2
      m_RotationOrder: 4
    path: Armature/Main/Chest/Arm.L
  - curve:
      serializedVersion: 2
      m_Curve:
      - serializedVersion: 3
        time: 0
        value: {x: 1, y: 1, z: 1}
        inSlope: {x: 0, y: 0, z: 0}
        outSlope: {x: 0, y: 0, z: 0}
        tangentMode: 0
        weightedMode: 0
        inWeight: {x: 0.33333334, y: 0.33333334, z: 0.33333334}
        outWeight: {x: 0.33333334, y: 0.33333334, z: 0.33333334}
      - serializedVersion: 3
        time: 0.9583334
        value: {x: 1, y: 1, z: 1}
        inSlope: {x: 0, y: 0, z: 0}
        outSlope: {x: 0, y: 0, z: 0}
        tangentMode: 0
        weightedMode: 0
        inWeight: {x: 0.33333334, y: 0.33333334, z: 0.33333334}
        outWeight: {x: 0.33333334, y: 0.33333334, z: 0.33333334}
      m_PreInfinity: 2
      m_PostInfinity: 2
      m_RotationOrder: 4
    path: Armature/Main/Chest/Arm.R
  - curve:
      serializedVersion: 2
      m_Curve:
      - serializedVersion: 3
        time: 0
        value: {x: 1, y: 1.0000001, z: 1}
        inSlope: {x: 0, y: 0, z: 0}
        outSlope: {x: 0, y: 0, z: 0}
        tangentMode: 0
        weightedMode: 0
        inWeight: {x: 0.33333334, y: 0.33333334, z: 0.33333334}
        outWeight: {x: 0.33333334, y: 0.33333334, z: 0.33333334}
      - serializedVersion: 3
        time: 0.2916667
        value: {x: 0.99999994, y: 1, z: 0.99999994}
        inSlope: {x: 0, y: 0, z: 0}
        outSlope: {x: 0, y: 0, z: 0}
        tangentMode: 0
        weightedMode: 0
        inWeight: {x: 0.33333334, y: 0.33333334, z: 0.33333334}
        outWeight: {x: 0.33333334, y: 0.33333334, z: 0.33333334}
      - serializedVersion: 3
        time: 0.4166667
        value: {x: 1.0390196, y: 1.0390196, z: 1.0390195}
        inSlope: {x: 0.8793668, y: 0.8793654, z: 0.8793654}
        outSlope: {x: 0.8793668, y: 0.8793654, z: 0.8793654}
        tangentMode: 0
        weightedMode: 0
        inWeight: {x: 0.33333334, y: 0.33333334, z: 0.33333334}
        outWeight: {x: 0.33333334, y: 0.33333334, z: 0.33333334}
      - serializedVersion: 3
        time: 0.9166667
        value: {x: 1.7927614, y: 1.7927612, z: 1.7927611}
        inSlope: {x: 0.4682305, y: 0.4682262, z: 0.46822762}
        outSlope: {x: 0.4682305, y: 0.4682262, z: 0.46822762}
        tangentMode: 0
        weightedMode: 0
        inWeight: {x: 0.33333334, y: 0.33333334, z: 0.33333334}
        outWeight: {x: 0.33333334, y: 0.33333334, z: 0.33333334}
      - serializedVersion: 3
        time: 0.9583334
        value: {x: 1.8029917, y: 1.8029915, z: 1.8029915}
        inSlope: {x: 0.24552715, y: 0.24552715, z: 0.24553001}
        outSlope: {x: 0.24552715, y: 0.24552715, z: 0.24553001}
        tangentMode: 0
        weightedMode: 0
        inWeight: {x: 0.33333334, y: 0.33333334, z: 0.33333334}
        outWeight: {x: 0.33333334, y: 0.33333334, z: 0.33333334}
      m_PreInfinity: 2
      m_PostInfinity: 2
      m_RotationOrder: 4
    path: Armature/Main/Chest/Chestflame
  - curve:
      serializedVersion: 2
      m_Curve:
      - serializedVersion: 3
        time: 0
        value: {x: 1.0000001, y: 1.0000001, z: 1}
        inSlope: {x: 0, y: 0, z: -0.0000014305115}
        outSlope: {x: 0, y: 0, z: -0.0000014305115}
        tangentMode: 0
        weightedMode: 0
        inWeight: {x: 0.33333334, y: 0.33333334, z: 0.33333334}
        outWeight: {x: 0.33333334, y: 0.33333334, z: 0.33333334}
      - serializedVersion: 3
        time: 0.125
        value: {x: 1.0000001, y: 1.0000001, z: 0.9999999}
        inSlope: {x: 0, y: 0, z: -0.0000007152558}
        outSlope: {x: 0, y: 0, z: -0.0000007152558}
        tangentMode: 0
        weightedMode: 0
        inWeight: {x: 0.33333334, y: 0.33333334, z: 0.33333334}
        outWeight: {x: 0.33333334, y: 0.33333334, z: 0.33333334}
      - serializedVersion: 3
        time: 0.20833334
        value: {x: 1.0609986, y: 1.0609987, z: 1.0609984}
        inSlope: {x: 2.526557, y: 2.5265584, z: 2.5265656}
        outSlope: {x: 2.526557, y: 2.5265584, z: 2.5265656}
        tangentMode: 0
        weightedMode: 0
        inWeight: {x: 0.33333334, y: 0.33333334, z: 0.33333334}
        outWeight: {x: 0.33333334, y: 0.33333334, z: 0.33333334}
      - serializedVersion: 3
        time: 0.33333334
        value: {x: 1.5746076, y: 1.5746076, z: 1.5746077}
        inSlope: {x: 3.83569, y: 3.835693, z: 3.8356957}
        outSlope: {x: 3.83569, y: 3.835693, z: 3.8356957}
        tangentMode: 0
        weightedMode: 0
        inWeight: {x: 0.33333334, y: 0.33333334, z: 0.33333334}
        outWeight: {x: 0.33333334, y: 0.33333334, z: 0.33333334}
      - serializedVersion: 3
        time: 0.75
        value: {x: 2.3137493, y: 2.3137496, z: 2.3137493}
        inSlope: {x: 0.4148342, y: 0.41482848, z: 0.41483134}
        outSlope: {x: 0.4148342, y: 0.41482848, z: 0.41483134}
        tangentMode: 0
        weightedMode: 0
        inWeight: {x: 0.33333334, y: 0.33333334, z: 0.33333334}
        outWeight: {x: 0.33333334, y: 0.33333334, z: 0.33333334}
      - serializedVersion: 3
        time: 0.9583334
        value: {x: 2.3421776, y: 2.3421776, z: 2.3421776}
        inSlope: {x: 0.005453107, y: 0.005458829, z: 0.005447385}
        outSlope: {x: 0.005453107, y: 0.005458829, z: 0.005447385}
        tangentMode: 0
        weightedMode: 0
        inWeight: {x: 0.33333334, y: 0.33333334, z: 0.33333334}
        outWeight: {x: 0.33333334, y: 0.33333334, z: 0.33333334}
      m_PreInfinity: 2
      m_PostInfinity: 2
      m_RotationOrder: 4
    path: Armature/Main/Chest/Shoulder.L
  - curve:
      serializedVersion: 2
      m_Curve:
      - serializedVersion: 3
        time: 0
        value: {x: 1, y: 1.0000001, z: 1.0000001}
        inSlope: {x: 0, y: 0, z: 0}
        outSlope: {x: 0, y: 0, z: 0}
        tangentMode: 0
        weightedMode: 0
        inWeight: {x: 0.33333334, y: 0.33333334, z: 0.33333334}
        outWeight: {x: 0.33333334, y: 0.33333334, z: 0.33333334}
      - serializedVersion: 3
        time: 0.125
        value: {x: 1, y: 1.0000001, z: 1}
        inSlope: {x: 0, y: 0, z: 0}
        outSlope: {x: 0, y: 0, z: 0}
        tangentMode: 0
        weightedMode: 0
        inWeight: {x: 0.33333334, y: 0.33333334, z: 0.33333334}
        outWeight: {x: 0.33333334, y: 0.33333334, z: 0.33333334}
      - serializedVersion: 3
        time: 0.20833334
        value: {x: 1.0506129, y: 1.0506128, z: 1.0506129}
        inSlope: {x: 2.1320202, y: 2.1320174, z: 2.1320202}
        outSlope: {x: 2.1320202, y: 2.1320174, z: 2.1320202}
        tangentMode: 0
        weightedMode: 0
        inWeight: {x: 0.33333334, y: 0.33333334, z: 0.33333334}
        outWeight: {x: 0.33333334, y: 0.33333334, z: 0.33333334}
      - serializedVersion: 3
        time: 0.33333334
        value: {x: 1.5124061, y: 1.5124063, z: 1.5124063}
        inSlope: {x: 3.7829528, y: 3.7829528, z: 3.7829585}
        outSlope: {x: 3.7829528, y: 3.7829528, z: 3.7829585}
        tangentMode: 0
        weightedMode: 0
        inWeight: {x: 0.33333334, y: 0.33333334, z: 0.33333334}
        outWeight: {x: 0.33333334, y: 0.33333334, z: 0.33333334}
      - serializedVersion: 3
        time: 0.9583334
        value: {x: 2.2977545, y: 2.2977545, z: 2.2977548}
        inSlope: {x: 0.005578992, y: 0.00557327, z: 0.005578992}
        outSlope: {x: 0.005578992, y: 0.00557327, z: 0.005578992}
        tangentMode: 0
        weightedMode: 0
        inWeight: {x: 0.33333334, y: 0.33333334, z: 0.33333334}
        outWeight: {x: 0.33333334, y: 0.33333334, z: 0.33333334}
      m_PreInfinity: 2
      m_PostInfinity: 2
      m_RotationOrder: 4
    path: Armature/Main/Chest/Shoulder.R
  - curve:
      serializedVersion: 2
      m_Curve:
      - serializedVersion: 3
        time: 0
        value: {x: 1.0000001, y: 1.0000001, z: 1.0000099}
        inSlope: {x: 0, y: 0, z: 0}
        outSlope: {x: 0, y: 0, z: 0}
        tangentMode: 0
        weightedMode: 0
        inWeight: {x: 0.33333334, y: 0.33333334, z: 0.33333334}
        outWeight: {x: 0.33333334, y: 0.33333334, z: 0.33333334}
      - serializedVersion: 3
        time: 0.9583334
        value: {x: 1.0000001, y: 1.0000001, z: 1.0000099}
        inSlope: {x: 0, y: 0, z: 0}
        outSlope: {x: 0, y: 0, z: 0}
        tangentMode: 0
        weightedMode: 0
        inWeight: {x: 0.33333334, y: 0.33333334, z: 0.33333334}
        outWeight: {x: 0.33333334, y: 0.33333334, z: 0.33333334}
      m_PreInfinity: 2
      m_PostInfinity: 2
      m_RotationOrder: 4
    path: Armature/Main/LowerBody
  - curve:
      serializedVersion: 2
      m_Curve:
      - serializedVersion: 3
        time: 0
        value: {x: 0.9999999, y: 0.9999998, z: 0.9999999}
        inSlope: {x: 0, y: 0, z: 0}
        outSlope: {x: 0, y: 0, z: 0}
        tangentMode: 0
        weightedMode: 0
        inWeight: {x: 0.33333334, y: 0.33333334, z: 0.33333334}
        outWeight: {x: 0.33333334, y: 0.33333334, z: 0.33333334}
      - serializedVersion: 3
        time: 0.9583334
        value: {x: 0.9999999, y: 0.9999998, z: 0.9999999}
        inSlope: {x: 0, y: 0, z: 0}
        outSlope: {x: 0, y: 0, z: 0}
        tangentMode: 0
        weightedMode: 0
        inWeight: {x: 0.33333334, y: 0.33333334, z: 0.33333334}
        outWeight: {x: 0.33333334, y: 0.33333334, z: 0.33333334}
      m_PreInfinity: 2
      m_PostInfinity: 2
      m_RotationOrder: 4
    path: Armature/Main/LowerBody/Tail
  m_FloatCurves: []
  m_PPtrCurves: []
  m_SampleRate: 24
  m_WrapMode: 0
  m_Bounds:
    m_Center: {x: 0, y: 0, z: 0}
    m_Extent: {x: 0, y: 0, z: 0}
  m_ClipBindingConstant:
    genericBindings:
    - serializedVersion: 2
      path: 361100003
      attribute: 1
      script: {fileID: 0}
      typeID: 4
      customType: 0
      isPPtrCurve: 0
    - serializedVersion: 2
      path: 2809313930
      attribute: 1
      script: {fileID: 0}
      typeID: 4
      customType: 0
      isPPtrCurve: 0
    - serializedVersion: 2
      path: 3724814091
      attribute: 1
      script: {fileID: 0}
      typeID: 4
      customType: 0
      isPPtrCurve: 0
    - serializedVersion: 2
      path: 604707432
      attribute: 1
      script: {fileID: 0}
      typeID: 4
      customType: 0
      isPPtrCurve: 0
    - serializedVersion: 2
      path: 325907562
      attribute: 1
      script: {fileID: 0}
      typeID: 4
      customType: 0
      isPPtrCurve: 0
    - serializedVersion: 2
      path: 2837010927
      attribute: 1
      script: {fileID: 0}
      typeID: 4
      customType: 0
      isPPtrCurve: 0
    - serializedVersion: 2
      path: 1393976460
      attribute: 1
      script: {fileID: 0}
      typeID: 4
      customType: 0
      isPPtrCurve: 0
    - serializedVersion: 2
      path: 361100003
      attribute: 2
      script: {fileID: 0}
      typeID: 4
      customType: 0
      isPPtrCurve: 0
    - serializedVersion: 2
      path: 3654365293
      attribute: 2
      script: {fileID: 0}
      typeID: 4
      customType: 0
      isPPtrCurve: 0
    - serializedVersion: 2
      path: 3993936762
      attribute: 2
      script: {fileID: 0}
      typeID: 4
      customType: 0
      isPPtrCurve: 0
    - serializedVersion: 2
      path: 2809313930
      attribute: 2
      script: {fileID: 0}
      typeID: 4
      customType: 0
      isPPtrCurve: 0
    - serializedVersion: 2
      path: 3724814091
      attribute: 2
      script: {fileID: 0}
      typeID: 4
      customType: 0
      isPPtrCurve: 0
    - serializedVersion: 2
      path: 604707432
      attribute: 2
      script: {fileID: 0}
      typeID: 4
      customType: 0
      isPPtrCurve: 0
    - serializedVersion: 2
      path: 2837010927
      attribute: 2
      script: {fileID: 0}
      typeID: 4
      customType: 0
      isPPtrCurve: 0
    - serializedVersion: 2
      path: 1393976460
      attribute: 2
      script: {fileID: 0}
      typeID: 4
      customType: 0
      isPPtrCurve: 0
    - serializedVersion: 2
      path: 361100003
      attribute: 3
      script: {fileID: 0}
      typeID: 4
      customType: 0
      isPPtrCurve: 0
    - serializedVersion: 2
      path: 2809313930
      attribute: 3
      script: {fileID: 0}
      typeID: 4
      customType: 0
      isPPtrCurve: 0
    - serializedVersion: 2
      path: 325907562
      attribute: 3
      script: {fileID: 0}
      typeID: 4
      customType: 0
      isPPtrCurve: 0
    - serializedVersion: 2
      path: 2837010927
      attribute: 3
      script: {fileID: 0}
      typeID: 4
      customType: 0
      isPPtrCurve: 0
    - serializedVersion: 2
      path: 1393976460
      attribute: 3
      script: {fileID: 0}
      typeID: 4
      customType: 0
      isPPtrCurve: 0
    - serializedVersion: 2
      path: 2104266162
      attribute: 1
      script: {fileID: 0}
      typeID: 4
      customType: 0
      isPPtrCurve: 0
    - serializedVersion: 2
      path: 3654365293
      attribute: 1
      script: {fileID: 0}
      typeID: 4
      customType: 0
      isPPtrCurve: 0
    - serializedVersion: 2
      path: 3993936762
      attribute: 1
      script: {fileID: 0}
      typeID: 4
      customType: 0
      isPPtrCurve: 0
    - serializedVersion: 2
      path: 2388897765
      attribute: 1
      script: {fileID: 0}
      typeID: 4
      customType: 0
      isPPtrCurve: 0
    - serializedVersion: 2
      path: 1650395895
      attribute: 1
      script: {fileID: 0}
      typeID: 4
      customType: 0
      isPPtrCurve: 0
    - serializedVersion: 2
      path: 2104266162
      attribute: 2
      script: {fileID: 0}
      typeID: 4
      customType: 0
      isPPtrCurve: 0
    - serializedVersion: 2
      path: 325907562
      attribute: 2
      script: {fileID: 0}
      typeID: 4
      customType: 0
      isPPtrCurve: 0
    - serializedVersion: 2
      path: 2388897765
      attribute: 2
      script: {fileID: 0}
      typeID: 4
      customType: 0
      isPPtrCurve: 0
    - serializedVersion: 2
      path: 1650395895
      attribute: 2
      script: {fileID: 0}
      typeID: 4
      customType: 0
      isPPtrCurve: 0
    - serializedVersion: 2
      path: 2104266162
      attribute: 3
      script: {fileID: 0}
      typeID: 4
      customType: 0
      isPPtrCurve: 0
    - serializedVersion: 2
      path: 3654365293
      attribute: 3
      script: {fileID: 0}
      typeID: 4
      customType: 0
      isPPtrCurve: 0
    - serializedVersion: 2
      path: 3993936762
      attribute: 3
      script: {fileID: 0}
      typeID: 4
      customType: 0
      isPPtrCurve: 0
    - serializedVersion: 2
      path: 3724814091
      attribute: 3
      script: {fileID: 0}
      typeID: 4
      customType: 0
      isPPtrCurve: 0
    - serializedVersion: 2
      path: 604707432
      attribute: 3
      script: {fileID: 0}
      typeID: 4
      customType: 0
      isPPtrCurve: 0
    - serializedVersion: 2
      path: 2388897765
      attribute: 3
      script: {fileID: 0}
      typeID: 4
      customType: 0
      isPPtrCurve: 0
    - serializedVersion: 2
      path: 1650395895
      attribute: 3
      script: {fileID: 0}
      typeID: 4
      customType: 0
      isPPtrCurve: 0
    pptrCurveMapping: []
  m_AnimationClipSettings:
    serializedVersion: 2
    m_AdditiveReferencePoseClip: {fileID: 0}
    m_AdditiveReferencePoseTime: 0
    m_StartTime: 0
    m_StopTime: 0.9583334
    m_OrientationOffsetY: 0
    m_Level: 0
    m_CycleOffset: 0
    m_HasAdditiveReferencePose: 0
    m_LoopTime: 0
    m_LoopBlend: 0
    m_LoopBlendOrientation: 0
    m_LoopBlendPositionY: 0
    m_LoopBlendPositionXZ: 0
    m_KeepOriginalOrientation: 0
    m_KeepOriginalPositionY: 1
    m_KeepOriginalPositionXZ: 0
    m_HeightFromFeet: 0
    m_Mirror: 0
  m_EditorCurves: []
  m_EulerEditorCurves: []
  m_HasGenericRootTransform: 0
  m_HasMotionFloatCurves: 0
  m_Events: []
