%YAML 1.1
%TAG !u! tag:unity3d.com,2011:
--- !u!74 &7400000
AnimationClip:
  m_ObjectHideFlags: 0
  m_CorrespondingSourceObject: {fileID: 0}
  m_PrefabInstance: {fileID: 0}
  m_PrefabAsset: {fileID: 0}
  m_Name: Fire_ExploAttackExecute
  serializedVersion: 6
  m_Legacy: 0
  m_Compressed: 0
  m_UseHighQualityCurve: 1
  m_RotationCurves:
  - curve:
      serializedVersion: 2
      m_Curve:
      - serializedVersion: 3
        time: 0
        value: {x: -0.7071068, y: 0, z: -0, w: 0.7071067}
        inSlope: {x: 0, y: 0, z: 0, w: 0}
        outSlope: {x: 0, y: 0, z: 0, w: 0}
        tangentMode: 0
        weightedMode: 0
        inWeight: {x: 0.33333334, y: 0.33333334, z: 0.33333334, w: 0.33333334}
        outWeight: {x: 0.33333334, y: 0.33333334, z: 0.33333334, w: 0.33333334}
      - serializedVersion: 3
        time: 0.5
        value: {x: -0.7071068, y: 0, z: -0, w: 0.7071067}
        inSlope: {x: 0, y: 0, z: 0, w: 0}
        outSlope: {x: 0, y: 0, z: 0, w: 0}
        tangentMode: 0
        weightedMode: 0
        inWeight: {x: 0.33333334, y: 0.33333334, z: 0.33333334, w: 0.33333334}
        outWeight: {x: 0.33333334, y: 0.33333334, z: 0.33333334, w: 0.33333334}
      m_PreInfinity: 2
      m_PostInfinity: 2
      m_RotationOrder: 4
    path: Armature
  - curve:
      serializedVersion: 2
      m_Curve:
      - serializedVersion: 3
        time: 0
        value: {x: 0.5945893, y: 8.02376e-18, z: 4.131601e-18, w: 0.8040296}
        inSlope: {x: 0.13199615, y: -1.6189241e-17, z: 1.1057244e-17, w: -0.09831476}
        outSlope: {x: 0.13199615, y: -1.6189241e-17, z: 1.1057244e-17, w: -0.09831476}
        tangentMode: 0
        weightedMode: 0
        inWeight: {x: 0.33333334, y: 0.33333334, z: 0.33333334, w: 0.33333334}
        outWeight: {x: 0.33333334, y: 0.33333334, z: 0.33333334, w: 0.33333334}
      - serializedVersion: 3
        time: 0.16666667
        value: {x: 0.62930083, y: 5.4648957e-18, z: 5.9415374e-18, w: 0.7771618}
        inSlope: {x: 0.0641334, y: -1.5948565e-17, z: 1.2491777e-17, w: -0.0515685}
        outSlope: {x: 0.0641334, y: -1.5948565e-17, z: 1.2491777e-17, w: -0.0515685}
        tangentMode: 0
        weightedMode: 0
        inWeight: {x: 0.33333334, y: 0.33333334, z: 0.33333334, w: 0.33333334}
        outWeight: {x: 0.33333334, y: 0.33333334, z: 0.33333334, w: 0.33333334}
      - serializedVersion: 3
        time: 0.5
        value: {x: 0.62930083, y: 9.032159e-27, z: 1.0273605e-17, w: 0.7771618}
        inSlope: {x: 0, y: -1.6394672e-17, z: 1.2996195e-17, w: 0}
        outSlope: {x: 0, y: -1.6394672e-17, z: 1.2996195e-17, w: 0}
        tangentMode: 0
        weightedMode: 0
        inWeight: {x: 0.33333334, y: 0.33333334, z: 0.33333334, w: 0.33333334}
        outWeight: {x: 0.33333334, y: 0.33333334, z: 0.33333334, w: 0.33333334}
      m_PreInfinity: 2
      m_PostInfinity: 2
      m_RotationOrder: 4
    path: Armature/Main
  - curve:
      serializedVersion: 2
      m_Curve:
      - serializedVersion: 3
        time: 0
        value: {x: 0.25659537, y: 0.01738303, z: 0.0017207655, w: 0.96636105}
        inSlope: {x: -1.2129217, y: -0.063248545, z: -0.017694041, w: 0.28961563}
        outSlope: {x: -1.2129217, y: -0.063248545, z: -0.017694041, w: 0.28961563}
        tangentMode: 0
        weightedMode: 0
        inWeight: {x: 0.33333334, y: 0.33333334, z: 0.33333334, w: 0.33333334}
        outWeight: {x: 0.33333334, y: 0.33333334, z: 0.33333334, w: 0.33333334}
      - serializedVersion: 3
        time: 0.041666668
        value: {x: 0.20605697, y: 0.014747674, z: 0.0009835138, w: 0.97842836}
        inSlope: {x: -1.9839933, y: -0.10392641, z: -0.028705087, w: 0.3531289}
        outSlope: {x: -1.9839933, y: -0.10392641, z: -0.028705087, w: 0.3531289}
        tangentMode: 0
        weightedMode: 0
        inWeight: {x: 0.33333334, y: 0.33333334, z: 0.33333334, w: 0.33333334}
        outWeight: {x: 0.33333334, y: 0.33333334, z: 0.33333334, w: 0.33333334}
      - serializedVersion: 3
        time: 0.083333336
        value: {x: 0.091262594, y: 0.008722495, z: -0.0006713251, w: 0.99578846}
        inSlope: {x: -2.7698693, y: -0.14601919, z: -0.039607227, w: 0.2551067}
        outSlope: {x: -2.7698693, y: -0.14601919, z: -0.039607227, w: 0.2551067}
        tangentMode: 0
        weightedMode: 0
        inWeight: {x: 0.33333334, y: 0.33333334, z: 0.33333334, w: 0.33333334}
        outWeight: {x: 0.33333334, y: 0.33333334, z: 0.33333334, w: 0.33333334}
      - serializedVersion: 3
        time: 0.125
        value: {x: -0.02476548, y: 0.0025794085, z: -0.0023170882, w: 0.99968725}
        inSlope: {x: -2.0149653, y: -0.106886625, z: -0.028477259, w: 0.015178449}
        outSlope: {x: -2.0149653, y: -0.106886625, z: -0.028477259, w: 0.015178449}
        tangentMode: 0
        weightedMode: 0
        inWeight: {x: 0.33333334, y: 0.33333334, z: 0.33333334, w: 0.33333334}
        outWeight: {x: 0.33333334, y: 0.33333334, z: 0.33333334, w: 0.33333334}
      - serializedVersion: 3
        time: 0.16666667
        value: {x: -0.076651186, y: -0.00018472389, z: -0.00304443, w: 0.9970533}
        inSlope: {x: -0.6226284, y: -0.033169582, z: -0.0087281, w: -0.031607147}
        outSlope: {x: -0.6226284, y: -0.033169582, z: -0.0087281, w: -0.031607147}
        tangentMode: 0
        weightedMode: 0
        inWeight: {x: 0.33333334, y: 0.33333334, z: 0.33333334, w: 0.33333334}
        outWeight: {x: 0.33333334, y: 0.33333334, z: 0.33333334, w: 0.33333334}
      - serializedVersion: 3
        time: 0.20833334
        value: {x: -0.076651186, y: -0.00018472389, z: -0.00304443, w: 0.9970533}
        inSlope: {x: 0, y: 0, z: 0, w: 0}
        outSlope: {x: 0, y: 0, z: 0, w: 0}
        tangentMode: 0
        weightedMode: 0
        inWeight: {x: 0.33333334, y: 0.33333334, z: 0.33333334, w: 0.33333334}
        outWeight: {x: 0.33333334, y: 0.33333334, z: 0.33333334, w: 0.33333334}
      - serializedVersion: 3
        time: 0.2916667
        value: {x: -0.076651186, y: -0.00018472389, z: -0.00304443, w: 0.9970533}
        inSlope: {x: 0.00000008940699, y: 0.000000007858036, z: 0, w: 0}
        outSlope: {x: 0.00000008940699, y: 0.000000007858036, z: 0, w: 0}
        tangentMode: 0
        weightedMode: 0
        inWeight: {x: 0.33333334, y: 0.33333334, z: 0.33333334, w: 0.33333334}
        outWeight: {x: 0.33333334, y: 0.33333334, z: 0.33333334, w: 0.33333334}
      - serializedVersion: 3
        time: 0.375
        value: {x: -0.04957998, y: 0.002573208, z: -0.0027473553, w: 0.9987631}
        inSlope: {x: 1.0438476, y: 0.1061029, z: 0.011524675, w: 0.034243584}
        outSlope: {x: 1.0438476, y: 0.1061029, z: 0.011524675, w: 0.034243584}
        tangentMode: 0
        weightedMode: 0
        inWeight: {x: 0.33333334, y: 0.33333334, z: 0.33333334, w: 0.33333334}
        outWeight: {x: 0.33333334, y: 0.33333334, z: 0.33333334, w: 0.33333334}
      - serializedVersion: 3
        time: 0.45833334
        value: {x: 0.070214726, y: 0.014709752, z: -0.0014131633, w: 0.99742246}
        inSlope: {x: 1.0428979, y: 0.10530775, z: 0.011716094, w: -0.0575967}
        outSlope: {x: 1.0428979, y: 0.10530775, z: 0.011716094, w: -0.0575967}
        tangentMode: 0
        weightedMode: 0
        inWeight: {x: 0.33333334, y: 0.33333334, z: 0.33333334, w: 0.33333334}
        outWeight: {x: 0.33333334, y: 0.33333334, z: 0.33333334, w: 0.33333334}
      - serializedVersion: 3
        time: 0.5
        value: {x: 0.09724429, y: 0.017432831, z: -0.0011076991, w: 0.99510723}
        inSlope: {x: 0.6487098, y: 0.065353915, z: 0.0073311413, w: -0.055565372}
        outSlope: {x: 0.6487098, y: 0.065353915, z: 0.0073311413, w: -0.055565372}
        tangentMode: 0
        weightedMode: 0
        inWeight: {x: 0.33333334, y: 0.33333334, z: 0.33333334, w: 0.33333334}
        outWeight: {x: 0.33333334, y: 0.33333334, z: 0.33333334, w: 0.33333334}
      m_PreInfinity: 2
      m_PostInfinity: 2
      m_RotationOrder: 4
    path: Armature/Main/Chest
  - curve:
      serializedVersion: 2
      m_Curve:
      - serializedVersion: 3
        time: 0
        value: {x: 0.20055932, y: -0.0013970471, z: 0.016915528, w: 0.9795345}
        inSlope: {x: -0.36365747, y: 0.0014258092, z: -0.016842976, w: 0.07182312}
        outSlope: {x: -0.36365747, y: 0.0014258092, z: -0.016842976, w: 0.07182312}
        tangentMode: 0
        weightedMode: 0
        inWeight: {x: 0.33333334, y: 0.33333334, z: 0.33333334, w: 0.33333334}
        outWeight: {x: 0.33333334, y: 0.33333334, z: 0.33333334, w: 0.33333334}
      - serializedVersion: 3
        time: 0.041666668
        value: {x: 0.18540692, y: -0.0013376384, z: 0.016213737, w: 0.98252714}
        inSlope: {x: -0.58421874, y: 0.0022968259, z: -0.027135652, w: 0.10507107}
        outSlope: {x: -0.58421874, y: 0.0022968259, z: -0.027135652, w: 0.10507107}
        tangentMode: 0
        weightedMode: 0
        inWeight: {x: 0.33333334, y: 0.33333334, z: 0.33333334, w: 0.33333334}
        outWeight: {x: 0.33333334, y: 0.33333334, z: 0.33333334, w: 0.33333334}
      - serializedVersion: 3
        time: 0.16666667
        value: {x: 0.10281714, y: -0.0010112813, z: 0.01235699, w: 0.994623}
        inSlope: {x: -0.18418325, y: 0.0007316465, z: -0.008648715, w: 0.02058935}
        outSlope: {x: -0.18418325, y: 0.0007316465, z: -0.008648715, w: 0.02058935}
        tangentMode: 0
        weightedMode: 0
        inWeight: {x: 0.33333334, y: 0.33333334, z: 0.33333334, w: 0.33333334}
        outWeight: {x: 0.33333334, y: 0.33333334, z: 0.33333334, w: 0.33333334}
      - serializedVersion: 3
        time: 0.375
        value: {x: 0.09654198, y: -0.00097165466, z: 0.012366463, w: 0.99525166}
        inSlope: {x: -0.24116245, y: 0.0015235335, z: 0.00034295386, w: 0.022469753}
        outSlope: {x: -0.24116245, y: 0.0015235335, z: 0.00034295386, w: 0.022469753}
        tangentMode: 0
        weightedMode: 0
        inWeight: {x: 0.33333334, y: 0.33333334, z: 0.33333334, w: 0.33333334}
        outWeight: {x: 0.33333334, y: 0.33333334, z: 0.33333334, w: 0.33333334}
      - serializedVersion: 3
        time: 0.5
        value: {x: 0.062589765, y: -0.000757001, z: 0.012409101, w: 0.99796194}
        inSlope: {x: -0.15103039, y: 0.0009555805, z: 0.00016343598, w: 0.00994921}
        outSlope: {x: -0.15103039, y: 0.0009555805, z: 0.00016343598, w: 0.00994921}
        tangentMode: 0
        weightedMode: 0
        inWeight: {x: 0.33333334, y: 0.33333334, z: 0.33333334, w: 0.33333334}
        outWeight: {x: 0.33333334, y: 0.33333334, z: 0.33333334, w: 0.33333334}
      m_PreInfinity: 2
      m_PostInfinity: 2
      m_RotationOrder: 4
    path: Armature/Main/Chest/Head
  - curve:
      serializedVersion: 2
      m_Curve:
      - serializedVersion: 3
        time: 0
        value: {x: -0.17362997, y: -0.003040699, z: -0.030294003, w: 0.98434025}
        inSlope: {x: 0.90637386, y: -0.0029490665, z: -0.4446107, w: 0.12428713}
        outSlope: {x: 0.90637386, y: -0.0029490665, z: -0.4446107, w: 0.12428713}
        tangentMode: 0
        weightedMode: 0
        inWeight: {x: 0.33333334, y: 0.33333334, z: 0.33333334, w: 0.33333334}
        outWeight: {x: 0.33333334, y: 0.33333334, z: 0.33333334, w: 0.33333334}
      - serializedVersion: 3
        time: 0.041666668
        value: {x: -0.13586439, y: -0.0031635768, z: -0.04881945, w: 0.9895189}
        inSlope: {x: 1.4700625, y: -0.0045048147, z: -0.7122096, w: 0.123776436}
        outSlope: {x: 1.4700625, y: -0.0045048147, z: -0.7122096, w: 0.123776436}
        tangentMode: 0
        weightedMode: 0
        inWeight: {x: 0.33333334, y: 0.33333334, z: 0.33333334, w: 0.33333334}
        outWeight: {x: 0.33333334, y: 0.33333334, z: 0.33333334, w: 0.33333334}
      - serializedVersion: 3
        time: 0.083333336
        value: {x: -0.05112476, y: -0.0034161003, z: -0.089644805, w: 0.99465495}
        inSlope: {x: 2.0391953, y: -0.0056967745, z: -0.97026217, w: 0.017347094}
        outSlope: {x: 2.0391953, y: -0.0056967745, z: -0.97026217, w: 0.017347094}
        tangentMode: 0
        weightedMode: 0
        inWeight: {x: 0.33333334, y: 0.33333334, z: 0.33333334, w: 0.33333334}
        outWeight: {x: 0.33333334, y: 0.33333334, z: 0.33333334, w: 0.33333334}
      - serializedVersion: 3
        time: 0.125
        value: {x: 0.034068543, y: -0.003638308, z: -0.12967463, w: 0.9909645}
        inSlope: {x: 1.4814963, y: -0.0037408462, z: -0.6921612, w: -0.09866738}
        outSlope: {x: 1.4814963, y: -0.0037408462, z: -0.6921612, w: -0.09866738}
        tangentMode: 0
        weightedMode: 0
        inWeight: {x: 0.33333334, y: 0.33333334, z: 0.33333334, w: 0.33333334}
        outWeight: {x: 0.33333334, y: 0.33333334, z: 0.33333334, w: 0.33333334}
      - serializedVersion: 3
        time: 0.20833334
        value: {x: 0.072333254, y: -0.0037278375, z: -0.1473249, w: 0.9864327}
        inSlope: {x: 0, y: 0, z: 0, w: 0}
        outSlope: {x: 0, y: 0, z: 0, w: 0}
        tangentMode: 0
        weightedMode: 0
        inWeight: {x: 0.33333334, y: 0.33333334, z: 0.33333334, w: 0.33333334}
        outWeight: {x: 0.33333334, y: 0.33333334, z: 0.33333334, w: 0.33333334}
      - serializedVersion: 3
        time: 0.33333334
        value: {x: 0.072333254, y: -0.003727838, z: -0.1473249, w: 0.9864327}
        inSlope: {x: -0.03650541, y: 0.005484331, z: 0.23083705, w: 0.03481365}
        outSlope: {x: -0.03650541, y: 0.005484331, z: 0.23083705, w: 0.03481365}
        tangentMode: 0
        weightedMode: 0
        inWeight: {x: 0.33333334, y: 0.33333334, z: 0.33333334, w: 0.33333334}
        outWeight: {x: 0.33333334, y: 0.33333334, z: 0.33333334, w: 0.33333334}
      - serializedVersion: 3
        time: 0.4166667
        value: {x: 0.06249013, y: -0.0022588621, z: -0.08550835, w: 0.9943733}
        inSlope: {x: -0.16463813, y: 0.02433789, z: 1.0238571, w: 0.09844563}
        outSlope: {x: -0.16463813, y: 0.02433789, z: 1.0238571, w: 0.09844563}
        tangentMode: 0
        weightedMode: 0
        inWeight: {x: 0.33333334, y: 0.33333334, z: 0.33333334, w: 0.33333334}
        outWeight: {x: 0.33333334, y: 0.33333334, z: 0.33333334, w: 0.33333334}
      - serializedVersion: 3
        time: 0.45833334
        value: {x: 0.05557129, y: -0.0012426523, z: -0.04276705, w: 0.9975376}
        inSlope: {x: -0.121104896, y: 0.01773573, z: 0.74588525, w: 0.04775549}
        outSlope: {x: -0.121104896, y: 0.01773573, z: 0.74588525, w: 0.04775549}
        tangentMode: 0
        weightedMode: 0
        inWeight: {x: 0.33333334, y: 0.33333334, z: 0.33333334, w: 0.33333334}
        outWeight: {x: 0.33333334, y: 0.33333334, z: 0.33333334, w: 0.33333334}
      - serializedVersion: 3
        time: 0.5
        value: {x: 0.05239806, y: -0.0007808848, z: -0.023351256, w: 0.99835294}
        inSlope: {x: -0.076157585, y: 0.011082422, z: 0.46597922, w: 0.019567972}
        outSlope: {x: -0.076157585, y: 0.011082422, z: 0.46597922, w: 0.019567972}
        tangentMode: 0
        weightedMode: 0
        inWeight: {x: 0.33333334, y: 0.33333334, z: 0.33333334, w: 0.33333334}
        outWeight: {x: 0.33333334, y: 0.33333334, z: 0.33333334, w: 0.33333334}
      m_PreInfinity: 2
      m_PostInfinity: 2
      m_RotationOrder: 4
    path: Armature/Main/Chest/Head/Headflame
  - curve:
      serializedVersion: 2
      m_Curve:
      - serializedVersion: 3
        time: 0
        value: {x: 0.39278707, y: 0.7571428, z: 0.47009656, w: -0.22685324}
        inSlope: {x: -0.40828657, y: -0.6575775, z: 2.1938775, w: 2.9301095}
        outSlope: {x: -0.40828657, y: -0.6575775, z: 2.1938775, w: 2.9301095}
        tangentMode: 0
        weightedMode: 0
        inWeight: {x: 0.33333334, y: 0.33333334, z: 0.33333334, w: 0.33333334}
        outWeight: {x: 0.33333334, y: 0.33333334, z: 0.33333334, w: 0.33333334}
      - serializedVersion: 3
        time: 0.041666668
        value: {x: 0.37577513, y: 0.7297437, z: 0.5615081, w: -0.10476533}
        inSlope: {x: -1.2751483, y: -2.2311802, z: 3.1742716, w: 5.457508}
        outSlope: {x: -1.2751483, y: -2.2311802, z: 3.1742716, w: 5.457508}
        tangentMode: 0
        weightedMode: 0
        inWeight: {x: 0.33333334, y: 0.33333334, z: 0.33333334, w: 0.33333334}
        outWeight: {x: 0.33333334, y: 0.33333334, z: 0.33333334, w: 0.33333334}
      - serializedVersion: 3
        time: 0.083333336
        value: {x: 0.2865247, y: 0.5712111, z: 0.7346192, w: 0.2279391}
        inSlope: {x: -2.7394404, y: -4.9958153, z: 2.6229172, w: 7.509628}
        outSlope: {x: -2.7394404, y: -4.9958153, z: 2.6229172, w: 7.509628}
        tangentMode: 0
        weightedMode: 0
        inWeight: {x: 0.33333334, y: 0.33333334, z: 0.33333334, w: 0.33333334}
        outWeight: {x: 0.33333334, y: 0.33333334, z: 0.33333334, w: 0.33333334}
      - serializedVersion: 3
        time: 0.125
        value: {x: 0.14748843, y: 0.31342578, z: 0.78008455, w: 0.521037}
        inSlope: {x: -2.3845844, y: -4.4429393, z: 0.32979307, w: 4.5749154}
        outSlope: {x: -2.3845844, y: -4.4429393, z: 0.32979307, w: 4.5749154}
        tangentMode: 0
        weightedMode: 0
        inWeight: {x: 0.33333334, y: 0.33333334, z: 0.33333334, w: 0.33333334}
        outWeight: {x: 0.33333334, y: 0.33333334, z: 0.33333334, w: 0.33333334}
      - serializedVersion: 3
        time: 0.16666667
        value: {x: 0.08780934, y: 0.20096618, z: 0.76210195, w: 0.60918206}
        inSlope: {x: -0.71614903, y: -1.3495151, z: -0.2157912, w: 1.0577408}
        outSlope: {x: -0.71614903, y: -1.3495151, z: -0.2157912, w: 1.0577408}
        tangentMode: 0
        weightedMode: 0
        inWeight: {x: 0.33333334, y: 0.33333334, z: 0.33333334, w: 0.33333334}
        outWeight: {x: 0.33333334, y: 0.33333334, z: 0.33333334, w: 0.33333334}
      - serializedVersion: 3
        time: 0.20833334
        value: {x: 0.08780934, y: 0.20096618, z: 0.76210195, w: 0.60918206}
        inSlope: {x: 0, y: 0, z: 0, w: 0}
        outSlope: {x: 0, y: 0, z: 0, w: 0}
        tangentMode: 0
        weightedMode: 0
        inWeight: {x: 0.33333334, y: 0.33333334, z: 0.33333334, w: 0.33333334}
        outWeight: {x: 0.33333334, y: 0.33333334, z: 0.33333334, w: 0.33333334}
      - serializedVersion: 3
        time: 0.2916667
        value: {x: 0.08780934, y: 0.20096618, z: 0.76210195, w: 0.60918206}
        inSlope: {x: 0, y: 0, z: 0, w: 0}
        outSlope: {x: 0, y: 0, z: 0, w: 0}
        tangentMode: 0
        weightedMode: 0
        inWeight: {x: 0.33333334, y: 0.33333334, z: 0.33333334, w: 0.33333334}
        outWeight: {x: 0.33333334, y: 0.33333334, z: 0.33333334, w: 0.33333334}
      - serializedVersion: 3
        time: 0.33333334
        value: {x: 0.08780934, y: 0.20096618, z: 0.76210195, w: 0.60918206}
        inSlope: {x: 0.09271469, y: 0.3709859, z: 0.47118628, w: -0.79346627}
        outSlope: {x: 0.09271469, y: 0.3709859, z: 0.47118628, w: -0.79346627}
        tangentMode: 0
        weightedMode: 0
        inWeight: {x: 0.33333334, y: 0.33333334, z: 0.33333334, w: 0.33333334}
        outWeight: {x: 0.33333334, y: 0.33333334, z: 0.33333334, w: 0.33333334}
      - serializedVersion: 3
        time: 0.375
        value: {x: 0.09553556, y: 0.23188166, z: 0.80136746, w: 0.5430599}
        inSlope: {x: 0.27463838, y: 1.1461327, z: 1.2966232, w: -2.7774255}
        outSlope: {x: 0.27463838, y: 1.1461327, z: 1.2966232, w: -2.7774255}
        tangentMode: 0
        weightedMode: 0
        inWeight: {x: 0.33333334, y: 0.33333334, z: 0.33333334, w: 0.33333334}
        outWeight: {x: 0.33333334, y: 0.33333334, z: 0.33333334, w: 0.33333334}
      - serializedVersion: 3
        time: 0.4166667
        value: {x: 0.110695876, y: 0.29647726, z: 0.8701539, w: 0.37772986}
        inSlope: {x: 0.3154059, y: 1.4205501, z: 1.2700815, w: -4.133223}
        outSlope: {x: 0.3154059, y: 1.4205501, z: 1.2700815, w: -4.133223}
        tangentMode: 0
        weightedMode: 0
        inWeight: {x: 0.33333334, y: 0.33333334, z: 0.33333334, w: 0.33333334}
        outWeight: {x: 0.33333334, y: 0.33333334, z: 0.33333334, w: 0.33333334}
      - serializedVersion: 3
        time: 0.45833334
        value: {x: 0.12181939, y: 0.35026085, z: 0.9072076, w: 0.19862458}
        inSlope: {x: 0.175155, y: 0.8796879, z: 0.51461947, w: -3.1168933}
        outSlope: {x: 0.175155, y: 0.8796879, z: 0.51461947, w: -3.1168933}
        tangentMode: 0
        weightedMode: 0
        inWeight: {x: 0.33333334, y: 0.33333334, z: 0.33333334, w: 0.33333334}
        outWeight: {x: 0.33333334, y: 0.33333334, z: 0.33333334, w: 0.33333334}
      - serializedVersion: 3
        time: 0.5
        value: {x: 0.12529212, y: 0.36978456, z: 0.91303885, w: 0.11798882}
        inSlope: {x: 0.083345555, y: 0.46856916, z: 0.13994983, w: -1.9352587}
        outSlope: {x: 0.083345555, y: 0.46856916, z: 0.13994983, w: -1.9352587}
        tangentMode: 0
        weightedMode: 0
        inWeight: {x: 0.33333334, y: 0.33333334, z: 0.33333334, w: 0.33333334}
        outWeight: {x: 0.33333334, y: 0.33333334, z: 0.33333334, w: 0.33333334}
      m_PreInfinity: 2
      m_PostInfinity: 2
      m_RotationOrder: 4
    path: Armature/Main/Chest/Arm.L
  - curve:
      serializedVersion: 2
      m_Curve:
      - serializedVersion: 3
        time: 0
        value: {x: -0.2084711, y: 0.7922579, z: 0.40753418, w: 0.40346384}
        inSlope: {x: -0.15985501, y: -0.288002, z: 2.6338005, w: -3.0086389}
        outSlope: {x: -0.15985501, y: -0.288002, z: 2.6338005, w: -3.0086389}
        tangentMode: 0
        weightedMode: 0
        inWeight: {x: 0.33333334, y: 0.33333334, z: 0.33333334, w: 0.33333334}
        outWeight: {x: 0.33333334, y: 0.33333334, z: 0.33333334, w: 0.33333334}
      - serializedVersion: 3
        time: 0.041666668
        value: {x: -0.21513173, y: 0.7802578, z: 0.51727587, w: 0.2781039}
        inSlope: {x: 0.08615863, y: -1.9391785, z: 4.009568, w: -6.1386423}
        outSlope: {x: 0.08615863, y: -1.9391785, z: 4.009568, w: -6.1386423}
        tangentMode: 0
        weightedMode: 0
        inWeight: {x: 0.33333334, y: 0.33333334, z: 0.33333334, w: 0.33333334}
        outWeight: {x: 0.33333334, y: 0.33333334, z: 0.33333334, w: 0.33333334}
      - serializedVersion: 3
        time: 0.083333336
        value: {x: -0.20129122, y: 0.6306597, z: 0.7416649, w: -0.10808968}
        inSlope: {x: 0.86857533, y: -5.2709336, z: 3.408944, w: -8.980604}
        outSlope: {x: 0.86857533, y: -5.2709336, z: 3.408944, w: -8.980604}
        tangentMode: 0
        weightedMode: 0
        inWeight: {x: 0.33333334, y: 0.33333334, z: 0.33333334, w: 0.33333334}
        outWeight: {x: 0.33333334, y: 0.33333334, z: 0.33333334, w: 0.33333334}
      - serializedVersion: 3
        time: 0.125
        value: {x: -0.14275046, y: 0.34101337, z: 0.8013545, w: -0.47027984}
        inSlope: {x: 1.0511433, y: -4.962523, z: 0.45406517, w: -5.6204624}
        outSlope: {x: 1.0511433, y: -4.962523, z: 0.45406517, w: -5.6204624}
        tangentMode: 0
        weightedMode: 0
        inWeight: {x: 0.33333334, y: 0.33333334, z: 0.33333334, w: 0.33333334}
        outWeight: {x: 0.33333334, y: 0.33333334, z: 0.33333334, w: 0.33333334}
      - serializedVersion: 3
        time: 0.16666667
        value: {x: -0.11369595, y: 0.21711612, z: 0.77950364, w: -0.57646155}
        inSlope: {x: 0.34865406, y: -1.4867669, z: -0.26221058, w: -1.2741804}
        outSlope: {x: 0.34865406, y: -1.4867669, z: -0.26221058, w: -1.2741804}
        tangentMode: 0
        weightedMode: 0
        inWeight: {x: 0.33333334, y: 0.33333334, z: 0.33333334, w: 0.33333334}
        outWeight: {x: 0.33333334, y: 0.33333334, z: 0.33333334, w: 0.33333334}
      - serializedVersion: 3
        time: 0.20833334
        value: {x: -0.11369595, y: 0.21711612, z: 0.77950364, w: -0.57646155}
        inSlope: {x: 0, y: 0, z: 0, w: 0}
        outSlope: {x: 0, y: 0, z: 0, w: 0}
        tangentMode: 0
        weightedMode: 0
        inWeight: {x: 0.33333334, y: 0.33333334, z: 0.33333334, w: 0.33333334}
        outWeight: {x: 0.33333334, y: 0.33333334, z: 0.33333334, w: 0.33333334}
      - serializedVersion: 3
        time: 0.2916667
        value: {x: -0.11369595, y: 0.21711612, z: 0.77950364, w: -0.57646155}
        inSlope: {x: 0, y: 0, z: 0, w: 0}
        outSlope: {x: 0, y: 0, z: 0, w: 0}
        tangentMode: 0
        weightedMode: 0
        inWeight: {x: 0.33333334, y: 0.33333334, z: 0.33333334, w: 0.33333334}
        outWeight: {x: 0.33333334, y: 0.33333334, z: 0.33333334, w: 0.33333334}
      - serializedVersion: 3
        time: 0.33333334
        value: {x: -0.11369595, y: 0.21711612, z: 0.77950364, w: -0.57646155}
        inSlope: {x: 0.15191615, y: 0.19251274, z: 0.5334207, w: 0.839729}
        outSlope: {x: 0.15191615, y: 0.19251274, z: 0.5334207, w: 0.839729}
        tangentMode: 0
        weightedMode: 0
        inWeight: {x: 0.33333334, y: 0.33333334, z: 0.33333334, w: 0.33333334}
        outWeight: {x: 0.33333334, y: 0.33333334, z: 0.33333334, w: 0.33333334}
      - serializedVersion: 3
        time: 0.375
        value: {x: -0.10103627, y: 0.23315884, z: 0.82395536, w: -0.50648415}
        inSlope: {x: 0.5333772, y: 0.55617666, z: 1.4820918, w: 2.9310458}
        outSlope: {x: 0.5333772, y: 0.55617666, z: 1.4820918, w: 2.9310458}
        tangentMode: 0
        weightedMode: 0
        inWeight: {x: 0.33333334, y: 0.33333334, z: 0.33333334, w: 0.33333334}
        outWeight: {x: 0.33333334, y: 0.33333334, z: 0.33333334, w: 0.33333334}
      - serializedVersion: 3
        time: 0.4166667
        value: {x: -0.06924784, y: 0.26346418, z: 0.9030113, w: -0.33220768}
        inSlope: {x: 0.7949528, y: 0.60544795, z: 1.4795963, w: 4.3363123}
        outSlope: {x: 0.7949528, y: 0.60544795, z: 1.4795963, w: 4.3363123}
        tangentMode: 0
        weightedMode: 0
        inWeight: {x: 0.33333334, y: 0.33333334, z: 0.33333334, w: 0.33333334}
        outWeight: {x: 0.33333334, y: 0.33333334, z: 0.33333334, w: 0.33333334}
      - serializedVersion: 3
        time: 0.45833334
        value: {x: -0.0347902, y: 0.28361285, z: 0.9472551, w: -0.14512475}
        inSlope: {x: 0.59905314, y: 0.30629402, z: 0.62562644, w: 3.2461283}
        outSlope: {x: 0.59905314, y: 0.30629402, z: 0.62562644, w: 3.2461283}
        tangentMode: 0
        weightedMode: 0
        inWeight: {x: 0.33333334, y: 0.33333334, z: 0.33333334, w: 0.33333334}
        outWeight: {x: 0.33333334, y: 0.33333334, z: 0.33333334, w: 0.33333334}
      - serializedVersion: 3
        time: 0.5
        value: {x: -0.01932676, y: 0.28898868, z: 0.95514685, w: -0.061697043}
        inSlope: {x: 0.37112263, y: 0.12902, z: 0.18940262, w: 2.0022655}
        outSlope: {x: 0.37112263, y: 0.12902, z: 0.18940262, w: 2.0022655}
        tangentMode: 0
        weightedMode: 0
        inWeight: {x: 0.33333334, y: 0.33333334, z: 0.33333334, w: 0.33333334}
        outWeight: {x: 0.33333334, y: 0.33333334, z: 0.33333334, w: 0.33333334}
      m_PreInfinity: 2
      m_PostInfinity: 2
      m_RotationOrder: 4
    path: Armature/Main/Chest/Arm.R
  - curve:
      serializedVersion: 2
      m_Curve:
      - serializedVersion: 3
        time: 0
        value: {x: 0.07153597, y: 0.00016910779, z: 0.0030453329, w: 0.99743336}
        inSlope: {x: 0.26625985, y: 0.00081300514, z: -0.000049682334, w: -0.02058649}
        outSlope: {x: 0.26625985, y: 0.00081300514, z: -0.000049682334, w: -0.02058649}
        tangentMode: 0
        weightedMode: 0
        inWeight: {x: 0.33333334, y: 0.33333334, z: 0.33333334, w: 0.33333334}
        outWeight: {x: 0.33333334, y: 0.33333334, z: 0.33333334, w: 0.33333334}
      - serializedVersion: 3
        time: 0.083333336
        value: {x: 0.107016705, y: 0.0002774674, z: 0.0030373775, w: 0.99425256}
        inSlope: {x: 0.58450794, y: 0.0017856297, z: -0.00016311742, w: -0.06291318}
        outSlope: {x: 0.58450794, y: 0.0017856297, z: -0.00016311742, w: -0.06291318}
        tangentMode: 0
        weightedMode: 0
        inWeight: {x: 0.33333334, y: 0.33333334, z: 0.33333334, w: 0.33333334}
        outWeight: {x: 0.33333334, y: 0.33333334, z: 0.33333334, w: 0.33333334}
      - serializedVersion: 3
        time: 0.16666667
        value: {x: 0.14236172, y: 0.00038547517, z: 0.003025568, w: 0.98981005}
        inSlope: {x: 0.13227116, y: 0.0004042738, z: -0.000049218528, w: -0.018273352}
        outSlope: {x: 0.13227116, y: 0.0004042738, z: -0.000049218528, w: -0.018273352}
        tangentMode: 0
        weightedMode: 0
        inWeight: {x: 0.33333334, y: 0.33333334, z: 0.33333334, w: 0.33333334}
        outWeight: {x: 0.33333334, y: 0.33333334, z: 0.33333334, w: 0.33333334}
      - serializedVersion: 3
        time: 0.2916667
        value: {x: 0.14236172, y: 0.0003854746, z: 0.003025568, w: 0.98981005}
        inSlope: {x: 0, y: -0.0000000045401976, z: 0, w: 0}
        outSlope: {x: 0, y: -0.0000000045401976, z: 0, w: 0}
        tangentMode: 0
        weightedMode: 0
        inWeight: {x: 0.33333334, y: 0.33333334, z: 0.33333334, w: 0.33333334}
        outWeight: {x: 0.33333334, y: 0.33333334, z: 0.33333334, w: 0.33333334}
      - serializedVersion: 3
        time: 0.375
        value: {x: 0.13133907, y: 0.00035178417, z: 0.0030296699, w: 0.9913328}
        inSlope: {x: -0.42413992, y: -0.001296101, z: 0.00014172119, w: 0.053310145}
        outSlope: {x: -0.42413992, y: -0.001296101, z: 0.00014172119, w: 0.053310145}
        tangentMode: 0
        weightedMode: 0
        inWeight: {x: 0.33333334, y: 0.33333334, z: 0.33333334, w: 0.33333334}
        outWeight: {x: 0.33333334, y: 0.33333334, z: 0.33333334, w: 0.33333334}
      - serializedVersion: 3
        time: 0.45833334
        value: {x: 0.08263013, y: 0.0002029811, z: 0.0030432637, w: 0.99657565}
        inSlope: {x: -0.42576903, y: -0.0013003255, z: 0.00009546431, w: 0.038169634}
        outSlope: {x: -0.42576903, y: -0.0013003255, z: 0.00009546431, w: 0.038169634}
        tangentMode: 0
        weightedMode: 0
        inWeight: {x: 0.33333334, y: 0.33333334, z: 0.33333334, w: 0.33333334}
        outWeight: {x: 0.33333334, y: 0.33333334, z: 0.33333334, w: 0.33333334}
      - serializedVersion: 3
        time: 0.5
        value: {x: 0.07153597, y: 0.00016910551, z: 0.0030453335, w: 0.99743336}
        inSlope: {x: -0.2662599, y: -0.0008130144, z: 0.000049676757, w: 0.020585066}
        outSlope: {x: -0.2662599, y: -0.0008130144, z: 0.000049676757, w: 0.020585066}
        tangentMode: 0
        weightedMode: 0
        inWeight: {x: 0.33333334, y: 0.33333334, z: 0.33333334, w: 0.33333334}
        outWeight: {x: 0.33333334, y: 0.33333334, z: 0.33333334, w: 0.33333334}
      m_PreInfinity: 2
      m_PostInfinity: 2
      m_RotationOrder: 4
    path: Armature/Main/Chest/Chestflame
  - curve:
      serializedVersion: 2
      m_Curve:
      - serializedVersion: 3
        time: 0
        value: {x: -0.03435549, y: -0.00031942167, z: -0.0035032348, w: 0.9994035}
        inSlope: {x: 0.15574662, y: 0.0032467074, z: -0.27122876, w: 0.002366066}
        outSlope: {x: 0.15574662, y: 0.0032467074, z: -0.27122876, w: 0.002366066}
        tangentMode: 0
        weightedMode: 0
        inWeight: {x: 0.33333334, y: 0.33333334, z: 0.33333334, w: 0.33333334}
        outWeight: {x: 0.33333334, y: 0.33333334, z: 0.33333334, w: 0.33333334}
      - serializedVersion: 3
        time: 0.083333336
        value: {x: -0.013560171, y: 0.00011384718, z: -0.039679836, w: 0.9991204}
        inSlope: {x: 0.34347504, y: 0.0071506007, z: -0.5966172, w: -0.019034386}
        outSlope: {x: 0.34347504, y: 0.0071506007, z: -0.5966172, w: -0.019034386}
        tangentMode: 0
        weightedMode: 0
        inWeight: {x: 0.33333334, y: 0.33333334, z: 0.33333334, w: 0.33333334}
        outWeight: {x: 0.33333334, y: 0.33333334, z: 0.33333334, w: 0.33333334}
      - serializedVersion: 3
        time: 0.16666667
        value: {x: 0.007258761, y: 0.0005469198, z: -0.07578733, w: 0.99709743}
        inSlope: {x: 0.07802267, y: 0.0016221436, z: -0.13517751, w: -0.009821176}
        outSlope: {x: 0.07802267, y: 0.0016221436, z: -0.13517751, w: -0.009821176}
        tangentMode: 0
        weightedMode: 0
        inWeight: {x: 0.33333334, y: 0.33333334, z: 0.33333334, w: 0.33333334}
        outWeight: {x: 0.33333334, y: 0.33333334, z: 0.33333334, w: 0.33333334}
      - serializedVersion: 3
        time: 0.2916667
        value: {x: 0.007258761, y: 0.0005469198, z: -0.07578733, w: 0.99709743}
        inSlope: {x: 0, y: 0, z: 0, w: 0}
        outSlope: {x: 0, y: 0, z: 0, w: 0}
        tangentMode: 0
        weightedMode: 0
        inWeight: {x: 0.33333334, y: 0.33333334, z: 0.33333334, w: 0.33333334}
        outWeight: {x: 0.33333334, y: 0.33333334, z: 0.33333334, w: 0.33333334}
      - serializedVersion: 3
        time: 0.375
        value: {x: 0.0072645657, y: 0.00046323493, z: -0.06429207, w: 0.9979046}
        inSlope: {x: 0.0001826584, y: -0.0032175612, z: 0.44198528, w: 0.025404448}
        outSlope: {x: 0.0001826584, y: -0.0032175612, z: 0.44198528, w: 0.025404448}
        tangentMode: 0
        weightedMode: 0
        inWeight: {x: 0.33333334, y: 0.33333334, z: 0.33333334, w: 0.33333334}
        outWeight: {x: 0.33333334, y: 0.33333334, z: 0.33333334, w: 0.33333334}
      - serializedVersion: 3
        time: 0.45833334
        value: {x: 0.007278715, y: 0.0000941641, z: -0.013593277, w: 0.99988115}
        inSlope: {x: 0.0000640154, y: -0.0032221833, z: 0.44262177, w: 0.0090830345}
        outSlope: {x: 0.0000640154, y: -0.0032221833, z: 0.44262177, w: 0.0090830345}
        tangentMode: 0
        weightedMode: 0
        inWeight: {x: 0.33333334, y: 0.33333334, z: 0.33333334, w: 0.33333334}
        outWeight: {x: 0.33333334, y: 0.33333334, z: 0.33333334, w: 0.33333334}
      - serializedVersion: 3
        time: 0.5
        value: {x: 0.0072793174, y: 0.00001027442, z: -0.002070074, w: 0.9999714}
        inSlope: {x: 0.000014461581, y: -0.002013353, z: 0.27655694, w: 0.0021657948}
        outSlope: {x: 0.000014461581, y: -0.002013353, z: 0.27655694, w: 0.0021657948}
        tangentMode: 0
        weightedMode: 0
        inWeight: {x: 0.33333334, y: 0.33333334, z: 0.33333334, w: 0.33333334}
        outWeight: {x: 0.33333334, y: 0.33333334, z: 0.33333334, w: 0.33333334}
      m_PreInfinity: 2
      m_PostInfinity: 2
      m_RotationOrder: 4
    path: Armature/Main/Chest/Shoulder.L
  - curve:
      serializedVersion: 2
      m_Curve:
      - serializedVersion: 3
        time: 0
        value: {x: -0.013075316, y: 0.00022910745, z: 0.007032154, w: 0.9998898}
        inSlope: {x: 0.293099, y: 0.025356896, z: 0.48964363, w: -0.006415844}
        outSlope: {x: 0.293099, y: 0.025356896, z: 0.48964363, w: -0.006415844}
        tangentMode: 0
        weightedMode: 0
        inWeight: {x: 0.33333334, y: 0.33333334, z: 0.33333334, w: 0.33333334}
        outWeight: {x: 0.33333334, y: 0.33333334, z: 0.33333334, w: 0.33333334}
      - serializedVersion: 3
        time: 0.041666668
        value: {x: -0.00086285814, y: 0.0012856448, z: 0.027433973, w: 0.99962246}
        inSlope: {x: 0.4699213, y: 0.040621802, z: 0.784343, w: -0.034336567}
        outSlope: {x: 0.4699213, y: 0.040621802, z: 0.784343, w: -0.034336567}
        tangentMode: 0
        weightedMode: 0
        inWeight: {x: 0.33333334, y: 0.33333334, z: 0.33333334, w: 0.33333334}
        outWeight: {x: 0.33333334, y: 0.33333334, z: 0.33333334, w: 0.33333334}
      - serializedVersion: 3
        time: 0.125
        value: {x: 0.05296045, y: 0.005932892, z: 0.11715438, w: 0.9916828}
        inSlope: {x: 0.46809763, y: 0.04036916, z: 0.7792824, w: -0.10403323}
        outSlope: {x: 0.46809763, y: 0.04036916, z: 0.7792824, w: -0.10403323}
        tangentMode: 0
        weightedMode: 0
        inWeight: {x: 0.33333334, y: 0.33333334, z: 0.33333334, w: 0.33333334}
        outWeight: {x: 0.33333334, y: 0.33333334, z: 0.33333334, w: 0.33333334}
      - serializedVersion: 3
        time: 0.25
        value: {x: 0.06509293, y: 0.0069783544, z: 0.13733427, w: 0.988359}
        inSlope: {x: 0, y: 0, z: 0, w: 0}
        outSlope: {x: 0, y: 0, z: 0, w: 0}
        tangentMode: 0
        weightedMode: 0
        inWeight: {x: 0.33333334, y: 0.33333334, z: 0.33333334, w: 0.33333334}
        outWeight: {x: 0.33333334, y: 0.33333334, z: 0.33333334, w: 0.33333334}
      - serializedVersion: 3
        time: 0.375
        value: {x: 0.06148499, y: 0.0061923806, z: 0.11923431, w: 0.99094117}
        inSlope: {x: -0.13962169, y: -0.030309955, z: -0.6976505, w: 0.08466838}
        outSlope: {x: -0.13962169, y: -0.030309955, z: -0.6976505, w: 0.08466838}
        tangentMode: 0
        weightedMode: 0
        inWeight: {x: 0.33333334, y: 0.33333334, z: 0.33333334, w: 0.33333334}
        outWeight: {x: 0.33333334, y: 0.33333334, z: 0.33333334, w: 0.33333334}
      - serializedVersion: 3
        time: 0.45833334
        value: {x: 0.045340214, y: 0.0027051473, z: 0.039025202, w: 0.9982054}
        inSlope: {x: -0.14191285, y: -0.030500755, z: -0.7010454, w: 0.04200626}
        outSlope: {x: -0.14191285, y: -0.030500755, z: -0.7010454, w: 0.04200626}
        tangentMode: 0
        weightedMode: 0
        inWeight: {x: 0.33333334, y: 0.33333334, z: 0.33333334, w: 0.33333334}
        outWeight: {x: 0.33333334, y: 0.33333334, z: 0.33333334, w: 0.33333334}
      - serializedVersion: 3
        time: 0.5
        value: {x: 0.041631717, y: 0.0019107949, z: 0.020776263, w: 0.9989152}
        inSlope: {x: -0.08900394, y: -0.019064462, z: -0.43797466, w: 0.017034534}
        outSlope: {x: -0.08900394, y: -0.019064462, z: -0.43797466, w: 0.017034534}
        tangentMode: 0
        weightedMode: 0
        inWeight: {x: 0.33333334, y: 0.33333334, z: 0.33333334, w: 0.33333334}
        outWeight: {x: 0.33333334, y: 0.33333334, z: 0.33333334, w: 0.33333334}
      m_PreInfinity: 2
      m_PostInfinity: 2
      m_RotationOrder: 4
    path: Armature/Main/Chest/Shoulder.R
  - curve:
      serializedVersion: 2
      m_Curve:
      - serializedVersion: 3
        time: 0
        value: {x: 0.77141637, y: 0.030228738, z: -0.63278174, w: -0.059919227}
        inSlope: {x: -0.2676344, y: 0.4369347, z: -0.2562275, w: -0.36008003}
        outSlope: {x: -0.2676344, y: 0.4369347, z: -0.2562275, w: -0.36008003}
        tangentMode: 0
        weightedMode: 0
        inWeight: {x: 0.33333334, y: 0.33333334, z: 0.33333334, w: 0.33333334}
        outWeight: {x: 0.33333334, y: 0.33333334, z: 0.33333334, w: 0.33333334}
      - serializedVersion: 3
        time: 0.041666668
        value: {x: 0.76026493, y: 0.04843435, z: -0.6434579, w: -0.07492256}
        inSlope: {x: -0.45515013, y: 0.6994302, z: -0.3893566, w: -0.5752619}
        outSlope: {x: -0.45515013, y: 0.6994302, z: -0.3893566, w: -0.5752619}
        tangentMode: 0
        weightedMode: 0
        inWeight: {x: 0.33333334, y: 0.33333334, z: 0.33333334, w: 0.33333334}
        outWeight: {x: 0.33333334, y: 0.33333334, z: 0.33333334, w: 0.33333334}
      - serializedVersion: 3
        time: 0.125
        value: {x: 0.7038612, y: 0.12825194, z: -0.6844161, w: -0.14037605}
        inSlope: {x: -0.52722716, y: 0.69074655, z: -0.3240087, w: -0.5647166}
        outSlope: {x: -0.52722716, y: 0.69074655, z: -0.3240087, w: -0.5647166}
        tangentMode: 0
        weightedMode: 0
        inWeight: {x: 0.33333334, y: 0.33333334, z: 0.33333334, w: 0.33333334}
        outWeight: {x: 0.33333334, y: 0.33333334, z: 0.33333334, w: 0.33333334}
      - serializedVersion: 3
        time: 0.25
        value: {x: 0.6895516, y: 0.1460768, z: -0.69222885, w: -0.15491743}
        inSlope: {x: 0, y: 0, z: 0, w: 0}
        outSlope: {x: 0, y: 0, z: 0, w: 0}
        tangentMode: 0
        weightedMode: 0
        inWeight: {x: 0.33333334, y: 0.33333334, z: 0.33333334, w: 0.33333334}
        outWeight: {x: 0.33333334, y: 0.33333334, z: 0.33333334, w: 0.33333334}
      - serializedVersion: 3
        time: 0.375
        value: {x: 0.7038612, y: 0.12825209, z: -0.6844162, w: -0.14037581}
        inSlope: {x: 0.5272263, y: -0.69074774, z: 0.3240079, w: 0.5647145}
        outSlope: {x: 0.5272263, y: -0.69074774, z: 0.3240079, w: 0.5647145}
        tangentMode: 0
        weightedMode: 0
        inWeight: {x: 0.33333334, y: 0.33333334, z: 0.33333334, w: 0.33333334}
        outWeight: {x: 0.33333334, y: 0.33333334, z: 0.33333334, w: 0.33333334}
      - serializedVersion: 3
        time: 0.45833334
        value: {x: 0.76026493, y: 0.048434407, z: -0.64345783, w: -0.07492256}
        inSlope: {x: 0.45515025, y: -0.6994241, z: 0.38935527, w: 0.5752678}
        outSlope: {x: 0.45515025, y: -0.6994241, z: 0.38935527, w: 0.5752678}
        tangentMode: 0
        weightedMode: 0
        inWeight: {x: 0.33333334, y: 0.33333334, z: 0.33333334, w: 0.33333334}
        outWeight: {x: 0.33333334, y: 0.33333334, z: 0.33333334, w: 0.33333334}
      - serializedVersion: 3
        time: 0.5
        value: {x: 0.7714163, y: 0.030229142, z: -0.6327819, w: -0.05991891}
        inSlope: {x: 0.26763302, y: -0.43692645, z: 0.25622183, w: 0.36008772}
        outSlope: {x: 0.26763302, y: -0.43692645, z: 0.25622183, w: 0.36008772}
        tangentMode: 0
        weightedMode: 0
        inWeight: {x: 0.33333334, y: 0.33333334, z: 0.33333334, w: 0.33333334}
        outWeight: {x: 0.33333334, y: 0.33333334, z: 0.33333334, w: 0.33333334}
      m_PreInfinity: 2
      m_PostInfinity: 2
      m_RotationOrder: 4
    path: Armature/Main/LowerBody
  - curve:
      serializedVersion: 2
      m_Curve:
      - serializedVersion: 3
        time: 0
        value: {x: -0.022543728, y: -0.0031349105, z: -0.22568387, w: 0.9739347}
        inSlope: {x: 0, y: 0, z: 0, w: 0}
        outSlope: {x: 0, y: 0, z: 0, w: 0}
        tangentMode: 0
        weightedMode: 0
        inWeight: {x: 0.33333334, y: 0.33333334, z: 0.33333334, w: 0.33333334}
        outWeight: {x: 0.33333334, y: 0.33333334, z: 0.33333334, w: 0.33333334}
      - serializedVersion: 3
        time: 0.5
        value: {x: -0.022543728, y: -0.0031349105, z: -0.22568387, w: 0.9739347}
        inSlope: {x: 0, y: 0, z: 0, w: 0}
        outSlope: {x: 0, y: 0, z: 0, w: 0}
        tangentMode: 0
        weightedMode: 0
        inWeight: {x: 0.33333334, y: 0.33333334, z: 0.33333334, w: 0.33333334}
        outWeight: {x: 0.33333334, y: 0.33333334, z: 0.33333334, w: 0.33333334}
      m_PreInfinity: 2
      m_PostInfinity: 2
      m_RotationOrder: 4
    path: Armature/Main/LowerBody/Tail
  m_CompressedRotationCurves: []
  m_EulerCurves: []
  m_PositionCurves:
  - curve:
      serializedVersion: 2
      m_Curve:
      - serializedVersion: 3
        time: 0
        value: {x: -0.01637976, y: 4.7009907, z: 0.0000006316197}
        inSlope: {x: 0, y: 0, z: 0}
        outSlope: {x: 0, y: 0, z: 0}
        tangentMode: 0
        weightedMode: 0
        inWeight: {x: 0.33333334, y: 0.33333334, z: 0.33333334}
        outWeight: {x: 0.33333334, y: 0.33333334, z: 0.33333334}
      - serializedVersion: 3
        time: 0.5
        value: {x: -0.01637976, y: 4.7009907, z: 0.0000006316197}
        inSlope: {x: 0, y: 0, z: 0}
        outSlope: {x: 0, y: 0, z: 0}
        tangentMode: 0
        weightedMode: 0
        inWeight: {x: 0.33333334, y: 0.33333334, z: 0.33333334}
        outWeight: {x: 0.33333334, y: 0.33333334, z: 0.33333334}
      m_PreInfinity: 2
      m_PostInfinity: 2
      m_RotationOrder: 4
    path: Armature
  - curve:
      serializedVersion: 2
      m_Curve:
      - serializedVersion: 3
        time: 0
        value: {x: -0.00045704487, y: 0.0031375443, z: 0.005058748}
        inSlope: {x: 0.001713918, y: -0.020567002, z: -0.019598965}
        outSlope: {x: 0.001713918, y: -0.020567002, z: -0.019598965}
        tangentMode: 0
        weightedMode: 0
        inWeight: {x: 0.33333334, y: 0.33333334, z: 0.33333334}
        outWeight: {x: 0.33333334, y: 0.33333334, z: 0.33333334}
      - serializedVersion: 3
        time: 0.041666668
        value: {x: -0.0003856316, y: 0.002280586, z: 0.0042421245}
        inSlope: {x: 0.001713918, y: -0.020567002, z: -0.019598965}
        outSlope: {x: 0.00377062, y: -0.04524744, z: -0.043117717}
        tangentMode: 0
        weightedMode: 0
        inWeight: {x: 0.33333334, y: 0.33333334, z: 0.33333334}
        outWeight: {x: 0.33333334, y: 0.33333334, z: 0.33333334}
      - serializedVersion: 3
        time: 0.125
        value: {x: -0.00007141329, y: -0.0014900336, z: 0.0006489807}
        inSlope: {x: 0.0037706196, y: -0.045247424, z: -0.04311773}
        outSlope: {x: 0.0017139189, y: -0.020567013, z: -0.019598952}
        tangentMode: 0
        weightedMode: 0
        inWeight: {x: 0.33333334, y: 0.33333334, z: 0.33333334}
        outWeight: {x: 0.33333334, y: 0.33333334, z: 0.33333334}
      - serializedVersion: 3
        time: 0.16666667
        value: {x: 3.7224078e-20, y: -0.0023469925, z: -0.00016764234}
        inSlope: {x: 0.0017139189, y: -0.020567013, z: -0.019598952}
        outSlope: {x: -0, y: -0, z: -0}
        tangentMode: 0
        weightedMode: 0
        inWeight: {x: 0.33333334, y: 0.33333334, z: 0.33333334}
        outWeight: {x: 0.33333334, y: 0.33333334, z: 0.33333334}
      - serializedVersion: 3
        time: 0.33333334
        value: {x: 3.722408e-20, y: -0.0023469927, z: -0.00016764234}
        inSlope: {x: -0, y: -0.0000000035762795, z: -0}
        outSlope: {x: -0, y: -0, z: 0.013885916}
        tangentMode: 0
        weightedMode: 0
        inWeight: {x: 0.33333334, y: 0.33333334, z: 0.33333334}
        outWeight: {x: 0.33333334, y: 0.33333334, z: 0.33333334}
      - serializedVersion: 3
        time: 0.375
        value: {x: 3.722408e-20, y: -0.0023469927, z: 0.00041093735}
        inSlope: {x: -0, y: -0, z: 0.013885916}
        outSlope: {x: -0, y: -0, z: 0.030549007}
        tangentMode: 0
        weightedMode: 0
        inWeight: {x: 0.33333334, y: 0.33333334, z: 0.33333334}
        outWeight: {x: 0.33333334, y: 0.33333334, z: 0.33333334}
      - serializedVersion: 3
        time: 0.45833334
        value: {x: 3.7224087e-20, y: -0.0023469927, z: 0.0029566875}
        inSlope: {x: 9.926162e-26, y: -0, z: 0.03054899}
        outSlope: {x: -0, y: -0, z: 0.013885913}
        tangentMode: 0
        weightedMode: 0
        inWeight: {x: 0.33333334, y: 0.33333334, z: 0.33333334}
        outWeight: {x: 0.33333334, y: 0.33333334, z: 0.33333334}
      - serializedVersion: 3
        time: 0.5
        value: {x: 3.7224087e-20, y: -0.0023469927, z: 0.003535267}
        inSlope: {x: -0, y: -0, z: 0.013885913}
        outSlope: {x: -0, y: -0, z: 0.013885913}
        tangentMode: 0
        weightedMode: 0
        inWeight: {x: 0.33333334, y: 0.33333334, z: 0.33333334}
        outWeight: {x: 0.33333334, y: 0.33333334, z: 0.33333334}
      m_PreInfinity: 2
      m_PostInfinity: 2
      m_RotationOrder: 4
    path: Armature/Main
  - curve:
      serializedVersion: 2
      m_Curve:
      - serializedVersion: 3
        time: 0
        value: {x: 7.4505804e-11, y: 0.009842632, z: -4.4703483e-10}
        inSlope: {x: 0, y: 0, z: 0}
        outSlope: {x: 0, y: 0, z: 0}
        tangentMode: 0
        weightedMode: 0
        inWeight: {x: 0.33333334, y: 0.33333334, z: 0.33333334}
        outWeight: {x: 0.33333334, y: 0.33333334, z: 0.33333334}
      - serializedVersion: 3
        time: 0.5
        value: {x: 7.4505804e-11, y: 0.009842632, z: -4.4703483e-10}
        inSlope: {x: 0, y: 0, z: 0}
        outSlope: {x: 0, y: 0, z: 0}
        tangentMode: 0
        weightedMode: 0
        inWeight: {x: 0.33333334, y: 0.33333334, z: 0.33333334}
        outWeight: {x: 0.33333334, y: 0.33333334, z: 0.33333334}
      m_PreInfinity: 2
      m_PostInfinity: 2
      m_RotationOrder: 4
    path: Armature/Main/Chest
  - curve:
      serializedVersion: 2
      m_Curve:
      - serializedVersion: 3
        time: 0
        value: {x: 1.3969838e-11, y: 0.016491473, z: 2.8172506e-10}
        inSlope: {x: 0, y: 0, z: 0}
        outSlope: {x: 0, y: 0, z: 0}
        tangentMode: 0
        weightedMode: 0
        inWeight: {x: 0.33333334, y: 0.33333334, z: 0.33333334}
        outWeight: {x: 0.33333334, y: 0.33333334, z: 0.33333334}
      - serializedVersion: 3
        time: 0.5
        value: {x: 1.3969838e-11, y: 0.016491473, z: 2.8172506e-10}
        inSlope: {x: 0, y: 0, z: 0}
        outSlope: {x: 0, y: 0, z: 0}
        tangentMode: 0
        weightedMode: 0
        inWeight: {x: 0.33333334, y: 0.33333334, z: 0.33333334}
        outWeight: {x: 0.33333334, y: 0.33333334, z: 0.33333334}
      m_PreInfinity: 2
      m_PostInfinity: 2
      m_RotationOrder: 4
    path: Armature/Main/Chest/Head
  - curve:
      serializedVersion: 2
      m_Curve:
      - serializedVersion: 3
        time: 0
        value: {x: 0.0013556476, y: 0.022454845, z: -0.0037418746}
        inSlope: {x: -0.002687434, y: -0.0076470566, z: 0.002780256}
        outSlope: {x: -0.002687434, y: -0.0076470566, z: 0.002780256}
        tangentMode: 0
        weightedMode: 0
        inWeight: {x: 0.33333334, y: 0.33333334, z: 0.33333334}
        outWeight: {x: 0.33333334, y: 0.33333334, z: 0.33333334}
      - serializedVersion: 3
        time: 0.041666668
        value: {x: 0.0012436712, y: 0.022136219, z: -0.0036260306}
        inSlope: {x: -0.002687434, y: -0.0076470566, z: 0.002780256}
        outSlope: {x: -0.005912343, y: -0.0168235, z: 0.006116459}
        tangentMode: 0
        weightedMode: 0
        inWeight: {x: 0.33333334, y: 0.33333334, z: 0.33333334}
        outWeight: {x: 0.33333334, y: 0.33333334, z: 0.33333334}
      - serializedVersion: 3
        time: 0.125
        value: {x: 0.0007509757, y: 0.020734264, z: -0.003116322}
        inSlope: {x: -0.005912349, y: -0.016823389, z: 0.0061165458}
        outSlope: {x: -0.00268743, y: -0.0076471125, z: 0.002780263}
        tangentMode: 0
        weightedMode: 0
        inWeight: {x: 0.33333334, y: 0.33333334, z: 0.33333334}
        outWeight: {x: 0.33333334, y: 0.33333334, z: 0.33333334}
      - serializedVersion: 3
        time: 0.16666667
        value: {x: 0.0006389994, y: 0.020415634, z: -0.0030004778}
        inSlope: {x: -0.00268743, y: -0.0076471125, z: 0.002780263}
        outSlope: {x: -0, y: -0, z: -0}
        tangentMode: 0
        weightedMode: 0
        inWeight: {x: 0.33333334, y: 0.33333334, z: 0.33333334}
        outWeight: {x: 0.33333334, y: 0.33333334, z: 0.33333334}
      - serializedVersion: 3
        time: 0.41666666
        value: {x: 0.00064974464, y: 0.020986164, z: -0.0029727076}
        inSlope: {x: 0.00017729583, y: 0.0094135115, z: 0.0004582287}
        outSlope: {x: 0.00017729391, y: 0.009413619, z: 0.00045822834}
        tangentMode: 0
        weightedMode: 0
        inWeight: {x: 0.33333334, y: 0.33333334, z: 0.33333334}
        outWeight: {x: 0.33333334, y: 0.33333334, z: 0.33333334}
      - serializedVersion: 3
        time: 0.5
        value: {x: 0.0006604897, y: 0.021556688, z: -0.002944935}
        inSlope: {x: 0.00008058788, y: 0.004279004, z: 0.00020831113}
        outSlope: {x: 0.00008058788, y: 0.004279004, z: 0.00020831113}
        tangentMode: 0
        weightedMode: 0
        inWeight: {x: 0.33333334, y: 0.33333334, z: 0.33333334}
        outWeight: {x: 0.33333334, y: 0.33333334, z: 0.33333334}
      m_PreInfinity: 2
      m_PostInfinity: 2
      m_RotationOrder: 4
    path: Armature/Main/Chest/Head/Headflame
  - curve:
      serializedVersion: 2
      m_Curve:
      - serializedVersion: 3
        time: 0
        value: {x: -0.021023298, y: 0.010079024, z: 0.0014368796}
        inSlope: {x: 0.010263405, y: 0.016388398, z: -0.042880416}
        outSlope: {x: 0.010263405, y: 0.016388398, z: -0.042880416}
        tangentMode: 0
        weightedMode: 0
        inWeight: {x: 0.33333334, y: 0.33333334, z: 0.33333334}
        outWeight: {x: 0.33333334, y: 0.33333334, z: 0.33333334}
      - serializedVersion: 3
        time: 0.041666668
        value: {x: -0.020595655, y: 0.010761875, z: -0.00034980438}
        inSlope: {x: 0.010263405, y: 0.016388398, z: -0.042880416}
        outSlope: {x: 0.022579249, y: 0.036054667, z: -0.09433682}
        tangentMode: 0
        weightedMode: 0
        inWeight: {x: 0.33333334, y: 0.33333334, z: 0.33333334}
        outWeight: {x: 0.33333334, y: 0.33333334, z: 0.33333334}
      - serializedVersion: 3
        time: 0.125
        value: {x: -0.018714044, y: 0.013766427, z: -0.008211211}
        inSlope: {x: 0.022579396, y: 0.036054585, z: -0.09433695}
        outSlope: {x: 0.010263317, y: 0.016388452, z: -0.04288038}
        tangentMode: 0
        weightedMode: 0
        inWeight: {x: 0.33333334, y: 0.33333334, z: 0.33333334}
        outWeight: {x: 0.33333334, y: 0.33333334, z: 0.33333334}
      - serializedVersion: 3
        time: 0.16666667
        value: {x: -0.018286407, y: 0.014449279, z: -0.009997894}
        inSlope: {x: 0.010263317, y: 0.016388452, z: -0.04288038}
        outSlope: {x: -0, y: -0, z: -0}
        tangentMode: 0
        weightedMode: 0
        inWeight: {x: 0.33333334, y: 0.33333334, z: 0.33333334}
        outWeight: {x: 0.33333334, y: 0.33333334, z: 0.33333334}
      - serializedVersion: 3
        time: 0.33333334
        value: {x: -0.018286407, y: 0.014449279, z: -0.009997894}
        inSlope: {x: -0, y: -0, z: -0}
        outSlope: {x: 0.0075394264, y: -0.018541064, z: 0.007729241}
        tangentMode: 0
        weightedMode: 0
        inWeight: {x: 0.33333334, y: 0.33333334, z: 0.33333334}
        outWeight: {x: 0.33333334, y: 0.33333334, z: 0.33333334}
      - serializedVersion: 3
        time: 0.375
        value: {x: -0.017972264, y: 0.013676735, z: -0.009675843}
        inSlope: {x: 0.0075394264, y: -0.018541064, z: 0.007729241}
        outSlope: {x: 0.016586812, y: -0.040790386, z: 0.017004335}
        tangentMode: 0
        weightedMode: 0
        inWeight: {x: 0.33333334, y: 0.33333334, z: 0.33333334}
        outWeight: {x: 0.33333334, y: 0.33333334, z: 0.33333334}
      - serializedVersion: 3
        time: 0.45833334
        value: {x: -0.01659003, y: 0.010277536, z: -0.008258813}
        inSlope: {x: 0.016586771, y: -0.040790386, z: 0.017004352}
        outSlope: {x: 0.0075394553, y: -0.018541006, z: 0.0077292556}
        tangentMode: 0
        weightedMode: 0
        inWeight: {x: 0.33333334, y: 0.33333334, z: 0.33333334}
        outWeight: {x: 0.33333334, y: 0.33333334, z: 0.33333334}
      - serializedVersion: 3
        time: 0.5
        value: {x: -0.016275886, y: 0.009504994, z: -0.007936761}
        inSlope: {x: 0.0075394553, y: -0.018541006, z: 0.0077292556}
        outSlope: {x: 0.0075394553, y: -0.018541006, z: 0.0077292556}
        tangentMode: 0
        weightedMode: 0
        inWeight: {x: 0.33333334, y: 0.33333334, z: 0.33333334}
        outWeight: {x: 0.33333334, y: 0.33333334, z: 0.33333334}
      m_PreInfinity: 2
      m_PostInfinity: 2
      m_RotationOrder: 4
    path: Armature/Main/Chest/Arm.L
  - curve:
      serializedVersion: 2
      m_Curve:
      - serializedVersion: 3
        time: 0
        value: {x: 0.015249679, y: 0.007981506, z: 0.006809389}
        inSlope: {x: -0.000442543, y: 0.028611703, z: -0.027018614}
        outSlope: {x: -0.000442543, y: 0.028611703, z: -0.027018614}
        tangentMode: 0
        weightedMode: 0
        inWeight: {x: 0.33333334, y: 0.33333334, z: 0.33333334}
        outWeight: {x: 0.33333334, y: 0.33333334, z: 0.33333334}
      - serializedVersion: 3
        time: 0.041666668
        value: {x: 0.01523124, y: 0.00917366, z: 0.005683614}
        inSlope: {x: -0.000442543, y: 0.028611703, z: -0.027018614}
        outSlope: {x: -0.0009736061, y: 0.06294562, z: -0.059440974}
        tangentMode: 0
        weightedMode: 0
        inWeight: {x: 0.33333334, y: 0.33333334, z: 0.33333334}
        outWeight: {x: 0.33333334, y: 0.33333334, z: 0.33333334}
      - serializedVersion: 3
        time: 0.125
        value: {x: 0.0151501065, y: 0.014419135, z: 0.0007301992}
        inSlope: {x: -0.00097357755, y: 0.06294577, z: -0.059440978}
        outSlope: {x: -0.00015772818, y: 0.028611714, z: -0.02701862}
        tangentMode: 0
        weightedMode: 0
        inWeight: {x: 0.33333334, y: 0.33333334, z: 0.33333334}
        outWeight: {x: 0.33333334, y: 0.33333334, z: 0.33333334}
      - serializedVersion: 3
        time: 0.16666667
        value: {x: 0.015143535, y: 0.015611289, z: -0.00039557682}
        inSlope: {x: -0.00015772818, y: 0.028611714, z: -0.02701862}
        outSlope: {x: -0.00015772818, y: -0, z: -0}
        tangentMode: 0
        weightedMode: 0
        inWeight: {x: 0.33333334, y: 0.33333334, z: 0.33333334}
        outWeight: {x: 0.33333334, y: 0.33333334, z: 0.33333334}
      - serializedVersion: 3
        time: 0.33333334
        value: {x: 0.015117248, y: 0.015611289, z: -0.00039557682}
        inSlope: {x: -0.00015772822, y: -0, z: -0}
        outSlope: {x: -0.00015772822, y: -0.028755346, z: 0.0127227325}
        tangentMode: 0
        weightedMode: 0
        inWeight: {x: 0.33333334, y: 0.33333334, z: 0.33333334}
        outWeight: {x: 0.33333334, y: 0.33333334, z: 0.33333334}
      - serializedVersion: 3
        time: 0.375
        value: {x: 0.015110676, y: 0.01441315, z: 0.0001345369}
        inSlope: {x: -0.00015772822, y: -0.028755346, z: 0.0127227325}
        outSlope: {x: -0.00015772822, y: -0.0632619, z: 0.027990103}
        tangentMode: 0
        weightedMode: 0
        inWeight: {x: 0.33333334, y: 0.33333334, z: 0.33333334}
        outWeight: {x: 0.33333334, y: 0.33333334, z: 0.33333334}
      - serializedVersion: 3
        time: 0.45833334
        value: {x: 0.015090319, y: 0.009141332, z: 0.0024670437}
        inSlope: {x: -0.00033081992, y: -0.06326175, z: 0.027990056}
        outSlope: {x: -0.00033079155, y: -0.028755404, z: 0.012722769}
        tangentMode: 0
        weightedMode: 0
        inWeight: {x: 0.33333334, y: 0.33333334, z: 0.33333334}
        outWeight: {x: 0.33333334, y: 0.33333334, z: 0.33333334}
      - serializedVersion: 3
        time: 0.5
        value: {x: 0.015076537, y: 0.00794319, z: 0.002997159}
        inSlope: {x: -0.00033079155, y: -0.028755404, z: 0.012722769}
        outSlope: {x: -0.00033079155, y: -0.028755404, z: 0.012722769}
        tangentMode: 0
        weightedMode: 0
        inWeight: {x: 0.33333334, y: 0.33333334, z: 0.33333334}
        outWeight: {x: 0.33333334, y: 0.33333334, z: 0.33333334}
      m_PreInfinity: 2
      m_PostInfinity: 2
      m_RotationOrder: 4
    path: Armature/Main/Chest/Arm.R
  - curve:
      serializedVersion: 2
      m_Curve:
      - serializedVersion: 3
        time: 0
        value: {x: -0.0074172835, y: 0.012906952, z: 0.008048188}
        inSlope: {x: 0.0000045490265, y: -0.009304333, z: 0.00042079925}
        outSlope: {x: 0.0000045490265, y: -0.009304333, z: 0.00042079925}
        tangentMode: 0
        weightedMode: 0
        inWeight: {x: 0.33333334, y: 0.33333334, z: 0.33333334}
        outWeight: {x: 0.33333334, y: 0.33333334, z: 0.33333334}
      - serializedVersion: 3
        time: 0.041666668
        value: {x: -0.007417094, y: 0.012519271, z: 0.008065721}
        inSlope: {x: 0.0000045490265, y: -0.009304333, z: 0.00042079925}
        outSlope: {x: 0.0000045490265, y: -0.020469675, z: 0.00092569826}
        tangentMode: 0
        weightedMode: 0
        inWeight: {x: 0.33333334, y: 0.33333334, z: 0.33333334}
        outWeight: {x: 0.33333334, y: 0.33333334, z: 0.33333334}
      - serializedVersion: 3
        time: 0.125
        value: {x: -0.007416715, y: 0.01081347, z: 0.008142864}
        inSlope: {x: 0.0000045490265, y: -0.020469563, z: 0.00092572696}
        outSlope: {x: 0.000004549026, y: -0.009304417, z: 0.0004207706}
        tangentMode: 0
        weightedMode: 0
        inWeight: {x: 0.33333334, y: 0.33333334, z: 0.33333334}
        outWeight: {x: 0.33333334, y: 0.33333334, z: 0.33333334}
      - serializedVersion: 3
        time: 0.16666667
        value: {x: -0.0074165254, y: 0.010425786, z: 0.0081603965}
        inSlope: {x: 0.000004549026, y: -0.009304417, z: 0.0004207706}
        outSlope: {x: 0.000004549026, y: -0, z: 0.00005544662}
        tangentMode: 0
        weightedMode: 0
        inWeight: {x: 0.33333334, y: 0.33333334, z: 0.33333334}
        outWeight: {x: 0.33333334, y: 0.33333334, z: 0.33333334}
      - serializedVersion: 3
        time: 0.375
        value: {x: -0.0074155782, y: 0.010624136, z: 0.008171948}
        inSlope: {x: 0.0000045490274, y: 0.0047604, z: 0.00005544664}
        outSlope: {x: 0.0000045490274, y: 0.010472605, z: 0.00005544664}
        tangentMode: 0
        weightedMode: 0
        inWeight: {x: 0.33333334, y: 0.33333334, z: 0.33333334}
        outWeight: {x: 0.33333334, y: 0.33333334, z: 0.33333334}
      - serializedVersion: 3
        time: 0.45833334
        value: {x: -0.007415199, y: 0.011496851, z: 0.008176569}
        inSlope: {x: 0.000004549024, y: 0.01047257, z: 0.000055446595}
        outSlope: {x: 0.0000045490274, y: 0.0047603715, z: 0.00005544664}
        tangentMode: 0
        weightedMode: 0
        inWeight: {x: 0.33333334, y: 0.33333334, z: 0.33333334}
        outWeight: {x: 0.33333334, y: 0.33333334, z: 0.33333334}
      - serializedVersion: 3
        time: 0.5
        value: {x: -0.0074150097, y: 0.0116952, z: 0.008178879}
        inSlope: {x: 0.0000045490274, y: 0.0047603715, z: 0.00005544664}
        outSlope: {x: 0.0000045490274, y: 0.0047603715, z: 0.00005544664}
        tangentMode: 0
        weightedMode: 0
        inWeight: {x: 0.33333334, y: 0.33333334, z: 0.33333334}
        outWeight: {x: 0.33333334, y: 0.33333334, z: 0.33333334}
      m_PreInfinity: 2
      m_PostInfinity: 2
      m_RotationOrder: 4
    path: Armature/Main/Chest/Chestflame
  - curve:
      serializedVersion: 2
      m_Curve:
      - serializedVersion: 3
        time: 0
        value: {x: -0.0123236645, y: 0.025264975, z: -0.0069015673}
        inSlope: {x: -0.000029039382, y: -0.0074167443, z: 0.0019399738}
        outSlope: {x: -0.000029039382, y: -0.0074167443, z: 0.0019399738}
        tangentMode: 0
        weightedMode: 0
        inWeight: {x: 0.33333334, y: 0.33333334, z: 0.33333334}
        outWeight: {x: 0.33333334, y: 0.33333334, z: 0.33333334}
      - serializedVersion: 3
        time: 0.16666667
        value: {x: -0.012328504, y: 0.023287168, z: -0.006384233}
        inSlope: {x: -0.00002903938, y: -0.0074167433, z: 0.0019400879}
        outSlope: {x: -0.00002903938, y: -0, z: 0.000053458207}
        tangentMode: 0
        weightedMode: 0
        inWeight: {x: 0.33333334, y: 0.33333334, z: 0.33333334}
        outWeight: {x: 0.33333334, y: 0.33333334, z: 0.33333334}
      - serializedVersion: 3
        time: 0.41666666
        value: {x: -0.012335764, y: 0.023921873, z: -0.006370867}
        inSlope: {x: -0.00002903939, y: 0.010472605, z: 0.000053472533}
        outSlope: {x: -0.00002903937, y: 0.010472655, z: 0.00005345819}
        tangentMode: 0
        weightedMode: 0
        inWeight: {x: 0.33333334, y: 0.33333334, z: 0.33333334}
        outWeight: {x: 0.33333334, y: 0.33333334, z: 0.33333334}
      - serializedVersion: 3
        time: 0.5
        value: {x: -0.012338184, y: 0.02455658, z: -0.006365752}
        inSlope: {x: -0.00002903939, y: 0.0047603427, z: 0.0000693083}
        outSlope: {x: -0.00002903939, y: 0.0047603427, z: 0.0000693083}
        tangentMode: 0
        weightedMode: 0
        inWeight: {x: 0.33333334, y: 0.33333334, z: 0.33333334}
        outWeight: {x: 0.33333334, y: 0.33333334, z: 0.33333334}
      m_PreInfinity: 2
      m_PostInfinity: 2
      m_RotationOrder: 4
    path: Armature/Main/Chest/Shoulder.L
  - curve:
      serializedVersion: 2
      m_Curve:
      - serializedVersion: 3
        time: 0
        value: {x: 0.011582703, y: 0.020670008, z: 0.0051237037}
        inSlope: {x: -0.0075416276, y: -0.0038227271, z: 0.0010035753}
        outSlope: {x: -0.0075416276, y: -0.0038227271, z: 0.0010035753}
        tangentMode: 0
        weightedMode: 0
        inWeight: {x: 0.33333334, y: 0.33333334, z: 0.33333334}
        outWeight: {x: 0.33333334, y: 0.33333334, z: 0.33333334}
      - serializedVersion: 3
        time: 0.041666668
        value: {x: 0.011268469, y: 0.020510728, z: 0.0051655197}
        inSlope: {x: -0.0075416276, y: -0.0038227271, z: 0.0010035753}
        outSlope: {x: -0.016591616, y: -0.008410148, z: 0.0022078229}
        tangentMode: 0
        weightedMode: 0
        inWeight: {x: 0.33333334, y: 0.33333334, z: 0.33333334}
        outWeight: {x: 0.33333334, y: 0.33333334, z: 0.33333334}
      - serializedVersion: 3
        time: 0.125
        value: {x: 0.009885833, y: 0.019809889, z: 0.005349505}
        inSlope: {x: -0.016591646, y: -0.008409977, z: 0.0022078373}
        outSlope: {x: -0.007541655, y: -0.0038226407, z: 0.0010035608}
        tangentMode: 0
        weightedMode: 0
        inWeight: {x: 0.33333334, y: 0.33333334, z: 0.33333334}
        outWeight: {x: 0.33333334, y: 0.33333334, z: 0.33333334}
      - serializedVersion: 3
        time: 0.16666667
        value: {x: 0.009571597, y: 0.019650612, z: 0.0053913207}
        inSlope: {x: -0.007541655, y: -0.0038226407, z: 0.0010035608}
        outSlope: {x: -0.0000139331805, y: -0, z: 0.000033273693}
        tangentMode: 0
        weightedMode: 0
        inWeight: {x: 0.33333334, y: 0.33333334, z: 0.33333334}
        outWeight: {x: 0.33333334, y: 0.33333334, z: 0.33333334}
      - serializedVersion: 3
        time: 0.41666666
        value: {x: 0.009568113, y: 0.020031435, z: 0.005399637}
        inSlope: {x: -0.000013933185, y: 0.006283552, z: 0.000033273704}
        outSlope: {x: -0.00001394748, y: 0.0062835473, z: 0.000033273678}
        tangentMode: 0
        weightedMode: 0
        inWeight: {x: 0.33333334, y: 0.33333334, z: 0.33333334}
        outWeight: {x: 0.33333334, y: 0.33333334, z: 0.33333334}
      - serializedVersion: 3
        time: 0.5
        value: {x: 0.009566952, y: 0.020412259, z: 0.0054024095}
        inSlope: {x: -0.000013933185, y: 0.0028562169, z: 0.0000332594}
        outSlope: {x: -0.000013933185, y: 0.0028562169, z: 0.0000332594}
        tangentMode: 0
        weightedMode: 0
        inWeight: {x: 0.33333334, y: 0.33333334, z: 0.33333334}
        outWeight: {x: 0.33333334, y: 0.33333334, z: 0.33333334}
      m_PreInfinity: 2
      m_PostInfinity: 2
      m_RotationOrder: 4
    path: Armature/Main/Chest/Shoulder.R
  - curve:
      serializedVersion: 2
      m_Curve:
      - serializedVersion: 3
        time: 0
        value: {x: 7.4505804e-11, y: -0.00032795512, z: -0.00006972626}
        inSlope: {x: 0, y: 0, z: 0}
        outSlope: {x: 0, y: 0, z: 0}
        tangentMode: 0
        weightedMode: 0
        inWeight: {x: 0.33333334, y: 0.33333334, z: 0.33333334}
        outWeight: {x: 0.33333334, y: 0.33333334, z: 0.33333334}
      - serializedVersion: 3
        time: 0.5
        value: {x: 7.4505804e-11, y: -0.00032795512, z: -0.00006972626}
        inSlope: {x: 0, y: 0, z: 0}
        outSlope: {x: 0, y: 0, z: 0}
        tangentMode: 0
        weightedMode: 0
        inWeight: {x: 0.33333334, y: 0.33333334, z: 0.33333334}
        outWeight: {x: 0.33333334, y: 0.33333334, z: 0.33333334}
      m_PreInfinity: 2
      m_PostInfinity: 2
      m_RotationOrder: 4
    path: Armature/Main/LowerBody
  - curve:
      serializedVersion: 2
      m_Curve:
      - serializedVersion: 3
        time: 0
        value: {x: -5.122274e-11, y: 0.015443523, z: 8.1490726e-12}
        inSlope: {x: 0, y: 0, z: 0}
        outSlope: {x: 0, y: 0, z: 0}
        tangentMode: 0
        weightedMode: 0
        inWeight: {x: 0.33333334, y: 0.33333334, z: 0.33333334}
        outWeight: {x: 0.33333334, y: 0.33333334, z: 0.33333334}
      - serializedVersion: 3
        time: 0.5
        value: {x: -5.122274e-11, y: 0.015443523, z: 8.1490726e-12}
        inSlope: {x: 0, y: 0, z: 0}
        outSlope: {x: 0, y: 0, z: 0}
        tangentMode: 0
        weightedMode: 0
        inWeight: {x: 0.33333334, y: 0.33333334, z: 0.33333334}
        outWeight: {x: 0.33333334, y: 0.33333334, z: 0.33333334}
      m_PreInfinity: 2
      m_PostInfinity: 2
      m_RotationOrder: 4
    path: Armature/Main/LowerBody/Tail
  m_ScaleCurves:
  - curve:
      serializedVersion: 2
      m_Curve:
      - serializedVersion: 3
        time: 0
        value: {x: 162.84431, y: 162.84431, z: 162.84431}
        inSlope: {x: 0, y: 0, z: 0}
        outSlope: {x: 0, y: 0, z: 0}
        tangentMode: 0
        weightedMode: 0
        inWeight: {x: 0.33333334, y: 0.33333334, z: 0.33333334}
        outWeight: {x: 0.33333334, y: 0.33333334, z: 0.33333334}
      - serializedVersion: 3
        time: 0.5
        value: {x: 162.84431, y: 162.84431, z: 162.84431}
        inSlope: {x: 0, y: 0, z: 0}
        outSlope: {x: 0, y: 0, z: 0}
        tangentMode: 0
        weightedMode: 0
        inWeight: {x: 0.33333334, y: 0.33333334, z: 0.33333334}
        outWeight: {x: 0.33333334, y: 0.33333334, z: 0.33333334}
      m_PreInfinity: 2
      m_PostInfinity: 2
      m_RotationOrder: 4
    path: Armature
  - curve:
      serializedVersion: 2
      m_Curve:
      - serializedVersion: 3
        time: 0
        value: {x: 1.2289321, y: 1.228932, z: 1.228932}
        inSlope: {x: -0.8584957, y: -0.85849285, z: -0.85849285}
        outSlope: {x: -0.8584957, y: -0.85849285, z: -0.85849285}
        tangentMode: 0
        weightedMode: 0
        inWeight: {x: 0.33333334, y: 0.33333334, z: 0.33333334}
        outWeight: {x: 0.33333334, y: 0.33333334, z: 0.33333334}
      - serializedVersion: 3
        time: 0.041666668
        value: {x: 1.1931615, y: 1.1931615, z: 1.1931615}
        inSlope: {x: -1.3735914, y: -1.3735943, z: -1.3735943}
        outSlope: {x: -1.3735914, y: -1.3735943, z: -1.3735943}
        tangentMode: 0
        weightedMode: 0
        inWeight: {x: 0.33333334, y: 0.33333334, z: 0.33333334}
        outWeight: {x: 0.33333334, y: 0.33333334, z: 0.33333334}
      - serializedVersion: 3
        time: 0.125
        value: {x: 1.0357707, y: 1.0357708, z: 1.0357708}
        inSlope: {x: -1.3735943, y: -1.37359, z: -1.37359}
        outSlope: {x: -1.3735943, y: -1.37359, z: -1.37359}
        tangentMode: 0
        weightedMode: 0
        inWeight: {x: 0.33333334, y: 0.33333334, z: 0.33333334}
        outWeight: {x: 0.33333334, y: 0.33333334, z: 0.33333334}
      - serializedVersion: 3
        time: 0.25
        value: {x: 1, y: 1, z: 1}
        inSlope: {x: 0, y: 0, z: 0}
        outSlope: {x: 0, y: 0, z: 0}
        tangentMode: 0
        weightedMode: 0
        inWeight: {x: 0.33333334, y: 0.33333334, z: 0.33333334}
        outWeight: {x: 0.33333334, y: 0.33333334, z: 0.33333334}
      - serializedVersion: 3
        time: 0.5
        value: {x: 1, y: 1, z: 1}
        inSlope: {x: 0, y: 0, z: 0}
        outSlope: {x: 0, y: 0, z: 0}
        tangentMode: 0
        weightedMode: 0
        inWeight: {x: 0.33333334, y: 0.33333334, z: 0.33333334}
        outWeight: {x: 0.33333334, y: 0.33333334, z: 0.33333334}
      m_PreInfinity: 2
      m_PostInfinity: 2
      m_RotationOrder: 4
    path: Armature/Main
  - curve:
      serializedVersion: 2
      m_Curve:
      - serializedVersion: 3
        time: 0
        value: {x: 0.9999999, y: 1.0000001, z: 0.99999994}
        inSlope: {x: 0, y: 0, z: 0}
        outSlope: {x: 0, y: 0, z: 0}
        tangentMode: 0
        weightedMode: 0
        inWeight: {x: 0.33333334, y: 0.33333334, z: 0.33333334}
        outWeight: {x: 0.33333334, y: 0.33333334, z: 0.33333334}
      - serializedVersion: 3
        time: 0.5
        value: {x: 0.9999999, y: 1.0000001, z: 0.99999994}
        inSlope: {x: 0, y: 0, z: 0}
        outSlope: {x: 0, y: 0, z: 0}
        tangentMode: 0
        weightedMode: 0
        inWeight: {x: 0.33333334, y: 0.33333334, z: 0.33333334}
        outWeight: {x: 0.33333334, y: 0.33333334, z: 0.33333334}
      m_PreInfinity: 2
      m_PostInfinity: 2
      m_RotationOrder: 4
    path: Armature/Main/Chest
  - curve:
      serializedVersion: 2
      m_Curve:
      - serializedVersion: 3
        time: 0
        value: {x: 1, y: 0.99999994, z: 0.99999994}
        inSlope: {x: 0, y: 0, z: 0}
        outSlope: {x: 0, y: 0, z: 0}
        tangentMode: 0
        weightedMode: 0
        inWeight: {x: 0.33333334, y: 0.33333334, z: 0.33333334}
        outWeight: {x: 0.33333334, y: 0.33333334, z: 0.33333334}
      - serializedVersion: 3
        time: 0.5
        value: {x: 1, y: 0.99999994, z: 0.99999994}
        inSlope: {x: 0, y: 0, z: 0}
        outSlope: {x: 0, y: 0, z: 0}
        tangentMode: 0
        weightedMode: 0
        inWeight: {x: 0.33333334, y: 0.33333334, z: 0.33333334}
        outWeight: {x: 0.33333334, y: 0.33333334, z: 0.33333334}
      m_PreInfinity: 2
      m_PostInfinity: 2
      m_RotationOrder: 4
    path: Armature/Main/Chest/Head
  - curve:
      serializedVersion: 2
      m_Curve:
      - serializedVersion: 3
        time: 0
        value: {x: 3.28055, y: 3.2805498, z: 3.2805495}
        inSlope: {x: -8.552078, y: -8.552055, z: -8.552067}
        outSlope: {x: -8.552078, y: -8.552055, z: -8.552067}
        tangentMode: 0
        weightedMode: 0
        inWeight: {x: 0.33333334, y: 0.33333334, z: 0.33333334}
        outWeight: {x: 0.33333334, y: 0.33333334, z: 0.33333334}
      - serializedVersion: 3
        time: 0.041666668
        value: {x: 2.9242134, y: 2.9242141, z: 2.9242134}
        inSlope: {x: -13.683303, y: -13.683306, z: -13.683294}
        outSlope: {x: -13.683303, y: -13.683306, z: -13.683294}
        tangentMode: 0
        weightedMode: 0
        inWeight: {x: 0.33333334, y: 0.33333334, z: 0.33333334}
        outWeight: {x: 0.33333334, y: 0.33333334, z: 0.33333334}
      - serializedVersion: 3
        time: 0.083333336
        value: {x: 2.1402748, y: 2.1402743, z: 2.140275}
        inSlope: {x: -18.814533, y: -18.814545, z: -18.814531}
        outSlope: {x: -18.814533, y: -18.814545, z: -18.814531}
        tangentMode: 0
        weightedMode: 0
        inWeight: {x: 0.33333334, y: 0.33333334, z: 0.33333334}
        outWeight: {x: 0.33333334, y: 0.33333334, z: 0.33333334}
      - serializedVersion: 3
        time: 0.125
        value: {x: 1.3563358, y: 1.3563355, z: 1.3563359}
        inSlope: {x: -13.683298, y: -13.683293, z: -13.683302}
        outSlope: {x: -13.683298, y: -13.683293, z: -13.683302}
        tangentMode: 0
        weightedMode: 0
        inWeight: {x: 0.33333334, y: 0.33333334, z: 0.33333334}
        outWeight: {x: 0.33333334, y: 0.33333334, z: 0.33333334}
      - serializedVersion: 3
        time: 0.16666667
        value: {x: 0.9999999, y: 0.9999998, z: 0.9999999}
        inSlope: {x: -4.27603, y: -4.2760277, z: -4.2760315}
        outSlope: {x: -4.27603, y: -4.2760277, z: -4.2760315}
        tangentMode: 0
        weightedMode: 0
        inWeight: {x: 0.33333334, y: 0.33333334, z: 0.33333334}
        outWeight: {x: 0.33333334, y: 0.33333334, z: 0.33333334}
      - serializedVersion: 3
        time: 0.20833334
        value: {x: 0.9999999, y: 0.9999998, z: 0.9999999}
        inSlope: {x: 0, y: 0, z: 0}
        outSlope: {x: 0, y: 0, z: 0}
        tangentMode: 0
        weightedMode: 0
        inWeight: {x: 0.33333334, y: 0.33333334, z: 0.33333334}
        outWeight: {x: 0.33333334, y: 0.33333334, z: 0.33333334}
      - serializedVersion: 3
        time: 0.5
        value: {x: 0.99999976, y: 0.9999998, z: 0.9999998}
        inSlope: {x: 0, y: 0, z: 0}
        outSlope: {x: 0, y: 0, z: 0}
        tangentMode: 0
        weightedMode: 0
        inWeight: {x: 0.33333334, y: 0.33333334, z: 0.33333334}
        outWeight: {x: 0.33333334, y: 0.33333334, z: 0.33333334}
      m_PreInfinity: 2
      m_PostInfinity: 2
      m_RotationOrder: 4
    path: Armature/Main/Chest/Head/Headflame
  - curve:
      serializedVersion: 2
      m_Curve:
      - serializedVersion: 3
        time: 0
        value: {x: 0.99999994, y: 1.0000002, z: 1.0000001}
        inSlope: {x: 0, y: 0, z: 0}
        outSlope: {x: 0, y: 0, z: 0}
        tangentMode: 0
        weightedMode: 0
        inWeight: {x: 0.33333334, y: 0.33333334, z: 0.33333334}
        outWeight: {x: 0.33333334, y: 0.33333334, z: 0.33333334}
      - serializedVersion: 3
        time: 0.5
        value: {x: 0.99999994, y: 1.0000002, z: 1.0000001}
        inSlope: {x: 0, y: 0, z: 0}
        outSlope: {x: 0, y: 0, z: 0}
        tangentMode: 0
        weightedMode: 0
        inWeight: {x: 0.33333334, y: 0.33333334, z: 0.33333334}
        outWeight: {x: 0.33333334, y: 0.33333334, z: 0.33333334}
      m_PreInfinity: 2
      m_PostInfinity: 2
      m_RotationOrder: 4
    path: Armature/Main/Chest/Arm.L
  - curve:
      serializedVersion: 2
      m_Curve:
      - serializedVersion: 3
        time: 0
        value: {x: 1, y: 1, z: 1.0000001}
        inSlope: {x: 0, y: 0, z: 0}
        outSlope: {x: 0, y: 0, z: 0}
        tangentMode: 0
        weightedMode: 0
        inWeight: {x: 0.33333334, y: 0.33333334, z: 0.33333334}
        outWeight: {x: 0.33333334, y: 0.33333334, z: 0.33333334}
      - serializedVersion: 3
        time: 0.5
        value: {x: 1, y: 1, z: 1.0000001}
        inSlope: {x: 0, y: 0, z: 0}
        outSlope: {x: 0, y: 0, z: 0}
        tangentMode: 0
        weightedMode: 0
        inWeight: {x: 0.33333334, y: 0.33333334, z: 0.33333334}
        outWeight: {x: 0.33333334, y: 0.33333334, z: 0.33333334}
      m_PreInfinity: 2
      m_PostInfinity: 2
      m_RotationOrder: 4
    path: Armature/Main/Chest/Arm.R
  - curve:
      serializedVersion: 2
      m_Curve:
      - serializedVersion: 3
        time: 0
        value: {x: 1.8029917, y: 1.8029915, z: 1.8029915}
        inSlope: {x: -3.0112152, y: -3.0112152, z: -3.011218}
        outSlope: {x: -3.0112152, y: -3.0112152, z: -3.011218}
        tangentMode: 0
        weightedMode: 0
        inWeight: {x: 0.33333334, y: 0.33333334, z: 0.33333334}
        outWeight: {x: 0.33333334, y: 0.33333334, z: 0.33333334}
      - serializedVersion: 3
        time: 0.041666668
        value: {x: 1.6775244, y: 1.6775242, z: 1.6775241}
        inSlope: {x: -4.81795, y: -4.8179455, z: -4.8179483}
        outSlope: {x: -4.81795, y: -4.8179455, z: -4.8179483}
        tangentMode: 0
        weightedMode: 0
        inWeight: {x: 0.33333334, y: 0.33333334, z: 0.33333334}
        outWeight: {x: 0.33333334, y: 0.33333334, z: 0.33333334}
      - serializedVersion: 3
        time: 0.125
        value: {x: 1.1254678, y: 1.1254677, z: 1.1254675}
        inSlope: {x: -4.817951, y: -4.8179526, z: -4.81795}
        outSlope: {x: -4.817951, y: -4.8179526, z: -4.81795}
        tangentMode: 0
        weightedMode: 0
        inWeight: {x: 0.33333334, y: 0.33333334, z: 0.33333334}
        outWeight: {x: 0.33333334, y: 0.33333334, z: 0.33333334}
      - serializedVersion: 3
        time: 0.16666667
        value: {x: 1, y: 1, z: 1}
        inSlope: {x: -1.5056131, y: -1.5056117, z: -1.5056102}
        outSlope: {x: -1.5056131, y: -1.5056117, z: -1.5056102}
        tangentMode: 0
        weightedMode: 0
        inWeight: {x: 0.33333334, y: 0.33333334, z: 0.33333334}
        outWeight: {x: 0.33333334, y: 0.33333334, z: 0.33333334}
      - serializedVersion: 3
        time: 0.20833334
        value: {x: 1, y: 1, z: 1}
        inSlope: {x: 0, y: 0, z: 0}
        outSlope: {x: 0, y: 0, z: 0}
        tangentMode: 0
        weightedMode: 0
        inWeight: {x: 0.33333334, y: 0.33333334, z: 0.33333334}
        outWeight: {x: 0.33333334, y: 0.33333334, z: 0.33333334}
      - serializedVersion: 3
        time: 0.5
        value: {x: 1, y: 1.0000001, z: 1}
        inSlope: {x: 0, y: 0, z: 0}
        outSlope: {x: 0, y: 0, z: 0}
        tangentMode: 0
        weightedMode: 0
        inWeight: {x: 0.33333334, y: 0.33333334, z: 0.33333334}
        outWeight: {x: 0.33333334, y: 0.33333334, z: 0.33333334}
      m_PreInfinity: 2
      m_PostInfinity: 2
      m_RotationOrder: 4
    path: Armature/Main/Chest/Chestflame
  - curve:
      serializedVersion: 2
      m_Curve:
      - serializedVersion: 3
        time: 0
        value: {x: 2.3421776, y: 2.3421776, z: 2.3421776}
        inSlope: {x: -5.0331745, y: -5.033169, z: -5.033163}
        outSlope: {x: -5.0331745, y: -5.033169, z: -5.033163}
        tangentMode: 0
        weightedMode: 0
        inWeight: {x: 0.33333334, y: 0.33333334, z: 0.33333334}
        outWeight: {x: 0.33333334, y: 0.33333334, z: 0.33333334}
      - serializedVersion: 3
        time: 0.041666668
        value: {x: 2.132462, y: 2.1324623, z: 2.1324625}
        inSlope: {x: -8.053068, y: -8.053068, z: -8.053068}
        outSlope: {x: -8.053068, y: -8.053068, z: -8.053068}
        tangentMode: 0
        weightedMode: 0
        inWeight: {x: 0.33333334, y: 0.33333334, z: 0.33333334}
        outWeight: {x: 0.33333334, y: 0.33333334, z: 0.33333334}
      - serializedVersion: 3
        time: 0.083333336
        value: {x: 1.6710886, y: 1.6710886, z: 1.6710886}
        inSlope: {x: -11.072959, y: -11.072965, z: -11.072969}
        outSlope: {x: -11.072959, y: -11.072965, z: -11.072969}
        tangentMode: 0
        weightedMode: 0
        inWeight: {x: 0.33333334, y: 0.33333334, z: 0.33333334}
        outWeight: {x: 0.33333334, y: 0.33333334, z: 0.33333334}
      - serializedVersion: 3
        time: 0.125
        value: {x: 1.2097155, y: 1.2097152, z: 1.2097151}
        inSlope: {x: -8.053063, y: -8.0530615, z: -8.0530615}
        outSlope: {x: -8.053063, y: -8.0530615, z: -8.0530615}
        tangentMode: 0
        weightedMode: 0
        inWeight: {x: 0.33333334, y: 0.33333334, z: 0.33333334}
        outWeight: {x: 0.33333334, y: 0.33333334, z: 0.33333334}
      - serializedVersion: 3
        time: 0.16666667
        value: {x: 1, y: 1.0000001, z: 1.0000001}
        inSlope: {x: -2.5165856, y: -2.5165813, z: -2.5165799}
        outSlope: {x: -2.5165856, y: -2.5165813, z: -2.5165799}
        tangentMode: 0
        weightedMode: 0
        inWeight: {x: 0.33333334, y: 0.33333334, z: 0.33333334}
        outWeight: {x: 0.33333334, y: 0.33333334, z: 0.33333334}
      - serializedVersion: 3
        time: 0.20833334
        value: {x: 1, y: 1.0000001, z: 1.0000001}
        inSlope: {x: 0, y: 0, z: 0}
        outSlope: {x: 0, y: 0, z: 0}
        tangentMode: 0
        weightedMode: 0
        inWeight: {x: 0.33333334, y: 0.33333334, z: 0.33333334}
        outWeight: {x: 0.33333334, y: 0.33333334, z: 0.33333334}
      - serializedVersion: 3
        time: 0.5
        value: {x: 1.0000001, y: 1.0000001, z: 1}
        inSlope: {x: 0, y: 0, z: 0}
        outSlope: {x: 0, y: 0, z: 0}
        tangentMode: 0
        weightedMode: 0
        inWeight: {x: 0.33333334, y: 0.33333334, z: 0.33333334}
        outWeight: {x: 0.33333334, y: 0.33333334, z: 0.33333334}
      m_PreInfinity: 2
      m_PostInfinity: 2
      m_RotationOrder: 4
    path: Armature/Main/Chest/Shoulder.L
  - curve:
      serializedVersion: 2
      m_Curve:
      - serializedVersion: 3
        time: 0
        value: {x: 2.2977545, y: 2.2977545, z: 2.2977548}
        inSlope: {x: -4.8665943, y: -4.866583, z: -4.8665886}
        outSlope: {x: -4.8665943, y: -4.866583, z: -4.8665886}
        tangentMode: 0
        weightedMode: 0
        inWeight: {x: 0.33333334, y: 0.33333334, z: 0.33333334}
        outWeight: {x: 0.33333334, y: 0.33333334, z: 0.33333334}
      - serializedVersion: 3
        time: 0.041666668
        value: {x: 2.0949798, y: 2.0949802, z: 2.0949802}
        inSlope: {x: -7.7865286, y: -7.78653, z: -7.7865357}
        outSlope: {x: -7.7865286, y: -7.78653, z: -7.7865357}
        tangentMode: 0
        weightedMode: 0
        inWeight: {x: 0.33333334, y: 0.33333334, z: 0.33333334}
        outWeight: {x: 0.33333334, y: 0.33333334, z: 0.33333334}
      - serializedVersion: 3
        time: 0.083333336
        value: {x: 1.6488771, y: 1.648877, z: 1.6488768}
        inSlope: {x: -10.706467, y: -10.706472, z: -10.706472}
        outSlope: {x: -10.706467, y: -10.706472, z: -10.706472}
        tangentMode: 0
        weightedMode: 0
        inWeight: {x: 0.33333334, y: 0.33333334, z: 0.33333334}
        outWeight: {x: 0.33333334, y: 0.33333334, z: 0.33333334}
      - serializedVersion: 3
        time: 0.125
        value: {x: 1.2027743, y: 1.2027743, z: 1.2027743}
        inSlope: {x: -7.7865267, y: -7.786525, z: -7.786522}
        outSlope: {x: -7.7865267, y: -7.786525, z: -7.786522}
        tangentMode: 0
        weightedMode: 0
        inWeight: {x: 0.33333334, y: 0.33333334, z: 0.33333334}
        outWeight: {x: 0.33333334, y: 0.33333334, z: 0.33333334}
      - serializedVersion: 3
        time: 0.16666667
        value: {x: 0.99999994, y: 1, z: 1}
        inSlope: {x: -2.433292, y: -2.4332912, z: -2.4332912}
        outSlope: {x: -2.433292, y: -2.4332912, z: -2.4332912}
        tangentMode: 0
        weightedMode: 0
        inWeight: {x: 0.33333334, y: 0.33333334, z: 0.33333334}
        outWeight: {x: 0.33333334, y: 0.33333334, z: 0.33333334}
      - serializedVersion: 3
        time: 0.20833334
        value: {x: 0.99999994, y: 1, z: 1}
        inSlope: {x: 0, y: 0, z: 0}
        outSlope: {x: 0, y: 0, z: 0}
        tangentMode: 0
        weightedMode: 0
        inWeight: {x: 0.33333334, y: 0.33333334, z: 0.33333334}
        outWeight: {x: 0.33333334, y: 0.33333334, z: 0.33333334}
      - serializedVersion: 3
        time: 0.5
        value: {x: 1, y: 1.0000001, z: 1.0000001}
        inSlope: {x: 0, y: 0, z: 0}
        outSlope: {x: 0, y: 0, z: 0}
        tangentMode: 0
        weightedMode: 0
        inWeight: {x: 0.33333334, y: 0.33333334, z: 0.33333334}
        outWeight: {x: 0.33333334, y: 0.33333334, z: 0.33333334}
      m_PreInfinity: 2
      m_PostInfinity: 2
      m_RotationOrder: 4
    path: Armature/Main/Chest/Shoulder.R
  - curve:
      serializedVersion: 2
      m_Curve:
      - serializedVersion: 3
        time: 0
        value: {x: 1.0000001, y: 1.0000001, z: 1.0000099}
        inSlope: {x: 0, y: 0, z: 0}
        outSlope: {x: 0, y: 0, z: 0}
        tangentMode: 0
        weightedMode: 0
        inWeight: {x: 0.33333334, y: 0.33333334, z: 0.33333334}
        outWeight: {x: 0.33333334, y: 0.33333334, z: 0.33333334}
      - serializedVersion: 3
        time: 0.5
        value: {x: 1.0000001, y: 1.0000001, z: 1.0000099}
        inSlope: {x: 0, y: 0, z: 0}
        outSlope: {x: 0, y: 0, z: 0}
        tangentMode: 0
        weightedMode: 0
        inWeight: {x: 0.33333334, y: 0.33333334, z: 0.33333334}
        outWeight: {x: 0.33333334, y: 0.33333334, z: 0.33333334}
      m_PreInfinity: 2
      m_PostInfinity: 2
      m_RotationOrder: 4
    path: Armature/Main/LowerBody
  - curve:
      serializedVersion: 2
      m_Curve:
      - serializedVersion: 3
        time: 0
        value: {x: 0.9999999, y: 0.99999994, z: 1}
        inSlope: {x: 0, y: 0, z: 0}
        outSlope: {x: 0, y: 0, z: 0}
        tangentMode: 0
        weightedMode: 0
        inWeight: {x: 0.33333334, y: 0.33333334, z: 0.33333334}
        outWeight: {x: 0.33333334, y: 0.33333334, z: 0.33333334}
      - serializedVersion: 3
        time: 0.5
        value: {x: 0.9999999, y: 0.99999994, z: 1}
        inSlope: {x: 0, y: 0, z: 0}
        outSlope: {x: 0, y: 0, z: 0}
        tangentMode: 0
        weightedMode: 0
        inWeight: {x: 0.33333334, y: 0.33333334, z: 0.33333334}
        outWeight: {x: 0.33333334, y: 0.33333334, z: 0.33333334}
      m_PreInfinity: 2
      m_PostInfinity: 2
      m_RotationOrder: 4
    path: Armature/Main/LowerBody/Tail
  m_FloatCurves: []
  m_PPtrCurves: []
  m_SampleRate: 24
  m_WrapMode: 0
  m_Bounds:
    m_Center: {x: 0, y: 0, z: 0}
    m_Extent: {x: 0, y: 0, z: 0}
  m_ClipBindingConstant:
    genericBindings:
    - serializedVersion: 2
      path: 361100003
      attribute: 1
      script: {fileID: 0}
      typeID: 4
      customType: 0
      isPPtrCurve: 0
    - serializedVersion: 2
      path: 2809313930
      attribute: 1
      script: {fileID: 0}
      typeID: 4
      customType: 0
      isPPtrCurve: 0
    - serializedVersion: 2
      path: 3724814091
      attribute: 1
      script: {fileID: 0}
      typeID: 4
      customType: 0
      isPPtrCurve: 0
    - serializedVersion: 2
      path: 604707432
      attribute: 1
      script: {fileID: 0}
      typeID: 4
      customType: 0
      isPPtrCurve: 0
    - serializedVersion: 2
      path: 325907562
      attribute: 1
      script: {fileID: 0}
      typeID: 4
      customType: 0
      isPPtrCurve: 0
    - serializedVersion: 2
      path: 2837010927
      attribute: 1
      script: {fileID: 0}
      typeID: 4
      customType: 0
      isPPtrCurve: 0
    - serializedVersion: 2
      path: 1393976460
      attribute: 1
      script: {fileID: 0}
      typeID: 4
      customType: 0
      isPPtrCurve: 0
    - serializedVersion: 2
      path: 361100003
      attribute: 2
      script: {fileID: 0}
      typeID: 4
      customType: 0
      isPPtrCurve: 0
    - serializedVersion: 2
      path: 3654365293
      attribute: 2
      script: {fileID: 0}
      typeID: 4
      customType: 0
      isPPtrCurve: 0
    - serializedVersion: 2
      path: 3993936762
      attribute: 2
      script: {fileID: 0}
      typeID: 4
      customType: 0
      isPPtrCurve: 0
    - serializedVersion: 2
      path: 2809313930
      attribute: 2
      script: {fileID: 0}
      typeID: 4
      customType: 0
      isPPtrCurve: 0
    - serializedVersion: 2
      path: 3724814091
      attribute: 2
      script: {fileID: 0}
      typeID: 4
      customType: 0
      isPPtrCurve: 0
    - serializedVersion: 2
      path: 604707432
      attribute: 2
      script: {fileID: 0}
      typeID: 4
      customType: 0
      isPPtrCurve: 0
    - serializedVersion: 2
      path: 325907562
      attribute: 2
      script: {fileID: 0}
      typeID: 4
      customType: 0
      isPPtrCurve: 0
    - serializedVersion: 2
      path: 2837010927
      attribute: 2
      script: {fileID: 0}
      typeID: 4
      customType: 0
      isPPtrCurve: 0
    - serializedVersion: 2
      path: 1393976460
      attribute: 2
      script: {fileID: 0}
      typeID: 4
      customType: 0
      isPPtrCurve: 0
    - serializedVersion: 2
      path: 2388897765
      attribute: 2
      script: {fileID: 0}
      typeID: 4
      customType: 0
      isPPtrCurve: 0
    - serializedVersion: 2
      path: 361100003
      attribute: 3
      script: {fileID: 0}
      typeID: 4
      customType: 0
      isPPtrCurve: 0
    - serializedVersion: 2
      path: 2809313930
      attribute: 3
      script: {fileID: 0}
      typeID: 4
      customType: 0
      isPPtrCurve: 0
    - serializedVersion: 2
      path: 325907562
      attribute: 3
      script: {fileID: 0}
      typeID: 4
      customType: 0
      isPPtrCurve: 0
    - serializedVersion: 2
      path: 2837010927
      attribute: 3
      script: {fileID: 0}
      typeID: 4
      customType: 0
      isPPtrCurve: 0
    - serializedVersion: 2
      path: 1393976460
      attribute: 3
      script: {fileID: 0}
      typeID: 4
      customType: 0
      isPPtrCurve: 0
    - serializedVersion: 2
      path: 2104266162
      attribute: 1
      script: {fileID: 0}
      typeID: 4
      customType: 0
      isPPtrCurve: 0
    - serializedVersion: 2
      path: 3654365293
      attribute: 1
      script: {fileID: 0}
      typeID: 4
      customType: 0
      isPPtrCurve: 0
    - serializedVersion: 2
      path: 3993936762
      attribute: 1
      script: {fileID: 0}
      typeID: 4
      customType: 0
      isPPtrCurve: 0
    - serializedVersion: 2
      path: 2388897765
      attribute: 1
      script: {fileID: 0}
      typeID: 4
      customType: 0
      isPPtrCurve: 0
    - serializedVersion: 2
      path: 1650395895
      attribute: 1
      script: {fileID: 0}
      typeID: 4
      customType: 0
      isPPtrCurve: 0
    - serializedVersion: 2
      path: 2104266162
      attribute: 2
      script: {fileID: 0}
      typeID: 4
      customType: 0
      isPPtrCurve: 0
    - serializedVersion: 2
      path: 1650395895
      attribute: 2
      script: {fileID: 0}
      typeID: 4
      customType: 0
      isPPtrCurve: 0
    - serializedVersion: 2
      path: 2104266162
      attribute: 3
      script: {fileID: 0}
      typeID: 4
      customType: 0
      isPPtrCurve: 0
    - serializedVersion: 2
      path: 3654365293
      attribute: 3
      script: {fileID: 0}
      typeID: 4
      customType: 0
      isPPtrCurve: 0
    - serializedVersion: 2
      path: 3993936762
      attribute: 3
      script: {fileID: 0}
      typeID: 4
      customType: 0
      isPPtrCurve: 0
    - serializedVersion: 2
      path: 3724814091
      attribute: 3
      script: {fileID: 0}
      typeID: 4
      customType: 0
      isPPtrCurve: 0
    - serializedVersion: 2
      path: 604707432
      attribute: 3
      script: {fileID: 0}
      typeID: 4
      customType: 0
      isPPtrCurve: 0
    - serializedVersion: 2
      path: 2388897765
      attribute: 3
      script: {fileID: 0}
      typeID: 4
      customType: 0
      isPPtrCurve: 0
    - serializedVersion: 2
      path: 1650395895
      attribute: 3
      script: {fileID: 0}
      typeID: 4
      customType: 0
      isPPtrCurve: 0
    pptrCurveMapping: []
  m_AnimationClipSettings:
    serializedVersion: 2
    m_AdditiveReferencePoseClip: {fileID: 0}
    m_AdditiveReferencePoseTime: 0
    m_StartTime: 0
    m_StopTime: 0.5
    m_OrientationOffsetY: 0
    m_Level: 0
    m_CycleOffset: 0
    m_HasAdditiveReferencePose: 0
    m_LoopTime: 0
    m_LoopBlend: 0
    m_LoopBlendOrientation: 0
    m_LoopBlendPositionY: 0
    m_LoopBlendPositionXZ: 0
    m_KeepOriginalOrientation: 0
    m_KeepOriginalPositionY: 1
    m_KeepOriginalPositionXZ: 0
    m_HeightFromFeet: 0
    m_Mirror: 0
  m_EditorCurves: []
  m_EulerEditorCurves: []
  m_HasGenericRootTransform: 0
  m_HasMotionFloatCurves: 0
  m_Events: []
