%YAML 1.1
%TAG !u! tag:unity3d.com,2011:
--- !u!78 &1
TagManager:
  serializedVersion: 2
  tags:
  - MainCharacter
  - Platforms
  - MovingPlatform
  - FrozenSurface
  - Fireboss
  - Iceboss
  layers:
  - Default
  - TransparentFX
  - Ignore Raycast
  - 
  - Water
  - UI
  - 
  - 
  - Ground
  - Postprocessing
  - Enviornment
  - Player
  - Enemy
  - WaterFloor
  - Lava
  - TestCollisionMatrix
  - IceWall
  - VFX
  - 
  - 
  - 
  - 
  - 
  - 
  - 
  - 
  - 
  - 
  - 
  - 
  - 
  - 
  m_SortingLayers:
  - name: Default
    uniqueID: 0
    locked: 0
